{
  name: "Liereal v1.19",
  constants: {
    nrInitialLength: 250,
    nrAttachLength: 28.125,
    minBounceUp: -21.86962890625,
    minBounceDown: 2.33837890625,
    minBounceHoriz: 2.33837890625,
    wormGravity: 0.0335693359375,
    wormAcc: 0.0762939453125,
    wormMaxVel: 0.4999847412109375,
    jumpForce: 0.91650390625,
    maxAimVel: 0.05243098363280296,
    aimAcc: 0.002996056340634823,
    ninjaropeGravity: 0.0152587890625,
    nrMinLength: 10.625,
    nrMaxLength: 68.75,
    bonusGravity: 0.02288818359375,
    wormFricMult: 0.9100000262260437,
    aimFric: 0.8299999833106995,
    nrThrowVel: 4,
    nrForce: 0.0833333358168602,
    bonusBounce: 0.05000000074505806,
    bonusFlickerTime: 220,
    aimMaxAngle: 1.5707963705062866,
    aimMinAngle: -1.1780972480773926,
    nrAdjustVel: 1.5,
    nrColourBegin: 26,
    nrColourEnd: 28,
    bonusExplodeRisk: 40,
    bonusHealthVar: 50,
    bonusMinHealth: 5,
    firstBloodColour: 80,
    numBloodColours: 2,
    bObjGravity: 0.030517578125,
    splinterLarpaVelDiv: 3,
    splinterCracklerVelDiv: 3,
    fallDamageHoriz: 6,
    fallDamageDown: 10,
    fallDamageUp: 2,
    hFallDamage: true,
    hBonusReloadOnly: false,
  },
  weapons: [
    {
      parts: 10,
      bulletType: 0,
      bulletSpeed: 4.900000095367432,
      bulletSpeedInherit: 0,
      distribution: 0.396728515625,
      recoil: 0.30000001192092896,
      ammo: 8,
      delay: 60,
      loadingTime: 935,
      leaveShells: 1,
      leaveShellDelay: 28,
      fireCone: 4,
      laserSight: false,
      laserBeam: false,
      launchSound: 0,
      playReloadSound: true,
      name: 'FRENCHI SPAS',
    },
    {
      parts: 1,
      bulletType: 1,
      bulletSpeed: 3.5,
      bulletSpeedInherit: 0.2857142984867096,
      distribution: 0.0457763671875,
      recoil: 0.009999999776482582,
      ammo: 30,
      delay: 3,
      loadingTime: 385,
      leaveShells: 1,
      leaveShellDelay: 1,
      fireCone: 3,
      laserSight: false,
      laserBeam: false,
      launchSound: 8,
      playReloadSound: true,
      name: 'HK MP FIVE SD',
    },
    {
      parts: 1,
      bulletType: 2,
      bulletSpeed: 2.5,
      bulletSpeedInherit: 0.4000000059604645,
      distribution: 0.00457763671875,
      recoil: 0.6000000238418579,
      ammo: 1,
      delay: 50,
      loadingTime: 395,
      leaveShells: 1,
      leaveShellDelay: 1,
      fireCone: 4,
      laserSight: true,
      laserBeam: false,
      launchSound: 22,
      playReloadSound: true,
      name: 'REMINGTON AWR',
    },
    {
      parts: 1,
      bulletType: 3,
      bulletSpeed: 4,
      bulletSpeedInherit: 0,
      distribution: 0.2288818359375,
      recoil: 0.10000000149011612,
      ammo: 30,
      delay: 7,
      loadingTime: 620,
      leaveShells: 1,
      leaveShellDelay: 1,
      fireCone: 6,
      laserSight: false,
      laserBeam: false,
      launchSound: 3,
      playReloadSound: true,
      name: 'KALASHNIKOV',
    },
    {
      parts: 1,
      bulletType: 4,
      bulletSpeed: 6,
      bulletSpeedInherit: 0.1666666716337204,
      distribution: 0.274658203125,
      recoil: 0.30000001192092896,
      ammo: 10,
      delay: 12,
      loadingTime: 655,
      leaveShells: 1,
      leaveShellDelay: 1,
      fireCone: 4,
      laserSight: false,
      laserBeam: false,
      launchSound: 0,
      playReloadSound: true,
      name: 'JACKHAMMER',
    },
    {
      parts: 1,
      bulletType: 5,
      bulletSpeed: 3.9000000953674316,
      bulletSpeedInherit: 0.25641024112701416,
      distribution: 0.0152587890625,
      recoil: 0,
      ammo: 1,
      delay: 2,
      loadingTime: 173,
      leaveShells: 0,
      leaveShellDelay: 1,
      fireCone: 0,
      laserSight: false,
      laserBeam: false,
      launchSound: 5,
      playReloadSound: false,
      name: 'THROWIN KNIFE',
    },
    {
      parts: 1,
      bulletType: 6,
      bulletSpeed: 1,
      bulletSpeedInherit: 1,
      distribution: 0.1220703125,
      recoil: 0,
      ammo: 3,
      delay: 40,
      loadingTime: 600,
      leaveShells: 0,
      leaveShellDelay: 1,
      fireCone: 0,
      laserSight: false,
      laserBeam: false,
      launchSound: 5,
      playReloadSound: false,
      name: 'MOTION CHARGE',
    },
    {
      parts: 1,
      bulletType: 7,
      bulletSpeed: 3.5,
      bulletSpeedInherit: 0.2857142984867096,
      distribution: 0.1220703125,
      recoil: 0.12999999523162842,
      ammo: 30,
      delay: 8,
      loadingTime: 510,
      leaveShells: 1,
      leaveShellDelay: 1,
      fireCone: 4,
      laserSight: false,
      laserBeam: false,
      launchSound: 23,
      playReloadSound: true,
      name: 'M FOURTEEN',
    },
    {
      parts: 1,
      bulletType: 8,
      bulletSpeed: 4.110000133514404,
      bulletSpeedInherit: 0.24330899119377136,
      distribution: 0.02288818359375,
      recoil: 0.019999999552965164,
      ammo: 28,
      delay: 6,
      loadingTime: 440,
      leaveShells: 1,
      leaveShellDelay: 1,
      fireCone: 4,
      laserSight: false,
      laserBeam: false,
      launchSound: 10,
      playReloadSound: true,
      name: 'HK UMP FOURTY',
    },
    {
      parts: 1,
      bulletType: 9,
      bulletSpeed: 4.400000095367432,
      bulletSpeedInherit: 0.22727271914482117,
      distribution: 0.06103515625,
      recoil: 0.09000000357627869,
      ammo: 3,
      delay: 4,
      loadingTime: 150,
      leaveShells: 1,
      leaveShellDelay: 1,
      fireCone: 4,
      laserSight: false,
      laserBeam: false,
      launchSound: 4,
      playReloadSound: false,
      name: 'M SIXTEEN',
    },
    {
      parts: 1,
      bulletType: 10,
      bulletSpeed: 2.0999999046325684,
      bulletSpeedInherit: 0.4761905074119568,
      distribution: 0.1068115234375,
      recoil: 0,
      ammo: 1,
      delay: 0,
      loadingTime: 460,
      leaveShells: 0,
      leaveShellDelay: 1,
      fireCone: 0,
      laserSight: false,
      laserBeam: false,
      launchSound: 5,
      playReloadSound: false,
      name: 'GRENADE',
    },
    {
      parts: 1,
      bulletType: 11,
      bulletSpeed: 3.200000047683716,
      bulletSpeedInherit: 0.3125,
      distribution: 0.3204345703125,
      recoil: 0.20000000298023224,
      ammo: 1,
      delay: 20,
      loadingTime: 1560,
      leaveShells: 0,
      leaveShellDelay: 1,
      fireCone: 7,
      laserSight: false,
      laserBeam: false,
      launchSound: 6,
      playReloadSound: true,
      name: 'STINGER',
    },
    {
      parts: 1,
      bulletType: 12,
      bulletSpeed: 4.440000057220459,
      bulletSpeedInherit: 0,
      distribution: 0.091552734375,
      recoil: 0.05999999865889549,
      ammo: 31,
      delay: 5,
      loadingTime: 450,
      leaveShells: 1,
      leaveShellDelay: 1,
      fireCone: 5,
      laserSight: false,
      laserBeam: false,
      launchSound: 4,
      playReloadSound: true,
      name: 'COLT COMMANDO',
    },
    {
      parts: 1,
      bulletType: 13,
      bulletSpeed: 5,
      bulletSpeedInherit: 0,
      distribution: 0.11444091796875,
      recoil: 0.03999999910593033,
      ammo: 32,
      delay: 4,
      loadingTime: 605,
      leaveShells: 1,
      leaveShellDelay: 1,
      fireCone: 3,
      laserSight: false,
      laserBeam: false,
      launchSound: 23,
      playReloadSound: false,
      name: 'STEYR AUG',
    },
    {
      parts: 1,
      bulletType: 14,
      bulletSpeed: 6.599999904632568,
      bulletSpeedInherit: 0.1515151560306549,
      distribution: 0.4425048828125,
      recoil: 0.07999999821186066,
      ammo: 100,
      delay: 2,
      loadingTime: 1390,
      leaveShells: 1,
      leaveShellDelay: 1,
      fireCone: 10,
      laserSight: false,
      laserBeam: false,
      launchSound: 28,
      playReloadSound: true,
      name: 'MINIGUN',
    },
    {
      parts: 1,
      bulletType: 15,
      bulletSpeed: 2,
      bulletSpeedInherit: 0.5,
      distribution: 0.030517578125,
      recoil: 0,
      ammo: 1,
      delay: 40,
      loadingTime: 500,
      leaveShells: 0,
      leaveShellDelay: 1,
      fireCone: 0,
      laserSight: false,
      laserBeam: false,
      launchSound: 5,
      playReloadSound: false,
      name: 'FRAG GRENADE',
    },
    {
      parts: 20,
      bulletType: 16,
      bulletSpeed: 4.599999904632568,
      bulletSpeedInherit: 0,
      distribution: 0.4999847412109375,
      recoil: 0.5,
      ammo: 2,
      delay: 10,
      loadingTime: 520,
      leaveShells: 2,
      leaveShellDelay: 28,
      fireCone: 8,
      laserSight: false,
      laserBeam: false,
      launchSound: 9,
      playReloadSound: true,
      name: 'DOUBLE SHTGUN',
    },
    {
      parts: 1,
      bulletType: 17,
      bulletSpeed: 3.5999999046325684,
      bulletSpeedInherit: 0.2777777910232544,
      distribution: 0.08544921875,
      recoil: 0.05000000074505806,
      ammo: 13,
      delay: 24,
      loadingTime: 420,
      leaveShells: 1,
      leaveShellDelay: 1,
      fireCone: 2,
      laserSight: false,
      laserBeam: false,
      launchSound: 1,
      playReloadSound: true,
      name: 'BERETTA',
    },
    {
      parts: 1,
      bulletType: 18,
      bulletSpeed: 1,
      bulletSpeedInherit: 0,
      distribution: 0.0457763671875,
      recoil: 0.30000001192092896,
      ammo: 1,
      delay: 5,
      loadingTime: 730,
      leaveShells: 1,
      leaveShellDelay: 1,
      fireCone: 20,
      laserSight: false,
      laserBeam: false,
      launchSound: 6,
      playReloadSound: true,
      name: 'RPG SEVEN',
    },
    {
      parts: 1,
      bulletType: 19,
      bulletSpeed: 3.799999952316284,
      bulletSpeedInherit: 0,
      distribution: 0.0345916748046875,
      recoil: 0.029999999329447746,
      ammo: 50,
      delay: 2,
      loadingTime: 600,
      leaveShells: 1,
      leaveShellDelay: 1,
      fireCone: 1,
      laserSight: false,
      laserBeam: false,
      launchSound: 13,
      playReloadSound: false,
      name: 'FN P NINETY',
    },
    {
      parts: 1,
      bulletType: 20,
      bulletSpeed: 2.200000047683716,
      bulletSpeedInherit: 0.45454543828964233,
      distribution: 0.030517578125,
      recoil: 0,
      ammo: 1,
      delay: 0,
      loadingTime: 550,
      leaveShells: 0,
      leaveShellDelay: 1,
      fireCone: 0,
      laserSight: false,
      laserBeam: false,
      launchSound: 5,
      playReloadSound: true,
      name: 'STUN GRENADE',
    },
    {
      parts: 1,
      bulletType: 21,
      bulletSpeed: 5.5,
      bulletSpeedInherit: 0.1818181872367859,
      distribution: 0.1068115234375,
      recoil: 0.30000001192092896,
      ammo: 1,
      delay: 40,
      loadingTime: 540,
      leaveShells: 1,
      leaveShellDelay: 1,
      fireCone: 2,
      laserSight: false,
      laserBeam: false,
      launchSound: 27,
      playReloadSound: true,
      name: 'G LAUNCHER',
    },
    {
      parts: 14,
      bulletType: 22,
      bulletSpeed: 1,
      bulletSpeedInherit: 1,
      distribution: 0.48828125,
      recoil: 0,
      ammo: 1,
      delay: 150,
      loadingTime: 510,
      leaveShells: 0,
      leaveShellDelay: 1,
      fireCone: 0,
      laserSight: false,
      laserBeam: false,
      launchSound: 5,
      playReloadSound: false,
      name: 'SPIKES',
    },
    {
      parts: 1,
      bulletType: 23,
      bulletSpeed: 4.400000095367432,
      bulletSpeedInherit: 0.22727271914482117,
      distribution: 0.244140625,
      recoil: 0.029999999329447746,
      ammo: 1,
      delay: 20,
      loadingTime: 640,
      leaveShells: 0,
      leaveShellDelay: 1,
      fireCone: 3,
      laserSight: false,
      laserBeam: false,
      launchSound: 14,
      playReloadSound: true,
      name: 'MORTAR',
    },
    {
      parts: 1,
      bulletType: 24,
      bulletSpeed: 4.099999904632568,
      bulletSpeedInherit: 0.24390244483947754,
      distribution: 0.335693359375,
      recoil: 0.1899999976158142,
      ammo: 70,
      delay: 5,
      loadingTime: 1120,
      leaveShells: 1,
      leaveShellDelay: 1,
      fireCone: 8,
      laserSight: false,
      laserBeam: false,
      launchSound: 12,
      playReloadSound: false,
      name: 'M SIXTY',
    },
    {
      parts: 1,
      bulletType: 25,
      bulletSpeed: 1.100000023841858,
      bulletSpeedInherit: 0.9090908765792847,
      distribution: 0.01220703125,
      recoil: 0,
      ammo: 1,
      delay: 45,
      loadingTime: 840,
      leaveShells: 0,
      leaveShellDelay: 1,
      fireCone: 0,
      laserSight: false,
      laserBeam: false,
      launchSound: 29,
      playReloadSound: true,
      name: 'DYNAMITE',
    },
    {
      parts: 1,
      bulletType: 26,
      bulletSpeed: 5.5,
      bulletSpeedInherit: 0.1818181872367859,
      distribution: 0.18310546875,
      recoil: 0.05000000074505806,
      ammo: 30,
      delay: 5,
      loadingTime: 750,
      leaveShells: 1,
      leaveShellDelay: 1,
      fireCone: 4,
      laserSight: true,
      laserBeam: false,
      launchSound: 11,
      playReloadSound: true,
      name: 'ENFIELD',
    },
    {
      parts: 1,
      bulletType: 27,
      bulletSpeed: 4.599999904632568,
      bulletSpeedInherit: 0.21739131212234497,
      distribution: 0.06103515625,
      recoil: 0.07999999821186066,
      ammo: 31,
      delay: 6,
      loadingTime: 550,
      leaveShells: 1,
      leaveShellDelay: 1,
      fireCone: 5,
      laserSight: true,
      laserBeam: false,
      launchSound: 4,
      playReloadSound: true,
      name: 'SOPMOD',
    },
    {
      parts: 1,
      bulletType: 28,
      bulletSpeed: 2.5,
      bulletSpeedInherit: 0.4000000059604645,
      distribution: 0.1948089599609375,
      recoil: 0.05999999865889549,
      ammo: 5,
      delay: 25,
      loadingTime: 1400,
      leaveShells: 1,
      leaveShellDelay: 1,
      fireCone: 10,
      laserSight: false,
      laserBeam: true,
      launchSound: 6,
      playReloadSound: true,
      name: 'ARTILLERY',
    },
    {
      parts: 1,
      bulletType: 29,
      bulletSpeed: 3.0999999046325684,
      bulletSpeedInherit: 0.3225806653499603,
      distribution: 0,
      recoil: 0,
      ammo: 6,
      delay: 0,
      loadingTime: 0,
      leaveShells: 0,
      leaveShellDelay: 1,
      fireCone: 0,
      laserSight: false,
      laserBeam: false,
      launchSound: -1,
      playReloadSound: true,
      name: 'CHAINSAW',
    },
    {
      parts: 1,
      bulletType: 30,
      bulletSpeed: 2.299999952316284,
      bulletSpeedInherit: 0,
      distribution: 0.457763671875,
      recoil: 0,
      ammo: 1,
      delay: 0,
      loadingTime: 760,
      leaveShells: 0,
      leaveShellDelay: 1,
      fireCone: 0,
      laserSight: false,
      laserBeam: false,
      launchSound: 5,
      playReloadSound: false,
      name: 'MOLOTOV',
    },
    {
      parts: 1,
      bulletType: 31,
      bulletSpeed: 3.5999999046325684,
      bulletSpeedInherit: 0,
      distribution: 0.18310546875,
      recoil: 0.019999999552965164,
      ammo: 30,
      delay: 4,
      loadingTime: 350,
      leaveShells: 1,
      leaveShellDelay: 1,
      fireCone: 2,
      laserSight: false,
      laserBeam: false,
      launchSound: 28,
      playReloadSound: true,
      name: 'IMI UZI',
    },
    {
      parts: 1,
      bulletType: 32,
      bulletSpeed: 4.400000095367432,
      bulletSpeedInherit: 0.22727271914482117,
      distribution: 0.2288818359375,
      recoil: 0,
      ammo: 120,
      delay: 1,
      loadingTime: 980,
      leaveShells: 0,
      leaveShellDelay: 1,
      fireCone: 0,
      laserSight: false,
      laserBeam: false,
      launchSound: 29,
      playReloadSound: true,
      name: 'FLAMETHROWER',
    },
    {
      parts: 1,
      bulletType: 33,
      bulletSpeed: 2,
      bulletSpeedInherit: 0,
      distribution: 0.0579833984375,
      recoil: 0.25,
      ammo: 10,
      delay: 60,
      loadingTime: 700,
      leaveShells: 1,
      leaveShellDelay: 1,
      fireCone: 6,
      laserSight: true,
      laserBeam: false,
      launchSound: 2,
      playReloadSound: false,
      name: 'SVD DRAGUNOV',
    },
    {
      parts: 1,
      bulletType: 34,
      bulletSpeed: 3.4000000953674316,
      bulletSpeedInherit: 0,
      distribution: 0.1373291015625,
      recoil: 0.009999999776482582,
      ammo: 20,
      delay: 18,
      loadingTime: 350,
      leaveShells: 1,
      leaveShellDelay: 1,
      fireCone: 1,
      laserSight: true,
      laserBeam: false,
      launchSound: 28,
      playReloadSound: false,
      name: 'FIVESEVEN LS',
    },
    {
      parts: 2,
      bulletType: 35,
      bulletSpeed: 4.03000020980835,
      bulletSpeedInherit: 0.24813894927501678,
      distribution: 0.4084320068359375,
      recoil: 0.009999999776482582,
      ammo: 255,
      delay: 0,
      loadingTime: 150,
      leaveShells: 0,
      leaveShellDelay: 1,
      fireCone: 0,
      laserSight: false,
      laserBeam: false,
      launchSound: 29,
      playReloadSound: false,
      name: 'WATER HOSE',
    },
    {
      parts: 1,
      bulletType: 36,
      bulletSpeed: 2.700000047683716,
      bulletSpeedInherit: 0.37037035822868347,
      distribution: 0.4068145751953125,
      recoil: 0.550000011920929,
      ammo: 7,
      delay: 21,
      loadingTime: 880,
      leaveShells: 1,
      leaveShellDelay: 1,
      fireCone: 7,
      laserSight: false,
      laserBeam: false,
      launchSound: 13,
      playReloadSound: true,
      name: 'AA GUN',
    },
    {
      parts: 1,
      bulletType: 37,
      bulletSpeed: 1.7000000476837158,
      bulletSpeedInherit: 0.5882352590560913,
      distribution: 0.1220703125,
      recoil: 0,
      ammo: 1,
      delay: 30,
      loadingTime: 700,
      leaveShells: 0,
      leaveShellDelay: 1,
      fireCone: 0,
      laserSight: false,
      laserBeam: false,
      launchSound: 5,
      playReloadSound: false,
      name: 'HE GRENADE',
    },
    {
      parts: 1,
      bulletType: 38,
      bulletSpeed: 4.099999904632568,
      bulletSpeedInherit: 0,
      distribution: 0.2899169921875,
      recoil: 0.10000000149011612,
      ammo: 7,
      delay: 27,
      loadingTime: 660,
      leaveShells: 1,
      leaveShellDelay: 1,
      fireCone: 3,
      laserSight: false,
      laserBeam: false,
      launchSound: 7,
      playReloadSound: true,
      name: 'DESERT EAGLE',
    },
    {
      parts: 1,
      bulletType: 39,
      bulletSpeed: 1.399999976158142,
      bulletSpeedInherit: 0.7142857313156128,
      distribution: 0,
      recoil: 0,
      ammo: 1,
      delay: 100,
      loadingTime: 1500,
      leaveShells: 0,
      leaveShellDelay: 1,
      fireCone: 0,
      laserSight: false,
      laserBeam: false,
      launchSound: 26,
      playReloadSound: true,
      name: 'C FOUR',
    },
  ],
  wObjects: [
    {
      detectDistance: 1,
      blowAway: 0.009999999776482582,
      gravity: 0.0152587890625,
      exploSound: -1,
      addSpeed: 0,
      distribution: 0.396728515625,
      multSpeed: 0.9900000095367432,
      createOnExp: 3,
      dirtEffect: 1,
      wormExplode: false,
      explGround: true,
      wormCollide: true,
      collideWithObjects: false,
      affectByExplosions: false,
      bounce: 0,
      bounceFriction: 0.800000011920929,
      timeToExplo: 20,
      timeToExploV: 10,
      hitDamage: 5,
      bloodOnHit: 1,
      startFrame: -1,
      numFrames: 0,
      loopAnim: false,
      shotType: 0,
      repeat: 1,
      colorBullets: 75,
      splinterAmount: 0,
      splinterColour: 0,
      splinterType: -1,
      splinterScatter: 0,
      objTrailType: -1,
      objTrailDelay: 0,
      partTrailType: 0,
      partTrailObj: -1,
      partTrailDelay: 0,
      speed: 490,
    },
    {
      detectDistance: 2,
      blowAway: 0.019999999552965164,
      gravity: 0.0030517578125,
      exploSound: -1,
      addSpeed: 0,
      distribution: 0.0457763671875,
      multSpeed: 0.9900000095367432,
      createOnExp: 9,
      dirtEffect: 5,
      wormExplode: false,
      explGround: true,
      wormCollide: true,
      collideWithObjects: false,
      affectByExplosions: false,
      bounce: 0,
      bounceFriction: 0.800000011920929,
      timeToExplo: 35,
      timeToExploV: 5,
      hitDamage: 12,
      bloodOnHit: 1,
      startFrame: -1,
      numFrames: 0,
      loopAnim: false,
      shotType: 0,
      repeat: 1,
      colorBullets: 68,
      splinterAmount: 1,
      splinterColour: 0,
      splinterType: 2,
      splinterScatter: 0,
      objTrailType: -1,
      objTrailDelay: 0,
      partTrailType: 0,
      partTrailObj: -1,
      partTrailDelay: 0,
      speed: 350,
    },
    {
      detectDistance: 2,
      blowAway: 0.699999988079071,
      gravity: 0.00030517578125,
      exploSound: -1,
      addSpeed: 0,
      distribution: 0.00457763671875,
      multSpeed: 1,
      createOnExp: 4,
      dirtEffect: 5,
      wormExplode: false,
      explGround: true,
      wormCollide: true,
      collideWithObjects: false,
      affectByExplosions: false,
      bounce: 0,
      bounceFriction: 0.800000011920929,
      timeToExplo: 0,
      timeToExploV: 0,
      hitDamage: 100,
      bloodOnHit: 1,
      startFrame: -1,
      numFrames: 0,
      loopAnim: false,
      shotType: 4,
      repeat: 8,
      colorBullets: 68,
      splinterAmount: 0,
      splinterColour: 0,
      splinterType: -1,
      splinterScatter: 0,
      objTrailType: -1,
      objTrailDelay: 0,
      partTrailType: 0,
      partTrailObj: -1,
      partTrailDelay: 0,
      speed: 250,
    },
    {
      detectDistance: 1,
      blowAway: 0.07000000029802322,
      gravity: 0.01068115234375,
      exploSound: -1,
      addSpeed: 3,
      distribution: 0.2288818359375,
      multSpeed: 1,
      createOnExp: 8,
      dirtEffect: 1,
      wormExplode: false,
      explGround: true,
      wormCollide: true,
      collideWithObjects: false,
      affectByExplosions: false,
      bounce: 0,
      bounceFriction: 0.800000011920929,
      timeToExplo: 100,
      timeToExploV: 20,
      hitDamage: 14,
      bloodOnHit: 2,
      startFrame: -1,
      numFrames: 0,
      loopAnim: false,
      shotType: 0,
      repeat: 1,
      colorBullets: 26,
      splinterAmount: 0,
      splinterColour: 0,
      splinterType: -1,
      splinterScatter: 0,
      objTrailType: -1,
      objTrailDelay: 0,
      partTrailType: 0,
      partTrailObj: -1,
      partTrailDelay: 0,
      speed: 400,
    },
    {
      detectDistance: 1,
      blowAway: 0.4000000059604645,
      gravity: 0.0030517578125,
      exploSound: -1,
      addSpeed: 0,
      distribution: 0.274658203125,
      multSpeed: 0.9900000095367432,
      createOnExp: 5,
      dirtEffect: 1,
      wormExplode: false,
      explGround: true,
      wormCollide: true,
      collideWithObjects: false,
      affectByExplosions: true,
      bounce: 0,
      bounceFriction: 0.800000011920929,
      timeToExplo: 42,
      timeToExploV: 8,
      hitDamage: 24,
      bloodOnHit: 3,
      startFrame: -1,
      numFrames: 0,
      loopAnim: false,
      shotType: 0,
      repeat: 1,
      colorBullets: 57,
      splinterAmount: 1,
      splinterColour: 0,
      splinterType: 2,
      splinterScatter: 0,
      objTrailType: -1,
      objTrailDelay: 0,
      partTrailType: 0,
      partTrailObj: -1,
      partTrailDelay: 0,
      speed: 600,
    },
    {
      detectDistance: 3,
      blowAway: 0.05000000074505806,
      gravity: 0.08392333984375,
      exploSound: -1,
      addSpeed: 0,
      distribution: 0.0152587890625,
      multSpeed: 1,
      createOnExp: 6,
      dirtEffect: -1,
      wormExplode: false,
      explGround: true,
      wormCollide: true,
      collideWithObjects: true,
      affectByExplosions: true,
      bounce: 0,
      bounceFriction: 0.800000011920929,
      timeToExplo: 300,
      timeToExploV: 10,
      hitDamage: 19,
      bloodOnHit: 41,
      startFrame: 127,
      numFrames: 7,
      loopAnim: true,
      shotType: 0,
      repeat: 1,
      colorBullets: 0,
      splinterAmount: 1,
      splinterColour: 0,
      splinterType: 13,
      splinterScatter: 0,
      objTrailType: -1,
      objTrailDelay: 0,
      partTrailType: 0,
      partTrailObj: -1,
      partTrailDelay: 0,
      speed: 390,
    },
    {
      detectDistance: 7,
      blowAway: 0.009999999776482582,
      gravity: 0.0457763671875,
      exploSound: -1,
      addSpeed: 0,
      distribution: 0.1220703125,
      multSpeed: 0.9800000190734863,
      createOnExp: 13,
      dirtEffect: -1,
      wormExplode: true,
      explGround: false,
      wormCollide: true,
      collideWithObjects: false,
      affectByExplosions: true,
      bounce: 0.10000000149011612,
      bounceFriction: 0.800000011920929,
      timeToExplo: 7000,
      timeToExploV: 600,
      hitDamage: 0,
      bloodOnHit: 0,
      startFrame: 173,
      numFrames: 3,
      loopAnim: true,
      shotType: 0,
      repeat: 1,
      colorBullets: 0,
      splinterAmount: 25,
      splinterColour: 0,
      splinterType: 8,
      splinterScatter: 0,
      objTrailType: -1,
      objTrailDelay: 0,
      partTrailType: 0,
      partTrailObj: -1,
      partTrailDelay: 0,
      speed: 95,
    },
    {
      detectDistance: 1,
      blowAway: 0.5,
      gravity: 0.000762939453125,
      exploSound: -1,
      addSpeed: 0,
      distribution: 0.1220703125,
      multSpeed: 1,
      createOnExp: 8,
      dirtEffect: -1,
      wormExplode: false,
      explGround: true,
      wormCollide: true,
      collideWithObjects: false,
      affectByExplosions: false,
      bounce: 0,
      bounceFriction: 0.800000011920929,
      timeToExplo: 100,
      timeToExploV: 10,
      hitDamage: 15,
      bloodOnHit: 2,
      startFrame: -1,
      numFrames: 0,
      loopAnim: false,
      shotType: 0,
      repeat: 1,
      colorBullets: 68,
      splinterAmount: 0,
      splinterColour: 0,
      splinterType: -1,
      splinterScatter: 0,
      objTrailType: -1,
      objTrailDelay: 0,
      partTrailType: 0,
      partTrailObj: -1,
      partTrailDelay: 0,
      speed: 350,
    },
    {
      detectDistance: 1,
      blowAway: 0.029999999329447746,
      gravity: 0.00457763671875,
      exploSound: -1,
      addSpeed: 0,
      distribution: 0.02288818359375,
      multSpeed: 1,
      createOnExp: 9,
      dirtEffect: 3,
      wormExplode: false,
      explGround: true,
      wormCollide: true,
      collideWithObjects: false,
      affectByExplosions: true,
      bounce: 0,
      bounceFriction: 0.800000011920929,
      timeToExplo: 40,
      timeToExploV: 5,
      hitDamage: 14,
      bloodOnHit: 1,
      startFrame: -1,
      numFrames: 0,
      loopAnim: false,
      shotType: 0,
      repeat: 1,
      colorBullets: 34,
      splinterAmount: 1,
      splinterColour: 0,
      splinterType: 2,
      splinterScatter: 0,
      objTrailType: -1,
      objTrailDelay: 0,
      partTrailType: 0,
      partTrailObj: -1,
      partTrailDelay: 0,
      speed: 411,
    },
    {
      detectDistance: 2,
      blowAway: 0.03999999910593033,
      gravity: 0.0030517578125,
      exploSound: -1,
      addSpeed: 0,
      distribution: 0.06103515625,
      multSpeed: 1,
      createOnExp: 9,
      dirtEffect: 1,
      wormExplode: false,
      explGround: true,
      wormCollide: true,
      collideWithObjects: false,
      affectByExplosions: false,
      bounce: 0,
      bounceFriction: 0.800000011920929,
      timeToExplo: 120,
      timeToExploV: 15,
      hitDamage: 16,
      bloodOnHit: 1,
      startFrame: -1,
      numFrames: 0,
      loopAnim: false,
      shotType: 0,
      repeat: 1,
      colorBullets: 47,
      splinterAmount: 1,
      splinterColour: 0,
      splinterType: 2,
      splinterScatter: 1,
      objTrailType: -1,
      objTrailDelay: 0,
      partTrailType: 0,
      partTrailObj: -1,
      partTrailDelay: 0,
      speed: 440,
    },
    {
      detectDistance: 0,
      blowAway: 0,
      gravity: 0.03509521484375,
      exploSound: -1,
      addSpeed: 0,
      distribution: 0.1068115234375,
      multSpeed: 1,
      createOnExp: 1,
      dirtEffect: 1,
      wormExplode: false,
      explGround: false,
      wormCollide: false,
      collideWithObjects: false,
      affectByExplosions: true,
      bounce: 0.30000001192092896,
      bounceFriction: 0.800000011920929,
      timeToExplo: 135,
      timeToExploV: 10,
      hitDamage: 0,
      bloodOnHit: 0,
      startFrame: 206,
      numFrames: 3,
      loopAnim: true,
      shotType: 0,
      repeat: 1,
      colorBullets: 0,
      splinterAmount: 90,
      splinterColour: 0,
      splinterType: 17,
      splinterScatter: 0,
      objTrailType: -1,
      objTrailDelay: 0,
      partTrailType: 0,
      partTrailObj: -1,
      partTrailDelay: 0,
      speed: 210,
    },
    {
      detectDistance: 1,
      blowAway: 0.4000000059604645,
      gravity: 0.0030517578125,
      exploSound: 11,
      addSpeed: 150,
      distribution: 0.3204345703125,
      multSpeed: 1.0099999904632568,
      createOnExp: 6,
      dirtEffect: -1,
      wormExplode: true,
      explGround: true,
      wormCollide: true,
      collideWithObjects: false,
      affectByExplosions: false,
      bounce: 0,
      bounceFriction: 0.800000011920929,
      timeToExplo: 180,
      timeToExploV: 20,
      hitDamage: 60,
      bloodOnHit: 6,
      startFrame: 110,
      numFrames: 0,
      loopAnim: false,
      shotType: 2,
      repeat: 1,
      colorBullets: 0,
      splinterAmount: 250,
      splinterColour: 67,
      splinterType: 17,
      splinterScatter: 0,
      objTrailType: 5,
      objTrailDelay: 2,
      partTrailType: 0,
      partTrailObj: 11,
      partTrailDelay: 1,
      speed: 320,
    },
    {
      detectDistance: 2,
      blowAway: 0.05999999865889549,
      gravity: 0.006103515625,
      exploSound: -1,
      addSpeed: 0,
      distribution: 0.091552734375,
      multSpeed: 1,
      createOnExp: 8,
      dirtEffect: 3,
      wormExplode: false,
      explGround: true,
      wormCollide: true,
      collideWithObjects: false,
      affectByExplosions: false,
      bounce: 0,
      bounceFriction: 0.800000011920929,
      timeToExplo: 70,
      timeToExploV: 10,
      hitDamage: 12,
      bloodOnHit: 1,
      startFrame: -1,
      numFrames: 0,
      loopAnim: false,
      shotType: 0,
      repeat: 1,
      colorBullets: 67,
      splinterAmount: 0,
      splinterColour: 0,
      splinterType: -1,
      splinterScatter: 0,
      objTrailType: -1,
      objTrailDelay: 0,
      partTrailType: 0,
      partTrailObj: -1,
      partTrailDelay: 0,
      speed: 444,
    },
    {
      detectDistance: 1,
      blowAway: 0.10000000149011612,
      gravity: 0.006103515625,
      exploSound: -1,
      addSpeed: 0,
      distribution: 0.11444091796875,
      multSpeed: 1,
      createOnExp: 3,
      dirtEffect: 5,
      wormExplode: false,
      explGround: true,
      wormCollide: true,
      collideWithObjects: false,
      affectByExplosions: true,
      bounce: 0,
      bounceFriction: 0.800000011920929,
      timeToExplo: 60,
      timeToExploV: 6,
      hitDamage: 10,
      bloodOnHit: 1,
      startFrame: -1,
      numFrames: 0,
      loopAnim: false,
      shotType: 0,
      repeat: 1,
      colorBullets: 100,
      splinterAmount: 1,
      splinterColour: 0,
      splinterType: 2,
      splinterScatter: 0,
      objTrailType: -1,
      objTrailDelay: 0,
      partTrailType: 0,
      partTrailObj: -1,
      partTrailDelay: 0,
      speed: 500,
    },
    {
      detectDistance: 2,
      blowAway: 0.10000000149011612,
      gravity: 0.0152587890625,
      exploSound: -1,
      addSpeed: 0,
      distribution: 0.4425048828125,
      multSpeed: 1,
      createOnExp: 7,
      dirtEffect: 1,
      wormExplode: false,
      explGround: true,
      wormCollide: true,
      collideWithObjects: false,
      affectByExplosions: true,
      bounce: 0,
      bounceFriction: 0.800000011920929,
      timeToExplo: 130,
      timeToExploV: 30,
      hitDamage: 9,
      bloodOnHit: 3,
      startFrame: -1,
      numFrames: 0,
      loopAnim: false,
      shotType: 0,
      repeat: 1,
      colorBullets: 24,
      splinterAmount: 2,
      splinterColour: 0,
      splinterType: 2,
      splinterScatter: 0,
      objTrailType: -1,
      objTrailDelay: 0,
      partTrailType: 0,
      partTrailObj: -1,
      partTrailDelay: 0,
      speed: 660,
    },
    {
      detectDistance: 0,
      blowAway: 0,
      gravity: 0.03509521484375,
      exploSound: 9,
      addSpeed: 0,
      distribution: 0.030517578125,
      multSpeed: 1,
      createOnExp: 11,
      dirtEffect: 1,
      wormExplode: false,
      explGround: false,
      wormCollide: false,
      collideWithObjects: false,
      affectByExplosions: true,
      bounce: 0.4000000059604645,
      bounceFriction: 0.800000011920929,
      timeToExplo: 105,
      timeToExploV: 10,
      hitDamage: 0,
      bloodOnHit: 0,
      startFrame: 236,
      numFrames: 3,
      loopAnim: true,
      shotType: 0,
      repeat: 1,
      colorBullets: 0,
      splinterAmount: 190,
      splinterColour: 56,
      splinterType: 5,
      splinterScatter: 0,
      objTrailType: -1,
      objTrailDelay: 0,
      partTrailType: 0,
      partTrailObj: -1,
      partTrailDelay: 0,
      speed: 200,
    },
    {
      detectDistance: 1,
      blowAway: 0.05000000074505806,
      gravity: 0.0152587890625,
      exploSound: -1,
      addSpeed: 0,
      distribution: 0.4999847412109375,
      multSpeed: 0.9900000095367432,
      createOnExp: 9,
      dirtEffect: 1,
      wormExplode: false,
      explGround: true,
      wormCollide: true,
      collideWithObjects: false,
      affectByExplosions: false,
      bounce: 0,
      bounceFriction: 0.800000011920929,
      timeToExplo: 21,
      timeToExploV: 10,
      hitDamage: 5,
      bloodOnHit: 2,
      startFrame: -1,
      numFrames: 0,
      loopAnim: false,
      shotType: 0,
      repeat: 1,
      colorBullets: 71,
      splinterAmount: 0,
      splinterColour: 0,
      splinterType: -1,
      splinterScatter: 0,
      objTrailType: -1,
      objTrailDelay: 0,
      partTrailType: 0,
      partTrailObj: -1,
      partTrailDelay: 0,
      speed: 460,
    },
    {
      detectDistance: 3,
      blowAway: 0.07000000029802322,
      gravity: 0.00030517578125,
      exploSound: -1,
      addSpeed: 0,
      distribution: 0.08544921875,
      multSpeed: 1,
      createOnExp: 9,
      dirtEffect: 5,
      wormExplode: false,
      explGround: true,
      wormCollide: true,
      collideWithObjects: false,
      affectByExplosions: false,
      bounce: 0,
      bounceFriction: 0.800000011920929,
      timeToExplo: 36,
      timeToExploV: 10,
      hitDamage: 20,
      bloodOnHit: 1,
      startFrame: -1,
      numFrames: 0,
      loopAnim: false,
      shotType: 0,
      repeat: 1,
      colorBullets: 68,
      splinterAmount: 0,
      splinterColour: 0,
      splinterType: -1,
      splinterScatter: 0,
      objTrailType: -1,
      objTrailDelay: 0,
      partTrailType: 0,
      partTrailObj: -1,
      partTrailDelay: 0,
      speed: 360,
    },
    {
      detectDistance: 3,
      blowAway: 0.15000000596046448,
      gravity: 0.000030517578125,
      exploSound: 13,
      addSpeed: 0,
      distribution: 0.0457763671875,
      multSpeed: 1.0199999809265137,
      createOnExp: 0,
      dirtEffect: 0,
      wormExplode: true,
      explGround: true,
      wormCollide: true,
      collideWithObjects: true,
      affectByExplosions: true,
      bounce: 0,
      bounceFriction: 0.800000011920929,
      timeToExplo: 0,
      timeToExploV: 0,
      hitDamage: 30,
      bloodOnHit: 24,
      startFrame: 223,
      numFrames: 0,
      loopAnim: false,
      shotType: 1,
      repeat: 1,
      colorBullets: 69,
      splinterAmount: 6,
      splinterColour: 0,
      splinterType: 16,
      splinterScatter: 0,
      objTrailType: 6,
      objTrailDelay: 1,
      partTrailType: 0,
      partTrailObj: 2,
      partTrailDelay: 2,
      speed: 100,
    },
    {
      detectDistance: 1,
      blowAway: 0.03999999910593033,
      gravity: 0.001678466796875,
      exploSound: -1,
      addSpeed: 0,
      distribution: 0.0345916748046875,
      multSpeed: 1,
      createOnExp: 6,
      dirtEffect: 5,
      wormExplode: false,
      explGround: true,
      wormCollide: true,
      collideWithObjects: false,
      affectByExplosions: true,
      bounce: 0,
      bounceFriction: 0.800000011920929,
      timeToExplo: 34,
      timeToExploV: 20,
      hitDamage: 8,
      bloodOnHit: 1,
      startFrame: -1,
      numFrames: 0,
      loopAnim: false,
      shotType: 0,
      repeat: 1,
      colorBullets: 66,
      splinterAmount: 0,
      splinterColour: 0,
      splinterType: -1,
      splinterScatter: 0,
      objTrailType: -1,
      objTrailDelay: 0,
      partTrailType: 1,
      partTrailObj: -1,
      partTrailDelay: 0,
      speed: 380,
    },
    {
      detectDistance: 6,
      blowAway: 0,
      gravity: 0.030517578125,
      exploSound: -1,
      addSpeed: 1,
      distribution: 0.030517578125,
      multSpeed: 1,
      createOnExp: 11,
      dirtEffect: 2,
      wormExplode: true,
      explGround: false,
      wormCollide: true,
      collideWithObjects: false,
      affectByExplosions: true,
      bounce: 0.30000001192092896,
      bounceFriction: 0.800000011920929,
      timeToExplo: 200,
      timeToExploV: 30,
      hitDamage: 1,
      bloodOnHit: 0,
      startFrame: 185,
      numFrames: 7,
      loopAnim: false,
      shotType: 0,
      repeat: 1,
      colorBullets: 0,
      splinterAmount: 255,
      splinterColour: 75,
      splinterType: 3,
      splinterScatter: 0,
      objTrailType: -1,
      objTrailDelay: 0,
      partTrailType: 0,
      partTrailObj: -1,
      partTrailDelay: 0,
      speed: 220,
    },
    {
      detectDistance: 1,
      blowAway: 0,
      gravity: 0.08392333984375,
      exploSound: -1,
      addSpeed: 0,
      distribution: 0.1068115234375,
      multSpeed: 1,
      createOnExp: 10,
      dirtEffect: 1,
      wormExplode: true,
      explGround: false,
      wormCollide: true,
      collideWithObjects: false,
      affectByExplosions: false,
      bounce: 0.5,
      bounceFriction: 0.800000011920929,
      timeToExplo: 300,
      timeToExploV: 50,
      hitDamage: 5,
      bloodOnHit: 15,
      startFrame: 126,
      numFrames: 0,
      loopAnim: false,
      shotType: 0,
      repeat: 1,
      colorBullets: 0,
      splinterAmount: 4,
      splinterColour: 0,
      splinterType: 16,
      splinterScatter: 0,
      objTrailType: 5,
      objTrailDelay: 2,
      partTrailType: 0,
      partTrailObj: -1,
      partTrailDelay: 1,
      speed: 550,
    },
    {
      detectDistance: 2,
      blowAway: 0.009999999776482582,
      gravity: 0.0459136962890625,
      exploSound: -1,
      addSpeed: 1,
      distribution: 0.48828125,
      multSpeed: 0.9700000286102295,
      createOnExp: 6,
      dirtEffect: -1,
      wormExplode: false,
      explGround: false,
      wormCollide: true,
      collideWithObjects: true,
      affectByExplosions: true,
      bounce: 0.20999999344348907,
      bounceFriction: 0.800000011920929,
      timeToExplo: 2333,
      timeToExploV: 120,
      hitDamage: 6,
      bloodOnHit: 1,
      startFrame: 181,
      numFrames: 1,
      loopAnim: false,
      shotType: 0,
      repeat: 1,
      colorBullets: 34,
      splinterAmount: 0,
      splinterColour: 0,
      splinterType: -1,
      splinterScatter: 1,
      objTrailType: -1,
      objTrailDelay: 0,
      partTrailType: 0,
      partTrailObj: -1,
      partTrailDelay: 1,
      speed: 70,
    },
    {
      detectDistance: 1,
      blowAway: 0.2199999988079071,
      gravity: 0.09307861328125,
      exploSound: -1,
      addSpeed: 0,
      distribution: 0.244140625,
      multSpeed: 1,
      createOnExp: 0,
      dirtEffect: 1,
      wormExplode: true,
      explGround: true,
      wormCollide: true,
      collideWithObjects: false,
      affectByExplosions: true,
      bounce: 0,
      bounceFriction: 0.800000011920929,
      timeToExplo: 1000,
      timeToExploV: 600,
      hitDamage: 1,
      bloodOnHit: 18,
      startFrame: 111,
      numFrames: 14,
      loopAnim: false,
      shotType: 0,
      repeat: 1,
      colorBullets: 0,
      splinterAmount: 60,
      splinterColour: 67,
      splinterType: 17,
      splinterScatter: 0,
      objTrailType: 9,
      objTrailDelay: 1,
      partTrailType: 0,
      partTrailObj: 2,
      partTrailDelay: 1,
      speed: 440,
    },
    {
      detectDistance: 1,
      blowAway: 0.14000000059604645,
      gravity: 0.01068115234375,
      exploSound: -1,
      addSpeed: 0,
      distribution: 0.335693359375,
      multSpeed: 1,
      createOnExp: 7,
      dirtEffect: 2,
      wormExplode: false,
      explGround: true,
      wormCollide: true,
      collideWithObjects: false,
      affectByExplosions: false,
      bounce: 0,
      bounceFriction: 0.800000011920929,
      timeToExplo: 160,
      timeToExploV: 30,
      hitDamage: 12,
      bloodOnHit: 2,
      startFrame: -1,
      numFrames: 0,
      loopAnim: false,
      shotType: 0,
      repeat: 1,
      colorBullets: 29,
      splinterAmount: 0,
      splinterColour: 0,
      splinterType: -1,
      splinterScatter: 0,
      objTrailType: -1,
      objTrailDelay: 0,
      partTrailType: 0,
      partTrailObj: -1,
      partTrailDelay: 0,
      speed: 410,
    },
    {
      detectDistance: 0,
      blowAway: 0.009999999776482582,
      gravity: 0.030517578125,
      exploSound: -1,
      addSpeed: 0,
      distribution: 0.01220703125,
      multSpeed: 1.0099999904632568,
      createOnExp: 0,
      dirtEffect: 0,
      wormExplode: false,
      explGround: false,
      wormCollide: false,
      collideWithObjects: true,
      affectByExplosions: false,
      bounce: 0.20000000298023224,
      bounceFriction: 0.800000011920929,
      timeToExplo: 200,
      timeToExploV: 100,
      hitDamage: 0,
      bloodOnHit: 0,
      startFrame: 219,
      numFrames: 3,
      loopAnim: true,
      shotType: 0,
      repeat: 1,
      colorBullets: 0,
      splinterAmount: 13,
      splinterColour: 0,
      splinterType: 16,
      splinterScatter: 0,
      objTrailType: 3,
      objTrailDelay: 9,
      partTrailType: 1,
      partTrailObj: 2,
      partTrailDelay: 23,
      speed: 110,
    },
    {
      detectDistance: 2,
      blowAway: 0.11999999731779099,
      gravity: 0.001068115234375,
      exploSound: -1,
      addSpeed: 0,
      distribution: 0.18310546875,
      multSpeed: 1,
      createOnExp: 9,
      dirtEffect: 3,
      wormExplode: false,
      explGround: true,
      wormCollide: true,
      collideWithObjects: false,
      affectByExplosions: true,
      bounce: 0,
      bounceFriction: 0.800000011920929,
      timeToExplo: 80,
      timeToExploV: 5,
      hitDamage: 11,
      bloodOnHit: 1,
      startFrame: -1,
      numFrames: 0,
      loopAnim: false,
      shotType: 0,
      repeat: 1,
      colorBullets: 60,
      splinterAmount: 0,
      splinterColour: 0,
      splinterType: -1,
      splinterScatter: 0,
      objTrailType: -1,
      objTrailDelay: 0,
      partTrailType: 0,
      partTrailObj: -1,
      partTrailDelay: 0,
      speed: 550,
    },
    {
      detectDistance: 1,
      blowAway: 0.09000000357627869,
      gravity: 0.0030517578125,
      exploSound: -1,
      addSpeed: 0,
      distribution: 0.06103515625,
      multSpeed: 1,
      createOnExp: 8,
      dirtEffect: 5,
      wormExplode: false,
      explGround: true,
      wormCollide: true,
      collideWithObjects: false,
      affectByExplosions: false,
      bounce: 0,
      bounceFriction: 0.800000011920929,
      timeToExplo: 90,
      timeToExploV: 10,
      hitDamage: 13,
      bloodOnHit: 1,
      startFrame: -1,
      numFrames: 0,
      loopAnim: false,
      shotType: 0,
      repeat: 1,
      colorBullets: 68,
      splinterAmount: 0,
      splinterColour: 0,
      splinterType: -1,
      splinterScatter: 0,
      objTrailType: -1,
      objTrailDelay: 0,
      partTrailType: 0,
      partTrailObj: -1,
      partTrailDelay: 0,
      speed: 460,
    },
    {
      detectDistance: 0,
      blowAway: 0.03999999910593033,
      gravity: 0.01220703125,
      exploSound: -1,
      addSpeed: 0,
      distribution: 0.1948089599609375,
      multSpeed: 1,
      createOnExp: 4,
      dirtEffect: 3,
      wormExplode: false,
      explGround: true,
      wormCollide: false,
      collideWithObjects: true,
      affectByExplosions: false,
      bounce: 0,
      bounceFriction: 0.800000011920929,
      timeToExplo: 933,
      timeToExploV: 400,
      hitDamage: 1,
      bloodOnHit: 1,
      startFrame: 183,
      numFrames: 1,
      loopAnim: true,
      shotType: 0,
      repeat: 1,
      colorBullets: 132,
      splinterAmount: 50,
      splinterColour: 0,
      splinterType: 17,
      splinterScatter: 0,
      objTrailType: 5,
      objTrailDelay: 1,
      partTrailType: 1,
      partTrailObj: 2,
      partTrailDelay: 1,
      speed: 250,
    },
    {
      detectDistance: 1,
      blowAway: 0,
      gravity: 0,
      exploSound: -1,
      addSpeed: 0,
      distribution: 0,
      multSpeed: 1,
      createOnExp: -1,
      dirtEffect: 3,
      wormExplode: false,
      explGround: false,
      wormCollide: true,
      collideWithObjects: false,
      affectByExplosions: true,
      bounce: 0.6000000238418579,
      bounceFriction: 0.800000011920929,
      timeToExplo: 1,
      timeToExploV: 0,
      hitDamage: 3,
      bloodOnHit: 2,
      startFrame: 140,
      numFrames: 12,
      loopAnim: false,
      shotType: 1,
      repeat: 1,
      colorBullets: 0,
      splinterAmount: 0,
      splinterColour: 0,
      splinterType: -1,
      splinterScatter: 0,
      objTrailType: -1,
      objTrailDelay: 0,
      partTrailType: 0,
      partTrailObj: -1,
      partTrailDelay: 0,
      speed: 310,
    },
    {
      detectDistance: 0,
      blowAway: 0,
      gravity: 0.04119873046875,
      exploSound: 4,
      addSpeed: 0,
      distribution: 0.457763671875,
      multSpeed: 0.9900000095367432,
      createOnExp: 1,
      dirtEffect: 2,
      wormExplode: false,
      explGround: true,
      wormCollide: false,
      collideWithObjects: false,
      affectByExplosions: true,
      bounce: 0,
      bounceFriction: 0.800000011920929,
      timeToExplo: 420,
      timeToExploV: 10,
      hitDamage: 0,
      bloodOnHit: 0,
      startFrame: 185,
      numFrames: 7,
      loopAnim: true,
      shotType: 0,
      repeat: 1,
      colorBullets: 0,
      splinterAmount: 110,
      splinterColour: 0,
      splinterType: 23,
      splinterScatter: 0,
      objTrailType: 9,
      objTrailDelay: 15,
      partTrailType: 0,
      partTrailObj: 12,
      partTrailDelay: 3,
      speed: 230,
    },
    {
      detectDistance: 1,
      blowAway: 0.05000000074505806,
      gravity: 0.000152587890625,
      exploSound: -1,
      addSpeed: 0,
      distribution: 0.18310546875,
      multSpeed: 1,
      createOnExp: 6,
      dirtEffect: 3,
      wormExplode: false,
      explGround: true,
      wormCollide: true,
      collideWithObjects: false,
      affectByExplosions: false,
      bounce: 0,
      bounceFriction: 0.800000011920929,
      timeToExplo: 28,
      timeToExploV: 10,
      hitDamage: 10,
      bloodOnHit: 1,
      startFrame: -1,
      numFrames: 0,
      loopAnim: false,
      shotType: 0,
      repeat: 1,
      colorBullets: 57,
      splinterAmount: 0,
      splinterColour: 0,
      splinterType: -1,
      splinterScatter: 0,
      objTrailType: -1,
      objTrailDelay: 0,
      partTrailType: 0,
      partTrailObj: -1,
      partTrailDelay: 0,
      speed: 360,
    },
    {
      detectDistance: 2,
      blowAway: 0,
      gravity: 0.020599365234375,
      exploSound: -1,
      addSpeed: 0,
      distribution: 0.2288818359375,
      multSpeed: 0.949999988079071,
      createOnExp: 9,
      dirtEffect: -1,
      wormExplode: false,
      explGround: false,
      wormCollide: false,
      collideWithObjects: false,
      affectByExplosions: false,
      bounce: 0.20000000298023224,
      bounceFriction: 0.800000011920929,
      timeToExplo: 89,
      timeToExploV: 75,
      hitDamage: 1,
      bloodOnHit: 1,
      startFrame: 159,
      numFrames: 5,
      loopAnim: true,
      shotType: 0,
      repeat: 1,
      colorBullets: 0,
      splinterAmount: 2,
      splinterColour: 66,
      splinterType: 2,
      splinterScatter: 1,
      objTrailType: -1,
      objTrailDelay: 0,
      partTrailType: 0,
      partTrailObj: 12,
      partTrailDelay: 44,
      speed: 440,
    },
    {
      detectDistance: 1,
      blowAway: 0.28999999165534973,
      gravity: -0.00006103515625,
      exploSound: -1,
      addSpeed: 0,
      distribution: 0.0579833984375,
      multSpeed: 1,
      createOnExp: 8,
      dirtEffect: 3,
      wormExplode: false,
      explGround: true,
      wormCollide: true,
      collideWithObjects: false,
      affectByExplosions: true,
      bounce: 0,
      bounceFriction: 0.800000011920929,
      timeToExplo: 350,
      timeToExploV: 0,
      hitDamage: 45,
      bloodOnHit: 4,
      startFrame: -1,
      numFrames: 0,
      loopAnim: false,
      shotType: 4,
      repeat: 8,
      colorBullets: 11,
      splinterAmount: 0,
      splinterColour: 0,
      splinterType: -1,
      splinterScatter: 0,
      objTrailType: -1,
      objTrailDelay: 0,
      partTrailType: 0,
      partTrailObj: -1,
      partTrailDelay: 0,
      speed: 200,
    },
    {
      detectDistance: 2,
      blowAway: 0.019999999552965164,
      gravity: 0.00152587890625,
      exploSound: -1,
      addSpeed: 0,
      distribution: 0.1373291015625,
      multSpeed: 1,
      createOnExp: 6,
      dirtEffect: 3,
      wormExplode: false,
      explGround: true,
      wormCollide: true,
      collideWithObjects: false,
      affectByExplosions: true,
      bounce: 0,
      bounceFriction: 0.800000011920929,
      timeToExplo: 30,
      timeToExploV: 20,
      hitDamage: 16,
      bloodOnHit: 1,
      startFrame: -1,
      numFrames: 0,
      loopAnim: false,
      shotType: 0,
      repeat: 1,
      colorBullets: 5,
      splinterAmount: 0,
      splinterColour: 0,
      splinterType: -1,
      splinterScatter: 0,
      objTrailType: -1,
      objTrailDelay: 0,
      partTrailType: 0,
      partTrailObj: -1,
      partTrailDelay: 0,
      speed: 340,
    },
    {
      detectDistance: 2,
      blowAway: 0.25,
      gravity: 0.0337371826171875,
      exploSound: -1,
      addSpeed: 0,
      distribution: 0.4084320068359375,
      multSpeed: 0.9800000190734863,
      createOnExp: -1,
      dirtEffect: -1,
      wormExplode: true,
      explGround: false,
      wormCollide: true,
      collideWithObjects: true,
      affectByExplosions: true,
      bounce: 0.30000001192092896,
      bounceFriction: 0.800000011920929,
      timeToExplo: 60,
      timeToExploV: 20,
      hitDamage: 0,
      bloodOnHit: 0,
      startFrame: -1,
      numFrames: 0,
      loopAnim: false,
      shotType: 0,
      repeat: 1,
      colorBullets: 255,
      splinterAmount: 1,
      splinterColour: 0,
      splinterType: 9,
      splinterScatter: 1,
      objTrailType: -1,
      objTrailDelay: 0,
      partTrailType: 0,
      partTrailObj: -1,
      partTrailDelay: 0,
      speed: 403,
    },
    {
      detectDistance: 2,
      blowAway: 0.10000000149011612,
      gravity: 0,
      exploSound: -1,
      addSpeed: 1,
      distribution: 0.4068145751953125,
      multSpeed: 0.9900000095367432,
      createOnExp: 10,
      dirtEffect: 2,
      wormExplode: true,
      explGround: true,
      wormCollide: true,
      collideWithObjects: false,
      affectByExplosions: false,
      bounce: 0,
      bounceFriction: 0.800000011920929,
      timeToExplo: 60,
      timeToExploV: 10,
      hitDamage: 1,
      bloodOnHit: 8,
      startFrame: 177,
      numFrames: 0,
      loopAnim: false,
      shotType: 4,
      repeat: 8,
      colorBullets: 32,
      splinterAmount: 11,
      splinterColour: 0,
      splinterType: 20,
      splinterScatter: 0,
      objTrailType: -1,
      objTrailDelay: 0,
      partTrailType: 0,
      partTrailObj: 11,
      partTrailDelay: 1,
      speed: 270,
    },
    {
      detectDistance: 0,
      blowAway: 0,
      gravity: 0.03509521484375,
      exploSound: -1,
      addSpeed: 0,
      distribution: 0.1220703125,
      multSpeed: 1.0099999904632568,
      createOnExp: 0,
      dirtEffect: 0,
      wormExplode: false,
      explGround: false,
      wormCollide: false,
      collideWithObjects: false,
      affectByExplosions: false,
      bounce: 0.25,
      bounceFriction: 0.800000011920929,
      timeToExplo: 150,
      timeToExploV: 10,
      hitDamage: 0,
      bloodOnHit: 0,
      startFrame: 193,
      numFrames: 3,
      loopAnim: true,
      shotType: 0,
      repeat: 1,
      colorBullets: 0,
      splinterAmount: 190,
      splinterColour: 42,
      splinterType: 17,
      splinterScatter: 1,
      objTrailType: -1,
      objTrailDelay: 0,
      partTrailType: 1,
      partTrailObj: -1,
      partTrailDelay: 0,
      speed: 170,
    },
    {
      detectDistance: 2,
      blowAway: 0.15000000596046448,
      gravity: 0.00152587890625,
      exploSound: -1,
      addSpeed: 0,
      distribution: 0.2899169921875,
      multSpeed: 1,
      createOnExp: 8,
      dirtEffect: 2,
      wormExplode: false,
      explGround: true,
      wormCollide: true,
      collideWithObjects: false,
      affectByExplosions: true,
      bounce: 0,
      bounceFriction: 0.800000011920929,
      timeToExplo: 47,
      timeToExploV: 20,
      hitDamage: 25,
      bloodOnHit: 1,
      startFrame: -1,
      numFrames: 0,
      loopAnim: false,
      shotType: 0,
      repeat: 1,
      colorBullets: 101,
      splinterAmount: 1,
      splinterColour: 0,
      splinterType: 2,
      splinterScatter: 0,
      objTrailType: -1,
      objTrailDelay: 0,
      partTrailType: 0,
      partTrailObj: -1,
      partTrailDelay: 0,
      speed: 410,
    },
    {
      detectDistance: 0,
      blowAway: 0,
      gravity: 0.0457763671875,
      exploSound: -1,
      addSpeed: 0,
      distribution: 0,
      multSpeed: 0.9900000095367432,
      createOnExp: 0,
      dirtEffect: 0,
      wormExplode: false,
      explGround: false,
      wormCollide: true,
      collideWithObjects: true,
      affectByExplosions: true,
      bounce: 0,
      bounceFriction: 0.800000011920929,
      timeToExplo: 550,
      timeToExploV: 100,
      hitDamage: 0,
      bloodOnHit: 0,
      startFrame: 198,
      numFrames: 3,
      loopAnim: true,
      shotType: 0,
      repeat: 1,
      colorBullets: 0,
      splinterAmount: 255,
      splinterColour: 75,
      splinterType: 15,
      splinterScatter: 0,
      objTrailType: 13,
      objTrailDelay: 50,
      partTrailType: 0,
      partTrailObj: -1,
      partTrailDelay: 0,
      speed: 140,
    },
  ],
  nObjects: [
    {
      detectDistance: 0,
      gravity: 0.0457763671875,
      speed: 0.8500000238418579,
      speedV: 0.03999999910593033,
      distribution: 0.35552978515625,
      blowAway: 0,
      bounce: 0.20000000298023224,
      hitDamage: 0,
      wormExplode: false,
      explGround: true,
      wormDestroy: false,
      bloodOnHit: 0,
      startFrame: 165,
      numFrames: 7,
      drawOnMap: true,
      colorBullets: 0,
      createOnExp: -1,
      affectByExplosions: false,
      dirtEffect: -1,
      splinterAmount: 3,
      splinterColour: 0,
      splinterType: 6,
      bloodTrail: true,
      bloodTrailDelay: 34,
      leaveObj: -1,
      leaveObjDelay: 0,
      timeToExplo: 100,
      timeToExploV: 46,
    },
    {
      detectDistance: 0,
      gravity: 0.04888916015625,
      speed: 0.07999999821186066,
      speedV: 0.029999999329447746,
      distribution: 0.2253265380859375,
      blowAway: 0,
      bounce: 0.5,
      hitDamage: 0,
      wormExplode: false,
      explGround: true,
      wormDestroy: false,
      bloodOnHit: 0,
      startFrame: 165,
      numFrames: 7,
      drawOnMap: true,
      colorBullets: 0,
      createOnExp: -1,
      affectByExplosions: false,
      dirtEffect: -1,
      splinterAmount: 1,
      splinterColour: 0,
      splinterType: 6,
      bloodTrail: true,
      bloodTrailDelay: 1,
      leaveObj: -1,
      leaveObjDelay: 0,
      timeToExplo: 60,
      timeToExploV: 20,
    },
    {
      detectDistance: 0,
      gravity: -0.01068115234375,
      speed: 0.4000000059604645,
      speedV: 0.4000000059604645,
      distribution: 0.152587890625,
      blowAway: 0.20000000298023224,
      bounce: 0,
      hitDamage: 0,
      wormExplode: false,
      explGround: true,
      wormDestroy: false,
      bloodOnHit: 0,
      startFrame: 0,
      numFrames: 0,
      drawOnMap: false,
      colorBullets: 11,
      createOnExp: 3,
      affectByExplosions: false,
      dirtEffect: -1,
      splinterAmount: 0,
      splinterColour: 0,
      splinterType: -1,
      bloodTrail: false,
      bloodTrailDelay: 0,
      leaveObj: -1,
      leaveObjDelay: 0,
      timeToExplo: 16,
      timeToExploV: 5,
    },
    {
      detectDistance: 0,
      gravity: 0.05645751953125,
      speed: 4,
      speedV: 0.5,
      distribution: 0.030517578125,
      blowAway: 0.10000000149011612,
      bounce: 1,
      hitDamage: 0,
      wormExplode: false,
      explGround: false,
      wormDestroy: false,
      bloodOnHit: 1,
      startFrame: 0,
      numFrames: 0,
      drawOnMap: false,
      colorBullets: 67,
      createOnExp: 3,
      affectByExplosions: false,
      dirtEffect: 6,
      splinterAmount: 2,
      splinterColour: 0,
      splinterType: 2,
      bloodTrail: false,
      bloodTrailDelay: 0,
      leaveObj: -1,
      leaveObjDelay: 0,
      timeToExplo: 1,
      timeToExploV: 0,
    },
    {
      detectDistance: 0,
      gravity: 0.01373291015625,
      speed: 0.699999988079071,
      speedV: 0.4300000071525574,
      distribution: 0.030517578125,
      blowAway: 0.10000000149011612,
      bounce: 0.20000000298023224,
      hitDamage: 1,
      wormExplode: true,
      explGround: false,
      wormDestroy: true,
      bloodOnHit: 1,
      startFrame: 0,
      numFrames: 0,
      drawOnMap: true,
      colorBullets: 98,
      createOnExp: 8,
      affectByExplosions: false,
      dirtEffect: -1,
      splinterAmount: 1,
      splinterColour: 0,
      splinterType: 2,
      bloodTrail: false,
      bloodTrailDelay: 0,
      leaveObj: -1,
      leaveObjDelay: 0,
      timeToExplo: 150,
      timeToExploV: 110,
    },
    {
      detectDistance: 1,
      gravity: 0.0396728515625,
      speed: 2,
      speedV: 0.5,
      distribution: 0.3321380615234375,
      blowAway: 0.15000000596046448,
      bounce: 0,
      hitDamage: 11,
      wormExplode: true,
      explGround: true,
      wormDestroy: true,
      bloodOnHit: 1,
      startFrame: 0,
      numFrames: 0,
      drawOnMap: false,
      colorBullets: 67,
      createOnExp: 6,
      affectByExplosions: false,
      dirtEffect: -1,
      splinterAmount: 0,
      splinterColour: 0,
      splinterType: -1,
      bloodTrail: false,
      bloodTrailDelay: 0,
      leaveObj: 6,
      leaveObjDelay: 15,
      timeToExplo: 25,
      timeToExploV: 10,
    },
    {
      detectDistance: 0,
      gravity: 0.05645751953125,
      speed: 0.15000000596046448,
      speedV: 0.10000000149011612,
      distribution: 0.30517578125,
      blowAway: 0,
      bounce: 0,
      hitDamage: 0,
      wormExplode: false,
      explGround: true,
      wormDestroy: false,
      bloodOnHit: 0,
      startFrame: 135,
      numFrames: 4,
      drawOnMap: false,
      colorBullets: 82,
      createOnExp: -1,
      affectByExplosions: false,
      dirtEffect: -1,
      splinterAmount: 0,
      splinterColour: 0,
      splinterType: -1,
      bloodTrail: true,
      bloodTrailDelay: 15,
      leaveObj: -1,
      leaveObjDelay: 0,
      timeToExplo: 6,
      timeToExploV: 1,
    },
    {
      detectDistance: 0,
      gravity: 0.03814697265625,
      speed: 1,
      speedV: 0.20000000298023224,
      distribution: 0.0152587890625,
      blowAway: 0,
      bounce: 0.30000001192092896,
      hitDamage: 0,
      wormExplode: false,
      explGround: true,
      wormDestroy: false,
      bloodOnHit: 0,
      startFrame: 155,
      numFrames: 3,
      drawOnMap: false,
      colorBullets: 0,
      createOnExp: -1,
      affectByExplosions: false,
      dirtEffect: -1,
      splinterAmount: 0,
      splinterColour: 0,
      splinterType: -1,
      bloodTrail: false,
      bloodTrailDelay: 0,
      leaveObj: -1,
      leaveObjDelay: 0,
      timeToExplo: 999,
      timeToExploV: 0,
    },
    {
      detectDistance: 1,
      gravity: 0,
      speed: 0.6000000238418579,
      speedV: 0.10000000149011612,
      distribution: 0.152587890625,
      blowAway: 0,
      bounce: 0,
      hitDamage: 0,
      wormExplode: false,
      explGround: false,
      wormDestroy: false,
      bloodOnHit: 5,
      startFrame: 0,
      numFrames: 0,
      drawOnMap: false,
      colorBullets: 0,
      createOnExp: 12,
      affectByExplosions: false,
      dirtEffect: 5,
      splinterAmount: 10,
      splinterColour: 0,
      splinterType: 10,
      bloodTrail: false,
      bloodTrailDelay: 0,
      leaveObj: -1,
      leaveObjDelay: 0,
      timeToExplo: 25,
      timeToExploV: 5,
    },
    {
      detectDistance: 0,
      gravity: 0.00457763671875,
      speed: 0,
      speedV: 0,
      distribution: 0.30517578125,
      blowAway: 0,
      bounce: 0.05000000074505806,
      hitDamage: 0,
      wormExplode: false,
      explGround: true,
      wormDestroy: false,
      bloodOnHit: 0,
      startFrame: 0,
      numFrames: 0,
      drawOnMap: false,
      colorBullets: 145,
      createOnExp: -1,
      affectByExplosions: true,
      dirtEffect: -1,
      splinterAmount: 0,
      splinterColour: 0,
      splinterType: -1,
      bloodTrail: false,
      bloodTrailDelay: 0,
      leaveObj: -1,
      leaveObjDelay: 0,
      timeToExplo: 40,
      timeToExploV: 30,
    },
    {
      detectDistance: 1,
      gravity: 0.030517578125,
      speed: 1.399999976158142,
      speedV: 0.20000000298023224,
      distribution: 0.457763671875,
      blowAway: 0.05000000074505806,
      bounce: 0.6000000238418579,
      hitDamage: 2,
      wormExplode: true,
      explGround: true,
      wormDestroy: true,
      bloodOnHit: 10,
      startFrame: 0,
      numFrames: 0,
      drawOnMap: false,
      colorBullets: 0,
      createOnExp: 9,
      affectByExplosions: false,
      dirtEffect: 3,
      splinterAmount: 2,
      splinterColour: 66,
      splinterType: 2,
      bloodTrail: false,
      bloodTrailDelay: 0,
      leaveObj: 3,
      leaveObjDelay: 1,
      timeToExplo: 8,
      timeToExploV: 2,
    },
    {
      detectDistance: 1,
      gravity: 0.000030517578125,
      speed: 0.009999999776482582,
      speedV: 0.009999999776482582,
      distribution: 0.00152587890625,
      blowAway: 0,
      bounce: 0.019999999552965164,
      hitDamage: 3,
      wormExplode: false,
      explGround: false,
      wormDestroy: true,
      bloodOnHit: 9,
      startFrame: 0,
      numFrames: 5,
      drawOnMap: false,
      colorBullets: 112,
      createOnExp: -1,
      affectByExplosions: true,
      dirtEffect: -1,
      splinterAmount: 0,
      splinterColour: 0,
      splinterType: -1,
      bloodTrail: false,
      bloodTrailDelay: 0,
      leaveObj: -1,
      leaveObjDelay: 1,
      timeToExplo: 15,
      timeToExploV: 5,
    },
    {
      detectDistance: 1,
      gravity: -0.00152587890625,
      speed: 0.20000000298023224,
      speedV: 0.10000000149011612,
      distribution: 0.1861572265625,
      blowAway: 0.20000000298023224,
      bounce: 0.9900000095367432,
      hitDamage: 0,
      wormExplode: false,
      explGround: true,
      wormDestroy: false,
      bloodOnHit: 0,
      startFrame: 159,
      numFrames: 5,
      drawOnMap: false,
      colorBullets: 3,
      createOnExp: 9,
      affectByExplosions: false,
      dirtEffect: -1,
      splinterAmount: 1,
      splinterColour: 0,
      splinterType: 2,
      bloodTrail: false,
      bloodTrailDelay: 0,
      leaveObj: 3,
      leaveObjDelay: 5,
      timeToExplo: 60,
      timeToExploV: 10,
    },
    {
      detectDistance: 0,
      gravity: 0.030517578125,
      speed: 0,
      speedV: 0.009999999776482582,
      distribution: 0.152587890625,
      blowAway: 0,
      bounce: 0.009999999776482582,
      hitDamage: 0,
      wormExplode: false,
      explGround: true,
      wormDestroy: false,
      bloodOnHit: 0,
      startFrame: 127,
      numFrames: 7,
      drawOnMap: true,
      colorBullets: 0,
      createOnExp: -1,
      affectByExplosions: false,
      dirtEffect: -1,
      splinterAmount: 0,
      splinterColour: 0,
      splinterType: -1,
      bloodTrail: false,
      bloodTrailDelay: 0,
      leaveObj: -1,
      leaveObjDelay: 0,
      timeToExplo: 0,
      timeToExploV: 0,
    },
    {
      detectDistance: 1,
      gravity: 0.0152587890625,
      speed: 0.4000000059604645,
      speedV: 0.4000000059604645,
      distribution: 0.4999847412109375,
      blowAway: 0.05000000074505806,
      bounce: 0,
      hitDamage: 10,
      wormExplode: true,
      explGround: true,
      wormDestroy: true,
      bloodOnHit: 10,
      startFrame: 0,
      numFrames: 3,
      drawOnMap: false,
      colorBullets: 73,
      createOnExp: 4,
      affectByExplosions: false,
      dirtEffect: 1,
      splinterAmount: 1,
      splinterColour: 0,
      splinterType: 5,
      bloodTrail: false,
      bloodTrailDelay: 0,
      leaveObj: 9,
      leaveObjDelay: 2,
      timeToExplo: 333,
      timeToExploV: 33,
    },
    {
      detectDistance: 1,
      gravity: 0.0152587890625,
      speed: 6.199999809265137,
      speedV: 0.4000000059604645,
      distribution: 0.152587890625,
      blowAway: 0,
      bounce: 1.100000023841858,
      hitDamage: 1,
      wormExplode: false,
      explGround: false,
      wormDestroy: false,
      bloodOnHit: 0,
      startFrame: 0,
      numFrames: 0,
      drawOnMap: false,
      colorBullets: 41,
      createOnExp: 0,
      affectByExplosions: true,
      dirtEffect: -1,
      splinterAmount: 1,
      splinterColour: 0,
      splinterType: 16,
      bloodTrail: false,
      bloodTrailDelay: 0,
      leaveObj: 1,
      leaveObjDelay: 6,
      timeToExplo: 21,
      timeToExploV: 4,
    },
    {
      detectDistance: 1,
      gravity: 0.0152587890625,
      speed: 2.200000047683716,
      speedV: 0.4000000059604645,
      distribution: 0.152587890625,
      blowAway: 0,
      bounce: 0.6000000238418579,
      hitDamage: 1,
      wormExplode: true,
      explGround: false,
      wormDestroy: true,
      bloodOnHit: 0,
      startFrame: 0,
      numFrames: 0,
      drawOnMap: false,
      colorBullets: 41,
      createOnExp: 1,
      affectByExplosions: true,
      dirtEffect: -1,
      splinterAmount: 2,
      splinterColour: 0,
      splinterType: 19,
      bloodTrail: false,
      bloodTrailDelay: 0,
      leaveObj: 2,
      leaveObjDelay: 3,
      timeToExplo: 9,
      timeToExploV: 3,
    },
    {
      detectDistance: 1,
      gravity: 0.0152587890625,
      speed: 0.800000011920929,
      speedV: 0.4000000059604645,
      distribution: 0.152587890625,
      blowAway: 0,
      bounce: 0.6000000238418579,
      hitDamage: 2,
      wormExplode: true,
      explGround: true,
      wormDestroy: true,
      bloodOnHit: 0,
      startFrame: 0,
      numFrames: 0,
      drawOnMap: false,
      colorBullets: 0,
      createOnExp: 1,
      affectByExplosions: true,
      dirtEffect: 1,
      splinterAmount: 1,
      splinterColour: 0,
      splinterType: 18,
      bloodTrail: false,
      bloodTrailDelay: 0,
      leaveObj: -1,
      leaveObjDelay: 0,
      timeToExplo: 6,
      timeToExploV: 1,
    },
    {
      detectDistance: 1,
      gravity: 0.0152587890625,
      speed: 1.2000000476837158,
      speedV: 1.100000023841858,
      distribution: 0.152587890625,
      blowAway: 0,
      bounce: 0.6000000238418579,
      hitDamage: 1,
      wormExplode: true,
      explGround: false,
      wormDestroy: true,
      bloodOnHit: 0,
      startFrame: 0,
      numFrames: 0,
      drawOnMap: false,
      colorBullets: 0,
      createOnExp: 2,
      affectByExplosions: true,
      dirtEffect: 2,
      splinterAmount: 1,
      splinterColour: 0,
      splinterType: 2,
      bloodTrail: false,
      bloodTrailDelay: 0,
      leaveObj: -1,
      leaveObjDelay: 0,
      timeToExplo: 4,
      timeToExploV: 3,
    },
    {
      detectDistance: 1,
      gravity: 0.0152587890625,
      speed: 4.199999809265137,
      speedV: 0.10000000149011612,
      distribution: 0.152587890625,
      blowAway: 0,
      bounce: 0.6000000238418579,
      hitDamage: 1,
      wormExplode: true,
      explGround: false,
      wormDestroy: true,
      bloodOnHit: 0,
      startFrame: 0,
      numFrames: 0,
      drawOnMap: false,
      colorBullets: 24,
      createOnExp: 0,
      affectByExplosions: true,
      dirtEffect: 0,
      splinterAmount: 1,
      splinterColour: 0,
      splinterType: 22,
      bloodTrail: false,
      bloodTrailDelay: 0,
      leaveObj: -1,
      leaveObjDelay: 0,
      timeToExplo: 8,
      timeToExploV: 0,
    },
    {
      detectDistance: 1,
      gravity: 0.0152587890625,
      speed: 1,
      speedV: 0.5,
      distribution: 0.4999847412109375,
      blowAway: 0.009999999776482582,
      bounce: 0,
      hitDamage: 0,
      wormExplode: false,
      explGround: true,
      wormDestroy: false,
      bloodOnHit: 4,
      startFrame: 0,
      numFrames: 0,
      drawOnMap: false,
      colorBullets: 0,
      createOnExp: 10,
      affectByExplosions: true,
      dirtEffect: -1,
      splinterAmount: 1,
      splinterColour: 2,
      splinterType: 21,
      bloodTrail: false,
      bloodTrailDelay: 0,
      leaveObj: -1,
      leaveObjDelay: 2,
      timeToExplo: 10,
      timeToExploV: 5,
    },
    {
      detectDistance: 1,
      gravity: 0,
      speed: 1,
      speedV: 1,
      distribution: 0.4999847412109375,
      blowAway: 0,
      bounce: 0,
      hitDamage: 0,
      wormExplode: true,
      explGround: true,
      wormDestroy: true,
      bloodOnHit: 3,
      startFrame: 0,
      numFrames: 0,
      drawOnMap: false,
      colorBullets: 42,
      createOnExp: -1,
      affectByExplosions: true,
      dirtEffect: 1,
      splinterAmount: 1,
      splinterColour: 0,
      splinterType: 2,
      bloodTrail: false,
      bloodTrailDelay: 0,
      leaveObj: -1,
      leaveObjDelay: 2,
      timeToExplo: 8,
      timeToExploV: 2,
    },
    {
      detectDistance: 1,
      gravity: 0.0152587890625,
      speed: 3.200000047683716,
      speedV: 0.10000000149011612,
      distribution: 0.152587890625,
      blowAway: 0,
      bounce: 0,
      hitDamage: 2,
      wormExplode: true,
      explGround: true,
      wormDestroy: true,
      bloodOnHit: 0,
      startFrame: 0,
      numFrames: 0,
      drawOnMap: false,
      colorBullets: 0,
      createOnExp: 1,
      affectByExplosions: true,
      dirtEffect: 1,
      splinterAmount: 1,
      splinterColour: 0,
      splinterType: 4,
      bloodTrail: false,
      bloodTrailDelay: 0,
      leaveObj: -1,
      leaveObjDelay: 0,
      timeToExplo: 8,
      timeToExploV: 1,
    },
    {
      detectDistance: 1,
      gravity: 0.030517578125,
      speed: 0.800000011920929,
      speedV: 0.30000001192092896,
      distribution: 0.152587890625,
      blowAway: 0,
      bounce: 0.4099999964237213,
      hitDamage: 1,
      wormExplode: false,
      explGround: true,
      wormDestroy: false,
      bloodOnHit: 1,
      startFrame: 159,
      numFrames: 5,
      drawOnMap: false,
      colorBullets: 0,
      createOnExp: 7,
      affectByExplosions: true,
      dirtEffect: -1,
      splinterAmount: 1,
      splinterColour: 0,
      splinterType: 12,
      bloodTrail: false,
      bloodTrailDelay: 0,
      leaveObj: -1,
      leaveObjDelay: 0,
      timeToExplo: 180,
      timeToExploV: 30,
    },
  ],
  sObjects: [
    {
      startSound: 9,
      numSounds: 0,
      animDelay: 3,
      startFrame: 40,
      numFrames: 15,
      detectRange: 20,
      damage: 18,
      blowAway: 0.0457763671875,
      shadow: false,
      shake: 4,
      flash: 8,
      dirtEffect: 0,
    },
    {
      startSound: 9,
      numSounds: 0,
      animDelay: 2,
      startFrame: 45,
      numFrames: 10,
      detectRange: 14,
      damage: 14,
      blowAway: 0.0457763671875,
      shadow: false,
      shake: 0,
      flash: 0,
      dirtEffect: 1,
    },
    {
      startSound: -1,
      numSounds: 0,
      animDelay: 1,
      startFrame: 50,
      numFrames: 5,
      detectRange: 8,
      damage: 8,
      blowAway: 0.0457763671875,
      shadow: false,
      shake: 0,
      flash: 2,
      dirtEffect: 2,
    },
    {
      startSound: -1,
      numSounds: 0,
      animDelay: 3,
      startFrame: 64,
      numFrames: 4,
      detectRange: 0,
      damage: 0,
      blowAway: 0,
      shadow: false,
      shake: 0,
      flash: 0,
      dirtEffect: -1,
    },
    {
      startSound: -1,
      numSounds: 0,
      animDelay: 3,
      startFrame: 100,
      numFrames: 3,
      detectRange: 0,
      damage: 0,
      blowAway: 0,
      shadow: true,
      shake: 0,
      flash: 0,
      dirtEffect: 5,
    },
    {
      startSound: -1,
      numSounds: 0,
      animDelay: 2,
      startFrame: 104,
      numFrames: 3,
      detectRange: 0,
      damage: 0,
      blowAway: 0,
      shadow: false,
      shake: 0,
      flash: 0,
      dirtEffect: -1,
    },
    {
      startSound: -1,
      numSounds: 0,
      animDelay: 2,
      startFrame: 76,
      numFrames: 2,
      detectRange: 0,
      damage: 0,
      blowAway: 0,
      shadow: true,
      shake: 0,
      flash: 0,
      dirtEffect: -1,
    },
    {
      startSound: -1,
      numSounds: 0,
      animDelay: 2,
      startFrame: 91,
      numFrames: 4,
      detectRange: 0,
      damage: 0,
      blowAway: 0,
      shadow: false,
      shake: 0,
      flash: 0,
      dirtEffect: -1,
    },
    {
      startSound: -1,
      numSounds: 0,
      animDelay: 2,
      startFrame: 52,
      numFrames: 3,
      detectRange: 6,
      damage: 1,
      blowAway: 0.000152587890625,
      shadow: false,
      shake: 0,
      flash: 0,
      dirtEffect: 2,
    },
    {
      startSound: -1,
      numSounds: 0,
      animDelay: 1,
      startFrame: 53,
      numFrames: 2,
      detectRange: 3,
      damage: 0,
      blowAway: 0.0000152587890625,
      shadow: false,
      shake: 0,
      flash: 0,
      dirtEffect: 5,
    },
    {
      startSound: 4,
      numSounds: 0,
      animDelay: 2,
      startFrame: 47,
      numFrames: 8,
      detectRange: 10,
      damage: 5,
      blowAway: 0.0006103515625,
      shadow: true,
      shake: 2,
      flash: 3,
      dirtEffect: 8,
    },
    {
      startSound: 23,
      numSounds: 0,
      animDelay: 10,
      startFrame: 46,
      numFrames: 0,
      detectRange: 0,
      damage: 0,
      blowAway: 0,
      shadow: false,
      shake: 0,
      flash: 6,
      dirtEffect: 1,
    },
    {
      startSound: 9,
      numSounds: 0,
      animDelay: 2,
      startFrame: 51,
      numFrames: 4,
      detectRange: 7,
      damage: 11,
      blowAway: 0.000030517578125,
      shadow: false,
      shake: 3,
      flash: 5,
      dirtEffect: 1,
    },
    {
      startSound: 25,
      numSounds: 1,
      animDelay: 2,
      startFrame: 37,
      numFrames: 2,
      detectRange: 0,
      damage: 0,
      blowAway: 0,
      shadow: false,
      shake: 0,
      flash: 0,
      dirtEffect: -1,
    },
  ],
  textures: [
    {
      nDrawBack: true,
      mFrame: 0,
      sFrame: 73,
      rFrame: 2,
    },
    {
      nDrawBack: true,
      mFrame: 1,
      sFrame: 73,
      rFrame: 2,
    },
    {
      nDrawBack: true,
      mFrame: 2,
      sFrame: 73,
      rFrame: 2,
    },
    {
      nDrawBack: true,
      mFrame: 37,
      sFrame: 73,
      rFrame: 2,
    },
    {
      nDrawBack: false,
      mFrame: 0,
      sFrame: 87,
      rFrame: 2,
    },
    {
      nDrawBack: true,
      mFrame: 39,
      sFrame: 73,
      rFrame: 2,
    },
    {
      nDrawBack: false,
      mFrame: 38,
      sFrame: 82,
      rFrame: 2,
    },
    {
      nDrawBack: true,
      mFrame: 99,
      sFrame: 73,
      rFrame: 2,
    },
    {
      nDrawBack: true,
      mFrame: 37,
      sFrame: 73,
      rFrame: 2,
    },
  ],
  colorAnim: [
    129,
    131,
    133,
    136,
    152,
    159,
    168,
    171,
  ],
  textSpritesStartIdx: 240,
  crossHairSprite: 153,
}
