{
  name: "Liero Hi-Tech",
  constants: {
    nrInitialLength: 250,
    nrAttachLength: 28.125,
    minBounceUp: -0.8125,
    minBounceDown: 0.8125,
    minBounceHoriz: 0.8125,
    wormGravity: 0.02288818359375,
    wormAcc: 0.0762939453125,
    wormMaxVel: 0.969482421875,
    jumpForce: 0.99609375,
    maxAimVel: 0.05243098363280296,
    aimAcc: 0.002996056340634823,
    ninjaropeGravity: 0.0152587890625,
    nrMinLength: 10.625,
    nrMaxLength: 250,
    bonusGravity: 0.02288818359375,
    wormFricMult: 0.8899999856948853,
    aimFric: 0.8299999833106995,
    nrThrowVel: 8,
    nrForce: 0.0833333358168602,
    bonusBounce: 0.4000000059604645,
    bonusFlickerTime: 220,
    aimMaxAngle: 1.5707963705062866,
    aimMinAngle: -1.5217089653015137,
    nrAdjustVel: 1.5,
    nrColourBegin: 24,
    nrColourEnd: 27,
    bonusExplodeRisk: 100,
    bonusHealthVar: 20,
    bonusMinHealth: 10,
    firstBloodColour: 80,
    numBloodColours: 2,
    bObjGravity: 0.0152587890625,
    splinterLarpaVelDiv: 3,
    splinterCracklerVelDiv: 3,
    fallDamageHoriz: 0,
    fallDamageDown: 0,
    fallDamageUp: 0,
    hFallDamage: false,
    hBonusReloadOnly: true,
  },
  weapons: [
    {
      parts: 15,
      bulletType: 0,
      bulletSpeed: 4.349999904632568,
      bulletSpeedInherit: 0.2298850566148758,
      distribution: 0.18310546875,
      recoil: 0.550000011920929,
      ammo: 5,
      delay: 55,
      loadingTime: 310,
      leaveShells: 1,
      leaveShellDelay: 28,
      fireCone: 9,
      laserSight: false,
      laserBeam: false,
      launchSound: 0,
      playReloadSound: true,
      name: 'SHOTGUN',
    },
    {
      parts: 1,
      bulletType: 1,
      bulletSpeed: 4.900000095367432,
      bulletSpeedInherit: 0.20408162474632263,
      distribution: 0.0457763671875,
      recoil: 0.05999999865889549,
      ammo: 50,
      delay: 3,
      loadingTime: 315,
      leaveShells: 2,
      leaveShellDelay: 1,
      fireCone: 6,
      laserSight: false,
      laserBeam: false,
      launchSound: 1,
      playReloadSound: true,
      name: 'CHAINGUN',
    },
    {
      parts: 1,
      bulletType: 2,
      bulletSpeed: 4,
      bulletSpeedInherit: 0,
      distribution: 0,
      recoil: 0.800000011920929,
      ammo: 1,
      delay: 5,
      loadingTime: 275,
      leaveShells: 1,
      leaveShellDelay: 1,
      fireCone: 8,
      laserSight: true,
      laserBeam: false,
      launchSound: 13,
      playReloadSound: true,
      name: 'RIFLE',
    },
    {
      parts: 1,
      bulletType: 3,
      bulletSpeed: 2.5999999046325684,
      bulletSpeedInherit: 0.38461539149284363,
      distribution: 0,
      recoil: 0.6000000238418579,
      ammo: 3,
      delay: 60,
      loadingTime: 380,
      leaveShells: 0,
      leaveShellDelay: 1,
      fireCone: 9,
      laserSight: false,
      laserBeam: false,
      launchSound: 3,
      playReloadSound: true,
      name: 'BAZOOKA',
    },
    {
      parts: 1,
      bulletType: 4,
      bulletSpeed: 5,
      bulletSpeedInherit: 0,
      distribution: 0.2288818359375,
      recoil: 0,
      ammo: 75,
      delay: 0,
      loadingTime: 450,
      leaveShells: 0,
      leaveShellDelay: 1,
      fireCone: 0,
      laserSight: false,
      laserBeam: false,
      launchSound: 29,
      playReloadSound: true,
      name: 'SOLAR SCORCH',
    },
    {
      parts: 3,
      bulletType: 5,
      bulletSpeed: 1.5,
      bulletSpeedInherit: 0.6666666865348816,
      distribution: 0.244140625,
      recoil: 0,
      ammo: 1,
      delay: 0,
      loadingTime: 113,
      leaveShells: 0,
      leaveShellDelay: 1,
      fireCone: 0,
      laserSight: false,
      laserBeam: false,
      launchSound: 5,
      playReloadSound: false,
      name: 'EXPLOSIVES',
    },
    {
      parts: 1,
      bulletType: 6,
      bulletSpeed: 1,
      bulletSpeedInherit: 1,
      distribution: 0.1220703125,
      recoil: 0,
      ammo: 1,
      delay: 0,
      loadingTime: 300,
      leaveShells: 0,
      leaveShellDelay: 1,
      fireCone: 0,
      laserSight: false,
      laserBeam: false,
      launchSound: 5,
      playReloadSound: false,
      name: 'MINE',
    },
    {
      parts: 1,
      bulletType: 7,
      bulletSpeed: 2.5,
      bulletSpeedInherit: 0,
      distribution: 0.00152587890625,
      recoil: 0.3499999940395355,
      ammo: 9,
      delay: 25,
      loadingTime: 410,
      leaveShells: 1,
      leaveShellDelay: 1,
      fireCone: 8,
      laserSight: true,
      laserBeam: false,
      launchSound: 2,
      playReloadSound: true,
      name: 'WINCHESTER',
    },
    {
      parts: 2,
      bulletType: 8,
      bulletSpeed: 1.899999976158142,
      bulletSpeedInherit: 0.5263158082962036,
      distribution: 0.030517578125,
      recoil: 0.15000000596046448,
      ammo: 8,
      delay: 11,
      loadingTime: 500,
      leaveShells: 0,
      leaveShellDelay: 1,
      fireCone: 8,
      laserSight: false,
      laserBeam: false,
      launchSound: 6,
      playReloadSound: true,
      name: 'DOOMSDAY',
    },
    {
      parts: 2,
      bulletType: 9,
      bulletSpeed: 1.649999976158142,
      bulletSpeedInherit: 0.6060606241226196,
      distribution: 0.152587890625,
      recoil: 0,
      ammo: 55,
      delay: 1,
      loadingTime: 200,
      leaveShells: 0,
      leaveShellDelay: 1,
      fireCone: 0,
      laserSight: false,
      laserBeam: false,
      launchSound: -1,
      playReloadSound: false,
      name: 'FLAMETHROWER',
    },
    {
      parts: 1,
      bulletType: 10,
      bulletSpeed: 3,
      bulletSpeedInherit: 0.3333333432674408,
      distribution: 0.000152587890625,
      recoil: 0,
      ammo: 5,
      delay: 51,
      loadingTime: 420,
      leaveShells: 0,
      leaveShellDelay: 1,
      fireCone: 0,
      laserSight: false,
      laserBeam: false,
      launchSound: 4,
      playReloadSound: false,
      name: 'GRN LAUNCHER',
    },
    {
      parts: 1,
      bulletType: 11,
      bulletSpeed: 2.200000047683716,
      bulletSpeedInherit: 0.45454543828964233,
      distribution: 0,
      recoil: 0.20000000298023224,
      ammo: 5,
      delay: 20,
      loadingTime: 360,
      leaveShells: 0,
      leaveShellDelay: 1,
      fireCone: 7,
      laserSight: false,
      laserBeam: false,
      launchSound: 23,
      playReloadSound: true,
      name: 'LARPA',
    },
    {
      parts: 1,
      bulletType: 12,
      bulletSpeed: 2,
      bulletSpeedInherit: 0.5,
      distribution: 0.0152587890625,
      recoil: 0,
      ammo: 1,
      delay: 20,
      loadingTime: 430,
      leaveShells: 0,
      leaveShellDelay: 1,
      fireCone: 0,
      laserSight: false,
      laserBeam: false,
      launchSound: 5,
      playReloadSound: true,
      name: 'PROXY MINE',
    },
    {
      parts: 1,
      bulletType: 13,
      bulletSpeed: 0.44999998807907104,
      bulletSpeedInherit: 0,
      distribution: 0.00762939453125,
      recoil: 1,
      ammo: 1,
      delay: 50,
      loadingTime: 370,
      leaveShells: 0,
      leaveShellDelay: 1,
      fireCone: 10,
      laserSight: false,
      laserBeam: false,
      launchSound: 4,
      playReloadSound: false,
      name: 'MORTAR',
    },
    {
      parts: 1,
      bulletType: 14,
      bulletSpeed: 3.549999952316284,
      bulletSpeedInherit: 0.28169015049934387,
      distribution: 0.091552734375,
      recoil: 0.05999999865889549,
      ammo: 70,
      delay: 0,
      loadingTime: 470,
      leaveShells: 4,
      leaveShellDelay: 1,
      fireCone: 6,
      laserSight: false,
      laserBeam: false,
      launchSound: 1,
      playReloadSound: true,
      name: 'MINIGUN',
    },
    {
      parts: 20,
      bulletType: 15,
      bulletSpeed: 1.399999976158142,
      bulletSpeedInherit: 0.7142857313156128,
      distribution: 0.4999847412109375,
      recoil: 0,
      ammo: 1,
      delay: 0,
      loadingTime: 455,
      leaveShells: 0,
      leaveShellDelay: 1,
      fireCone: 0,
      laserSight: false,
      laserBeam: false,
      launchSound: 5,
      playReloadSound: false,
      name: 'CLUSTER POD',
    },
    {
      parts: 40,
      bulletType: 16,
      bulletSpeed: 2.9000000953674316,
      bulletSpeedInherit: 0.3448275625705719,
      distribution: 0.30517578125,
      recoil: 2,
      ammo: 2,
      delay: 70,
      loadingTime: 420,
      leaveShells: 1,
      leaveShellDelay: 28,
      fireCone: 10,
      laserSight: false,
      laserBeam: false,
      launchSound: 0,
      playReloadSound: true,
      name: 'SUPER SHOTGUN',
    },
    {
      parts: 1,
      bulletType: 17,
      bulletSpeed: 3.5,
      bulletSpeedInherit: 0.2857142984867096,
      distribution: 0.00762939453125,
      recoil: 0,
      ammo: 1,
      delay: 5,
      loadingTime: 100,
      leaveShells: 0,
      leaveShellDelay: 1,
      fireCone: 0,
      laserSight: false,
      laserBeam: false,
      launchSound: 5,
      playReloadSound: true,
      name: 'THROW KNIFE',
    },
    {
      parts: 3,
      bulletType: 18,
      bulletSpeed: 3,
      bulletSpeedInherit: 0.3333333432674408,
      distribution: 0.30517578125,
      recoil: 2.299999952316284,
      ammo: 1,
      delay: 0,
      loadingTime: 460,
      leaveShells: 4,
      leaveShellDelay: 1,
      fireCone: 6,
      laserSight: false,
      laserBeam: false,
      launchSound: 11,
      playReloadSound: true,
      name: 'CHIQUITA GUN',
    },
    {
      parts: 1,
      bulletType: 19,
      bulletSpeed: 1.7000000476837158,
      bulletSpeedInherit: 0.5882352590560913,
      distribution: 0.30517578125,
      recoil: 0,
      ammo: 1,
      delay: 0,
      loadingTime: 700,
      leaveShells: 0,
      leaveShellDelay: 1,
      fireCone: 0,
      laserSight: false,
      laserBeam: false,
      launchSound: 5,
      playReloadSound: false,
      name: 'BIG NUKE',
    },
    {
      parts: 1,
      bulletType: 20,
      bulletSpeed: 1.7000000476837158,
      bulletSpeedInherit: 0.5882352590560913,
      distribution: 0.48828125,
      recoil: 0,
      ammo: 1,
      delay: 0,
      loadingTime: 650,
      leaveShells: 0,
      leaveShellDelay: 1,
      fireCone: 0,
      laserSight: false,
      laserBeam: false,
      launchSound: 5,
      playReloadSound: true,
      name: 'CRACKLER II',
    },
    {
      parts: 1,
      bulletType: 21,
      bulletSpeed: 3,
      bulletSpeedInherit: 0.3333333432674408,
      distribution: 0,
      recoil: 0.30000001192092896,
      ammo: 2,
      delay: 90,
      loadingTime: 540,
      leaveShells: 0,
      leaveShellDelay: 1,
      fireCone: 0,
      laserSight: false,
      laserBeam: false,
      launchSound: 6,
      playReloadSound: true,
      name: 'ZIMM',
    },
    {
      parts: 1,
      bulletType: 22,
      bulletSpeed: 1.7999999523162842,
      bulletSpeedInherit: 0.5555555820465088,
      distribution: 0.1220703125,
      recoil: 0.20000000298023224,
      ammo: 2,
      delay: 30,
      loadingTime: 450,
      leaveShells: 0,
      leaveShellDelay: 1,
      fireCone: 0,
      laserSight: false,
      laserBeam: false,
      launchSound: 5,
      playReloadSound: false,
      name: 'MINI NUKE',
    },
    {
      parts: 1,
      bulletType: 23,
      bulletSpeed: 1.2000000476837158,
      bulletSpeedInherit: 0.8333333134651184,
      distribution: 0.152587890625,
      recoil: 0.009999999776482582,
      ammo: 100,
      delay: 0,
      loadingTime: 190,
      leaveShells: 0,
      leaveShellDelay: 1,
      fireCone: 0,
      laserSight: false,
      laserBeam: false,
      launchSound: -1,
      playReloadSound: true,
      name: 'ACID GUN',
    },
    {
      parts: 1,
      bulletType: 24,
      bulletSpeed: 1.7999999523162842,
      bulletSpeedInherit: 0.5555555820465088,
      distribution: 0.18310546875,
      recoil: 0.029999999329447746,
      ammo: 255,
      delay: 0,
      loadingTime: 1,
      leaveShells: 0,
      leaveShellDelay: 1,
      fireCone: 0,
      laserSight: false,
      laserBeam: false,
      launchSound: -1,
      playReloadSound: false,
      name: 'FAN',
    },
    {
      parts: 2,
      bulletType: 25,
      bulletSpeed: 1.9800000190734863,
      bulletSpeedInherit: 0,
      distribution: 0.08392333984375,
      recoil: 0,
      ammo: 3,
      delay: 35,
      loadingTime: 425,
      leaveShells: 0,
      leaveShellDelay: 1,
      fireCone: 0,
      laserSight: false,
      laserBeam: false,
      launchSound: 5,
      playReloadSound: true,
      name: 'KINETIC MINE',
    },
    {
      parts: 1,
      bulletType: 26,
      bulletSpeed: 5.099999904632568,
      bulletSpeedInherit: 0,
      distribution: 0.004119873046875,
      recoil: 0.6000000238418579,
      ammo: 8,
      delay: 20,
      loadingTime: 510,
      leaveShells: 0,
      leaveShellDelay: 1,
      fireCone: 4,
      laserSight: false,
      laserBeam: false,
      launchSound: 9,
      playReloadSound: true,
      name: 'FLAK CANNON',
    },
    {
      parts: 1,
      bulletType: 27,
      bulletSpeed: 2.200000047683716,
      bulletSpeedInherit: 0.45454543828964233,
      distribution: 0,
      recoil: 0.20000000298023224,
      ammo: 4,
      delay: 30,
      loadingTime: 390,
      leaveShells: 0,
      leaveShellDelay: 1,
      fireCone: 7,
      laserSight: false,
      laserBeam: false,
      launchSound: 23,
      playReloadSound: true,
      name: 'BOUNCY LARPA',
    },
    {
      parts: 1,
      bulletType: 28,
      bulletSpeed: 1,
      bulletSpeedInherit: 0,
      distribution: 0.000152587890625,
      recoil: 0,
      ammo: 110,
      delay: 0,
      loadingTime: 400,
      leaveShells: 0,
      leaveShellDelay: 1,
      fireCone: 0,
      laserSight: false,
      laserBeam: true,
      launchSound: -1,
      playReloadSound: true,
      name: 'LASER',
    },
    {
      parts: 8,
      bulletType: 29,
      bulletSpeed: 1.100000023841858,
      bulletSpeedInherit: 0.9090908765792847,
      distribution: 0.3662109375,
      recoil: 0,
      ammo: 1,
      delay: 0,
      loadingTime: 400,
      leaveShells: 0,
      leaveShellDelay: 1,
      fireCone: 0,
      laserSight: false,
      laserBeam: false,
      launchSound: 5,
      playReloadSound: true,
      name: 'SPIKEBALLS',
    },
    {
      parts: 1,
      bulletType: 30,
      bulletSpeed: 1.7699999809265137,
      bulletSpeedInherit: 0.5649717450141907,
      distribution: 0.030517578125,
      recoil: 0,
      ammo: 1,
      delay: 0,
      loadingTime: 260,
      leaveShells: 0,
      leaveShellDelay: 1,
      fireCone: 0,
      laserSight: false,
      laserBeam: false,
      launchSound: 5,
      playReloadSound: false,
      name: 'NAPALM',
    },
    {
      parts: 1,
      bulletType: 31,
      bulletSpeed: 2,
      bulletSpeedInherit: 0.5,
      distribution: 0,
      recoil: 0.20000000298023224,
      ammo: 1,
      delay: 20,
      loadingTime: 700,
      leaveShells: 0,
      leaveShellDelay: 1,
      fireCone: 7,
      laserSight: false,
      laserBeam: false,
      launchSound: 3,
      playReloadSound: true,
      name: 'TUPOLEV',
    },
    {
      parts: 1,
      bulletType: 32,
      bulletSpeed: 2.299999952316284,
      bulletSpeedInherit: 0.43478262424468994,
      distribution: 0,
      recoil: 0.15000000596046448,
      ammo: 1,
      delay: 0,
      loadingTime: 480,
      leaveShells: 0,
      leaveShellDelay: 1,
      fireCone: 9,
      laserSight: false,
      laserBeam: false,
      launchSound: 3,
      playReloadSound: true,
      name: 'MISSILE',
    },
    {
      parts: 1,
      bulletType: 33,
      bulletSpeed: 1.7000000476837158,
      bulletSpeedInherit: 0.5882352590560913,
      distribution: 0.1068115234375,
      recoil: 0,
      ammo: 1,
      delay: 0,
      loadingTime: 600,
      leaveShells: 0,
      leaveShellDelay: 1,
      fireCone: 0,
      laserSight: false,
      laserBeam: false,
      launchSound: 5,
      playReloadSound: false,
      name: 'CHIQUITA BOMB',
    },
    {
      parts: 1,
      bulletType: 34,
      bulletSpeed: 1,
      bulletSpeedInherit: 1,
      distribution: 0.30517578125,
      recoil: 0,
      ammo: 1,
      delay: 0,
      loadingTime: 300,
      leaveShells: 0,
      leaveShellDelay: 1,
      fireCone: 0,
      laserSight: false,
      laserBeam: false,
      launchSound: 5,
      playReloadSound: false,
      name: 'BOOBY TRAP',
    },
    {
      parts: 1,
      bulletType: 35,
      bulletSpeed: 1.899999976158142,
      bulletSpeedInherit: 0.5263158082962036,
      distribution: 0.1068115234375,
      recoil: 0,
      ammo: 1,
      delay: 0,
      loadingTime: 300,
      leaveShells: 0,
      leaveShellDelay: 1,
      fireCone: 0,
      laserSight: false,
      laserBeam: false,
      launchSound: 5,
      playReloadSound: false,
      name: 'GRASSHOPPER',
    },
    {
      parts: 1,
      bulletType: 36,
      bulletSpeed: 1.7000000476837158,
      bulletSpeedInherit: 0.5882352590560913,
      distribution: 0.0091552734375,
      recoil: 0.05000000074505806,
      ammo: 14,
      delay: 7,
      loadingTime: 380,
      leaveShells: 0,
      leaveShellDelay: 1,
      fireCone: 7,
      laserSight: false,
      laserBeam: false,
      launchSound: 6,
      playReloadSound: true,
      name: 'MINI ROCKETS',
    },
    {
      parts: 2,
      bulletType: 37,
      bulletSpeed: 3.5,
      bulletSpeedInherit: 0.2857142984867096,
      distribution: 0.0152587890625,
      recoil: 0,
      ammo: 5,
      delay: 25,
      loadingTime: 300,
      leaveShells: 0,
      leaveShellDelay: 1,
      fireCone: 0,
      laserSight: false,
      laserBeam: false,
      launchSound: 2,
      playReloadSound: false,
      name: 'DARTGUN',
    },
    {
      parts: 3,
      bulletType: 38,
      bulletSpeed: 2.5,
      bulletSpeedInherit: 0.4000000059604645,
      distribution: 0.4999847412109375,
      recoil: 0.05999999865889549,
      ammo: 30,
      delay: 5,
      loadingTime: 315,
      leaveShells: 2,
      leaveShellDelay: 1,
      fireCone: 6,
      laserSight: false,
      laserBeam: false,
      launchSound: 28,
      playReloadSound: true,
      name: 'SCATTERGUN',
    },
    {
      parts: 5,
      bulletType: 39,
      bulletSpeed: 2,
      bulletSpeedInherit: 0,
      distribution: 0,
      recoil: 0.8999999761581421,
      ammo: 1,
      delay: 5,
      loadingTime: 400,
      leaveShells: 0,
      leaveShellDelay: 1,
      fireCone: 10,
      laserSight: false,
      laserBeam: false,
      launchSound: 10,
      playReloadSound: true,
      name: 'GAUSS GUN',
    },
  ],
  wObjects: [
    {
      detectDistance: 0,
      blowAway: 0.03999999910593033,
      gravity: 0.01068115234375,
      exploSound: -1,
      addSpeed: 0,
      distribution: 0.18310546875,
      multSpeed: 1,
      createOnExp: 2,
      dirtEffect: -1,
      wormExplode: false,
      explGround: true,
      wormCollide: true,
      collideWithObjects: false,
      affectByExplosions: false,
      bounce: 0,
      bounceFriction: 0.800000011920929,
      timeToExplo: 0,
      timeToExploV: 0,
      hitDamage: 1,
      bloodOnHit: 3,
      startFrame: -1,
      numFrames: 0,
      loopAnim: false,
      shotType: 0,
      repeat: 1,
      colorBullets: 75,
      splinterAmount: 0,
      splinterColour: 0,
      splinterType: 2,
      splinterScatter: 0,
      objTrailType: -1,
      objTrailDelay: 0,
      partTrailType: 0,
      partTrailObj: -1,
      partTrailDelay: 0,
      speed: 435,
    },
    {
      detectDistance: 1,
      blowAway: 0.05000000074505806,
      gravity: 0.0042724609375,
      exploSound: -1,
      addSpeed: 0,
      distribution: 0.0457763671875,
      multSpeed: 1,
      createOnExp: 2,
      dirtEffect: -1,
      wormExplode: false,
      explGround: true,
      wormCollide: true,
      collideWithObjects: false,
      affectByExplosions: false,
      bounce: 0,
      bounceFriction: 0.800000011920929,
      timeToExplo: 0,
      timeToExploV: 0,
      hitDamage: 3,
      bloodOnHit: 4,
      startFrame: -1,
      numFrames: 0,
      loopAnim: false,
      shotType: 0,
      repeat: 1,
      colorBullets: 68,
      splinterAmount: 0,
      splinterColour: 0,
      splinterType: 2,
      splinterScatter: 0,
      objTrailType: -1,
      objTrailDelay: 0,
      partTrailType: 0,
      partTrailObj: -1,
      partTrailDelay: 0,
      speed: 490,
    },
    {
      detectDistance: 1,
      blowAway: 0.699999988079071,
      gravity: 0.00030517578125,
      exploSound: -1,
      addSpeed: 0,
      distribution: 0,
      multSpeed: 1,
      createOnExp: 2,
      dirtEffect: -1,
      wormExplode: false,
      explGround: true,
      wormCollide: true,
      collideWithObjects: false,
      affectByExplosions: false,
      bounce: 0,
      bounceFriction: 0.800000011920929,
      timeToExplo: 0,
      timeToExploV: 0,
      hitDamage: 34,
      bloodOnHit: 20,
      startFrame: -1,
      numFrames: 0,
      loopAnim: false,
      shotType: 4,
      repeat: 8,
      colorBullets: 68,
      splinterAmount: 4,
      splinterColour: 67,
      splinterType: 3,
      splinterScatter: 0,
      objTrailType: -1,
      objTrailDelay: 0,
      partTrailType: 0,
      partTrailObj: -1,
      partTrailDelay: 0,
      speed: 400,
    },
    {
      detectDistance: 1,
      blowAway: 0,
      gravity: 0,
      exploSound: -1,
      addSpeed: 3,
      distribution: 0,
      multSpeed: 1,
      createOnExp: 0,
      dirtEffect: -1,
      wormExplode: true,
      explGround: true,
      wormCollide: true,
      collideWithObjects: false,
      affectByExplosions: false,
      bounce: 0,
      bounceFriction: 0.800000011920929,
      timeToExplo: 0,
      timeToExploV: 0,
      hitDamage: 20,
      bloodOnHit: 30,
      startFrame: 112,
      numFrames: 0,
      loopAnim: false,
      shotType: 3,
      repeat: 1,
      colorBullets: 0,
      splinterAmount: 0,
      splinterColour: 66,
      splinterType: 3,
      splinterScatter: 0,
      objTrailType: 3,
      objTrailDelay: 4,
      partTrailType: 0,
      partTrailObj: -1,
      partTrailDelay: 0,
      speed: 260,
    },
    {
      detectDistance: 0,
      blowAway: 0,
      gravity: 0,
      exploSound: -1,
      addSpeed: 0,
      distribution: 0.2288818359375,
      multSpeed: 1,
      createOnExp: -1,
      dirtEffect: -1,
      wormExplode: false,
      explGround: true,
      wormCollide: true,
      collideWithObjects: false,
      affectByExplosions: false,
      bounce: 0,
      bounceFriction: 0.800000011920929,
      timeToExplo: 0,
      timeToExploV: 0,
      hitDamage: 2,
      bloodOnHit: 1,
      startFrame: -1,
      numFrames: 0,
      loopAnim: false,
      shotType: 4,
      repeat: 8,
      colorBullets: 241,
      splinterAmount: 0,
      splinterColour: 0,
      splinterType: -1,
      splinterScatter: 0,
      objTrailType: 6,
      objTrailDelay: 1,
      partTrailType: 0,
      partTrailObj: -1,
      partTrailDelay: 0,
      speed: 500,
    },
    {
      detectDistance: 0,
      blowAway: 0,
      gravity: 0.0152587890625,
      exploSound: -1,
      addSpeed: 0,
      distribution: 0.244140625,
      multSpeed: 1,
      createOnExp: 0,
      dirtEffect: -1,
      wormExplode: true,
      explGround: true,
      wormCollide: true,
      collideWithObjects: false,
      affectByExplosions: true,
      bounce: 0.30000001192092896,
      bounceFriction: 0.800000011920929,
      timeToExplo: 55,
      timeToExploV: 10,
      hitDamage: 0,
      bloodOnHit: 0,
      startFrame: 198,
      numFrames: 3,
      loopAnim: true,
      shotType: 0,
      repeat: 1,
      colorBullets: 0,
      splinterAmount: 0,
      splinterColour: 0,
      splinterType: 2,
      splinterScatter: 0,
      objTrailType: -1,
      objTrailDelay: 0,
      partTrailType: 0,
      partTrailObj: -1,
      partTrailDelay: 0,
      speed: 150,
    },
    {
      detectDistance: 2,
      blowAway: 0.6000000238418579,
      gravity: 0.0152587890625,
      exploSound: -1,
      addSpeed: 0,
      distribution: 0.1220703125,
      multSpeed: 1,
      createOnExp: 0,
      dirtEffect: -1,
      wormExplode: true,
      explGround: false,
      wormCollide: true,
      collideWithObjects: false,
      affectByExplosions: true,
      bounce: 0.4000000059604645,
      bounceFriction: 0.800000011920929,
      timeToExplo: 3000,
      timeToExploV: 600,
      hitDamage: 12,
      bloodOnHit: 20,
      startFrame: 173,
      numFrames: 3,
      loopAnim: true,
      shotType: 0,
      repeat: 1,
      colorBullets: 0,
      splinterAmount: 5,
      splinterColour: 66,
      splinterType: 3,
      splinterScatter: 0,
      objTrailType: -1,
      objTrailDelay: 0,
      partTrailType: 0,
      partTrailObj: -1,
      partTrailDelay: 0,
      speed: 95,
    },
    {
      detectDistance: 1,
      blowAway: 0.699999988079071,
      gravity: 0.00030517578125,
      exploSound: -1,
      addSpeed: 0,
      distribution: 0.00152587890625,
      multSpeed: 1,
      createOnExp: 2,
      dirtEffect: -1,
      wormExplode: false,
      explGround: true,
      wormCollide: true,
      collideWithObjects: false,
      affectByExplosions: false,
      bounce: 0,
      bounceFriction: 0.800000011920929,
      timeToExplo: 0,
      timeToExploV: 0,
      hitDamage: 12,
      bloodOnHit: 15,
      startFrame: -1,
      numFrames: 0,
      loopAnim: false,
      shotType: 4,
      repeat: 8,
      colorBullets: 68,
      splinterAmount: 3,
      splinterColour: 67,
      splinterType: 3,
      splinterScatter: 0,
      objTrailType: -1,
      objTrailDelay: 0,
      partTrailType: 0,
      partTrailObj: -1,
      partTrailDelay: 0,
      speed: 250,
    },
    {
      detectDistance: 1,
      blowAway: 0.15000000596046448,
      gravity: 0,
      exploSound: -1,
      addSpeed: 3,
      distribution: 0.030517578125,
      multSpeed: 1,
      createOnExp: 1,
      dirtEffect: -1,
      wormExplode: true,
      explGround: true,
      wormCollide: true,
      collideWithObjects: false,
      affectByExplosions: false,
      bounce: 0,
      bounceFriction: 0.800000011920929,
      timeToExplo: 0,
      timeToExploV: 0,
      hitDamage: 0,
      bloodOnHit: 10,
      startFrame: 127,
      numFrames: 0,
      loopAnim: false,
      shotType: 3,
      repeat: 1,
      colorBullets: 0,
      splinterAmount: 0,
      splinterColour: 0,
      splinterType: 2,
      splinterScatter: 0,
      objTrailType: 6,
      objTrailDelay: 2,
      partTrailType: 0,
      partTrailObj: -1,
      partTrailDelay: 0,
      speed: 190,
    },
    {
      detectDistance: 1,
      blowAway: 0,
      gravity: -0.003814697265625,
      exploSound: -1,
      addSpeed: 1,
      distribution: 0.152587890625,
      multSpeed: 1,
      createOnExp: -1,
      dirtEffect: 3,
      wormExplode: false,
      explGround: true,
      wormCollide: true,
      collideWithObjects: false,
      affectByExplosions: false,
      bounce: 0.009999999776482582,
      bounceFriction: 0.800000011920929,
      timeToExplo: 100,
      timeToExploV: 5,
      hitDamage: 1,
      bloodOnHit: 0,
      startFrame: 159,
      numFrames: 5,
      loopAnim: false,
      shotType: 0,
      repeat: 1,
      colorBullets: 0,
      splinterAmount: 0,
      splinterColour: 0,
      splinterType: -1,
      splinterScatter: 0,
      objTrailType: -1,
      objTrailDelay: 0,
      partTrailType: 0,
      partTrailObj: -1,
      partTrailDelay: 0,
      speed: 165,
    },
    {
      detectDistance: 1,
      blowAway: 0.30000001192092896,
      gravity: 0.01983642578125,
      exploSound: -1,
      addSpeed: 0,
      distribution: 0.000152587890625,
      multSpeed: 1,
      createOnExp: 0,
      dirtEffect: -1,
      wormExplode: true,
      explGround: false,
      wormCollide: true,
      collideWithObjects: false,
      affectByExplosions: true,
      bounce: 0.4000000059604645,
      bounceFriction: 0.800000011920929,
      timeToExplo: 260,
      timeToExploV: 10,
      hitDamage: 10,
      bloodOnHit: 1,
      startFrame: 206,
      numFrames: 3,
      loopAnim: true,
      shotType: 0,
      repeat: 1,
      colorBullets: 0,
      splinterAmount: 0,
      splinterColour: 54,
      splinterType: 5,
      splinterScatter: 0,
      objTrailType: -1,
      objTrailDelay: 0,
      partTrailType: 0,
      partTrailObj: -1,
      partTrailDelay: 0,
      speed: 300,
    },
    {
      detectDistance: 1,
      blowAway: 0.4000000059604645,
      gravity: 0.0030517578125,
      exploSound: -1,
      addSpeed: 0,
      distribution: 0,
      multSpeed: 1,
      createOnExp: 1,
      dirtEffect: -1,
      wormExplode: true,
      explGround: true,
      wormCollide: true,
      collideWithObjects: false,
      affectByExplosions: false,
      bounce: 0,
      bounceFriction: 0.800000011920929,
      timeToExplo: 0,
      timeToExploV: 0,
      hitDamage: 0,
      bloodOnHit: 6,
      startFrame: 140,
      numFrames: 0,
      loopAnim: false,
      shotType: 1,
      repeat: 1,
      colorBullets: 0,
      splinterAmount: 5,
      splinterColour: 67,
      splinterType: 3,
      splinterScatter: 0,
      objTrailType: -1,
      objTrailDelay: 0,
      partTrailType: 1,
      partTrailObj: 5,
      partTrailDelay: 4,
      speed: 220,
    },
    {
      detectDistance: 8,
      blowAway: 0.2199999988079071,
      gravity: 0.0000762939453125,
      exploSound: -1,
      addSpeed: 0,
      distribution: 0.0152587890625,
      multSpeed: 1,
      createOnExp: 0,
      dirtEffect: 0,
      wormExplode: true,
      explGround: false,
      wormCollide: true,
      collideWithObjects: false,
      affectByExplosions: true,
      bounce: 0.5,
      bounceFriction: 0.800000011920929,
      timeToExplo: 500,
      timeToExploV: 100,
      hitDamage: 0,
      bloodOnHit: 18,
      startFrame: 178,
      numFrames: 0,
      loopAnim: false,
      shotType: 0,
      repeat: 1,
      colorBullets: 0,
      splinterAmount: 70,
      splinterColour: 240,
      splinterType: 4,
      splinterScatter: 0,
      objTrailType: 9,
      objTrailDelay: 5,
      partTrailType: 0,
      partTrailObj: -1,
      partTrailDelay: 0,
      speed: 200,
    },
    {
      detectDistance: 2,
      blowAway: 0,
      gravity: 0.00091552734375,
      exploSound: -1,
      addSpeed: 0,
      distribution: 0.00762939453125,
      multSpeed: 1,
      createOnExp: 0,
      dirtEffect: 0,
      wormExplode: false,
      explGround: true,
      wormCollide: false,
      collideWithObjects: false,
      affectByExplosions: false,
      bounce: 0,
      bounceFriction: 0.800000011920929,
      timeToExplo: 0,
      timeToExploV: 0,
      hitDamage: 0,
      bloodOnHit: 0,
      startFrame: 193,
      numFrames: 0,
      loopAnim: false,
      shotType: 4,
      repeat: 8,
      colorBullets: 3,
      splinterAmount: 75,
      splinterColour: 67,
      splinterType: 5,
      splinterScatter: 0,
      objTrailType: 3,
      objTrailDelay: 4,
      partTrailType: 1,
      partTrailObj: -1,
      partTrailDelay: 0,
      speed: 45,
    },
    {
      detectDistance: 0,
      blowAway: 0.05000000074505806,
      gravity: 0.00762939453125,
      exploSound: -1,
      addSpeed: 0,
      distribution: 0.091552734375,
      multSpeed: 1,
      createOnExp: 2,
      dirtEffect: -1,
      wormExplode: false,
      explGround: true,
      wormCollide: true,
      collideWithObjects: false,
      affectByExplosions: false,
      bounce: 0,
      bounceFriction: 0.800000011920929,
      timeToExplo: 0,
      timeToExploV: 0,
      hitDamage: 2,
      bloodOnHit: 2,
      startFrame: -1,
      numFrames: 0,
      loopAnim: false,
      shotType: 0,
      repeat: 1,
      colorBullets: 68,
      splinterAmount: 0,
      splinterColour: 0,
      splinterType: 2,
      splinterScatter: 0,
      objTrailType: -1,
      objTrailDelay: 0,
      partTrailType: 0,
      partTrailObj: -1,
      partTrailDelay: 0,
      speed: 355,
    },
    {
      detectDistance: 0,
      blowAway: 0,
      gravity: 0.01983642578125,
      exploSound: -1,
      addSpeed: 0,
      distribution: 0.4999847412109375,
      multSpeed: 1,
      createOnExp: -1,
      dirtEffect: -1,
      wormExplode: false,
      explGround: false,
      wormCollide: false,
      collideWithObjects: false,
      affectByExplosions: true,
      bounce: 0.20000000298023224,
      bounceFriction: 0.800000011920929,
      timeToExplo: 40,
      timeToExploV: 0,
      hitDamage: 0,
      bloodOnHit: 0,
      startFrame: 202,
      numFrames: 3,
      loopAnim: true,
      shotType: 0,
      repeat: 1,
      colorBullets: 0,
      splinterAmount: 1,
      splinterColour: 0,
      splinterType: 8,
      splinterScatter: 1,
      objTrailType: -1,
      objTrailDelay: 0,
      partTrailType: 0,
      partTrailObj: -1,
      partTrailDelay: 0,
      speed: 140,
    },
    {
      detectDistance: 0,
      blowAway: 0.029999999329447746,
      gravity: 0.01068115234375,
      exploSound: -1,
      addSpeed: 0,
      distribution: 0.30517578125,
      multSpeed: 1,
      createOnExp: 2,
      dirtEffect: -1,
      wormExplode: false,
      explGround: true,
      wormCollide: true,
      collideWithObjects: false,
      affectByExplosions: false,
      bounce: 0,
      bounceFriction: 0.800000011920929,
      timeToExplo: 0,
      timeToExploV: 0,
      hitDamage: 1,
      bloodOnHit: 2,
      startFrame: -1,
      numFrames: 0,
      loopAnim: false,
      shotType: 0,
      repeat: 1,
      colorBullets: 75,
      splinterAmount: 0,
      splinterColour: 0,
      splinterType: -1,
      splinterScatter: 0,
      objTrailType: -1,
      objTrailDelay: 0,
      partTrailType: 0,
      partTrailObj: -1,
      partTrailDelay: 0,
      speed: 290,
    },
    {
      detectDistance: 1,
      blowAway: 0,
      gravity: 0.02288818359375,
      exploSound: -1,
      addSpeed: 0,
      distribution: 0.00762939453125,
      multSpeed: 1,
      createOnExp: -1,
      dirtEffect: -1,
      wormExplode: false,
      explGround: true,
      wormCollide: true,
      collideWithObjects: false,
      affectByExplosions: true,
      bounce: 0,
      bounceFriction: 0.800000011920929,
      timeToExplo: 0,
      timeToExploV: 0,
      hitDamage: 25,
      bloodOnHit: 25,
      startFrame: 223,
      numFrames: 12,
      loopAnim: true,
      shotType: 1,
      repeat: 1,
      colorBullets: 0,
      splinterAmount: 0,
      splinterColour: 0,
      splinterType: -1,
      splinterScatter: 0,
      objTrailType: -1,
      objTrailDelay: 0,
      partTrailType: 0,
      partTrailObj: -1,
      partTrailDelay: 0,
      speed: 350,
    },
    {
      detectDistance: 0,
      blowAway: 0.15000000596046448,
      gravity: 0.000152587890625,
      exploSound: -1,
      addSpeed: 0,
      distribution: 0.30517578125,
      multSpeed: 1,
      createOnExp: 2,
      dirtEffect: -1,
      wormExplode: true,
      explGround: true,
      wormCollide: true,
      collideWithObjects: false,
      affectByExplosions: false,
      bounce: 0,
      bounceFriction: 0.800000011920929,
      timeToExplo: 5,
      timeToExploV: 0,
      hitDamage: 0,
      bloodOnHit: 2,
      startFrame: -1,
      numFrames: 0,
      loopAnim: false,
      shotType: 0,
      repeat: 1,
      colorBullets: 88,
      splinterAmount: 1,
      splinterColour: 0,
      splinterType: 14,
      splinterScatter: 1,
      objTrailType: -1,
      objTrailDelay: 0,
      partTrailType: 0,
      partTrailObj: -1,
      partTrailDelay: 0,
      speed: 300,
    },
    {
      detectDistance: 0,
      blowAway: 0,
      gravity: 0.0152587890625,
      exploSound: 4,
      addSpeed: 0,
      distribution: 0.30517578125,
      multSpeed: 1,
      createOnExp: -1,
      dirtEffect: -1,
      wormExplode: false,
      explGround: false,
      wormCollide: false,
      collideWithObjects: false,
      affectByExplosions: true,
      bounce: 0.6499999761581421,
      bounceFriction: 0.800000011920929,
      timeToExplo: 130,
      timeToExploV: 20,
      hitDamage: 0,
      bloodOnHit: 0,
      startFrame: 126,
      numFrames: 0,
      loopAnim: false,
      shotType: 0,
      repeat: 1,
      colorBullets: 0,
      splinterAmount: 50,
      splinterColour: 0,
      splinterType: 9,
      splinterScatter: 0,
      objTrailType: -1,
      objTrailDelay: 0,
      partTrailType: 0,
      partTrailObj: -1,
      partTrailDelay: 0,
      speed: 170,
    },
    {
      detectDistance: 0,
      blowAway: 0,
      gravity: 0.0152587890625,
      exploSound: -1,
      addSpeed: 0,
      distribution: 0.48828125,
      multSpeed: 1,
      createOnExp: 1,
      dirtEffect: -1,
      wormExplode: false,
      explGround: false,
      wormCollide: false,
      collideWithObjects: false,
      affectByExplosions: true,
      bounce: 0.8999999761581421,
      bounceFriction: 0.800000011920929,
      timeToExplo: 400,
      timeToExploV: 50,
      hitDamage: 0,
      bloodOnHit: 0,
      startFrame: 179,
      numFrames: 0,
      loopAnim: false,
      shotType: 0,
      repeat: 1,
      colorBullets: 0,
      splinterAmount: 9,
      splinterColour: 75,
      splinterType: 4,
      splinterScatter: 0,
      objTrailType: -1,
      objTrailDelay: 0,
      partTrailType: 0,
      partTrailObj: 5,
      partTrailDelay: 1,
      speed: 170,
    },
    {
      detectDistance: 1,
      blowAway: 0,
      gravity: 0,
      exploSound: -1,
      addSpeed: 0,
      distribution: 0,
      multSpeed: 1,
      createOnExp: 4,
      dirtEffect: -1,
      wormExplode: true,
      explGround: false,
      wormCollide: true,
      collideWithObjects: false,
      affectByExplosions: false,
      bounce: 1,
      bounceFriction: 1,
      timeToExplo: 500,
      timeToExploV: 0,
      hitDamage: 49,
      bloodOnHit: 15,
      startFrame: 180,
      numFrames: 0,
      loopAnim: false,
      shotType: 0,
      repeat: 1,
      colorBullets: 0,
      splinterAmount: 0,
      splinterColour: 0,
      splinterType: -1,
      splinterScatter: 0,
      objTrailType: -1,
      objTrailDelay: 0,
      partTrailType: 0,
      partTrailObj: -1,
      partTrailDelay: 0,
      speed: 300,
    },
    {
      detectDistance: 0,
      blowAway: 0,
      gravity: 0.0152587890625,
      exploSound: 4,
      addSpeed: 0,
      distribution: 0.1220703125,
      multSpeed: 1,
      createOnExp: -1,
      dirtEffect: -1,
      wormExplode: false,
      explGround: false,
      wormCollide: false,
      collideWithObjects: false,
      affectByExplosions: true,
      bounce: 0.75,
      bounceFriction: 0.800000011920929,
      timeToExplo: 70,
      timeToExploV: 4,
      hitDamage: 0,
      bloodOnHit: 0,
      startFrame: 195,
      numFrames: 0,
      loopAnim: false,
      shotType: 0,
      repeat: 1,
      colorBullets: 0,
      splinterAmount: 6,
      splinterColour: 0,
      splinterType: 11,
      splinterScatter: 1,
      objTrailType: -1,
      objTrailDelay: 0,
      partTrailType: 0,
      partTrailObj: -1,
      partTrailDelay: 0,
      speed: 180,
    },
    {
      detectDistance: 1,
      blowAway: 0.009999999776482582,
      gravity: 0.006103515625,
      exploSound: -1,
      addSpeed: 0,
      distribution: 0.152587890625,
      multSpeed: 1,
      createOnExp: -1,
      dirtEffect: 1,
      wormExplode: false,
      explGround: true,
      wormCollide: true,
      collideWithObjects: true,
      affectByExplosions: false,
      bounce: 0,
      bounceFriction: 0.800000011920929,
      timeToExplo: 200,
      timeToExploV: 50,
      hitDamage: 1,
      bloodOnHit: 0,
      startFrame: -1,
      numFrames: 0,
      loopAnim: false,
      shotType: 0,
      repeat: 1,
      colorBullets: 100,
      splinterAmount: 0,
      splinterColour: 0,
      splinterType: -1,
      splinterScatter: 0,
      objTrailType: -1,
      objTrailDelay: 0,
      partTrailType: 0,
      partTrailObj: -1,
      partTrailDelay: 0,
      speed: 120,
    },
    {
      detectDistance: 1,
      blowAway: 0.30000001192092896,
      gravity: 0,
      exploSound: -1,
      addSpeed: 0,
      distribution: 0.18310546875,
      multSpeed: 1,
      createOnExp: -1,
      dirtEffect: -1,
      wormExplode: false,
      explGround: true,
      wormCollide: true,
      collideWithObjects: true,
      affectByExplosions: false,
      bounce: 0,
      bounceFriction: 0.800000011920929,
      timeToExplo: 45,
      timeToExploV: 10,
      hitDamage: 0,
      bloodOnHit: 0,
      startFrame: -1,
      numFrames: 0,
      loopAnim: false,
      shotType: 0,
      repeat: 1,
      colorBullets: 25,
      splinterAmount: 0,
      splinterColour: 0,
      splinterType: -1,
      splinterScatter: 0,
      objTrailType: -1,
      objTrailDelay: 0,
      partTrailType: 0,
      partTrailObj: -1,
      partTrailDelay: 0,
      speed: 180,
    },
    {
      detectDistance: 2,
      blowAway: 0.2199999988079071,
      gravity: 0,
      exploSound: -1,
      addSpeed: 0,
      distribution: 0.08392333984375,
      multSpeed: 1,
      createOnExp: 0,
      dirtEffect: -1,
      wormExplode: true,
      explGround: false,
      wormCollide: true,
      collideWithObjects: false,
      affectByExplosions: true,
      bounce: 0,
      bounceFriction: 0.800000011920929,
      timeToExplo: 500,
      timeToExploV: 0,
      hitDamage: 0,
      bloodOnHit: 18,
      startFrame: 178,
      numFrames: 0,
      loopAnim: false,
      shotType: 0,
      repeat: 1,
      colorBullets: 0,
      splinterAmount: 0,
      splinterColour: 67,
      splinterType: 4,
      splinterScatter: 0,
      objTrailType: -1,
      objTrailDelay: 0,
      partTrailType: 0,
      partTrailObj: -1,
      partTrailDelay: 0,
      speed: 198,
    },
    {
      detectDistance: 2,
      blowAway: 0.20000000298023224,
      gravity: 0.0030517578125,
      exploSound: 7,
      addSpeed: 0,
      distribution: 0.004119873046875,
      multSpeed: 1,
      createOnExp: 1,
      dirtEffect: 1,
      wormExplode: false,
      explGround: true,
      wormCollide: true,
      collideWithObjects: false,
      affectByExplosions: true,
      bounce: 0,
      bounceFriction: 0.800000011920929,
      timeToExplo: 35,
      timeToExploV: 0,
      hitDamage: 15,
      bloodOnHit: 50,
      startFrame: 193,
      numFrames: 0,
      loopAnim: false,
      shotType: 0,
      repeat: 1,
      colorBullets: 66,
      splinterAmount: 15,
      splinterColour: 3,
      splinterType: 5,
      splinterScatter: 0,
      objTrailType: -1,
      objTrailDelay: 0,
      partTrailType: 0,
      partTrailObj: -1,
      partTrailDelay: 0,
      speed: 510,
    },
    {
      detectDistance: 1,
      blowAway: 0.4000000059604645,
      gravity: 0.0030517578125,
      exploSound: -1,
      addSpeed: 0,
      distribution: 0,
      multSpeed: 1,
      createOnExp: 1,
      dirtEffect: -1,
      wormExplode: true,
      explGround: true,
      wormCollide: true,
      collideWithObjects: false,
      affectByExplosions: false,
      bounce: 1,
      bounceFriction: 1,
      timeToExplo: 380,
      timeToExploV: 50,
      hitDamage: 0,
      bloodOnHit: 6,
      startFrame: 194,
      numFrames: 0,
      loopAnim: false,
      shotType: 0,
      repeat: 1,
      colorBullets: 0,
      splinterAmount: 5,
      splinterColour: 67,
      splinterType: 3,
      splinterScatter: 0,
      objTrailType: -1,
      objTrailDelay: 0,
      partTrailType: 1,
      partTrailObj: 3,
      partTrailDelay: 4,
      speed: 220,
    },
    {
      detectDistance: 0,
      blowAway: 0,
      gravity: 0,
      exploSound: -1,
      addSpeed: 0,
      distribution: 0.000152587890625,
      multSpeed: 1,
      createOnExp: 9,
      dirtEffect: -1,
      wormExplode: false,
      explGround: true,
      wormCollide: true,
      collideWithObjects: false,
      affectByExplosions: true,
      bounce: 0,
      bounceFriction: 0.800000011920929,
      timeToExplo: 0,
      timeToExploV: 0,
      hitDamage: 1,
      bloodOnHit: 0,
      startFrame: -1,
      numFrames: 0,
      loopAnim: false,
      shotType: 4,
      repeat: 1000,
      colorBullets: 104,
      splinterAmount: 0,
      splinterColour: 0,
      splinterType: -1,
      splinterScatter: 0,
      objTrailType: -1,
      objTrailDelay: 0,
      partTrailType: 0,
      partTrailObj: -1,
      partTrailDelay: 0,
      speed: 100,
    },
    {
      detectDistance: 2,
      blowAway: 0.20000000298023224,
      gravity: 0.0152587890625,
      exploSound: -1,
      addSpeed: 0,
      distribution: 0.3662109375,
      multSpeed: 1,
      createOnExp: 2,
      dirtEffect: -1,
      wormExplode: false,
      explGround: false,
      wormCollide: true,
      collideWithObjects: false,
      affectByExplosions: true,
      bounce: 0.6000000238418579,
      bounceFriction: 0.800000011920929,
      timeToExplo: 700,
      timeToExploV: 100,
      hitDamage: 9,
      bloodOnHit: 20,
      startFrame: 181,
      numFrames: 3,
      loopAnim: true,
      shotType: 0,
      repeat: 1,
      colorBullets: 0,
      splinterAmount: 0,
      splinterColour: 0,
      splinterType: -1,
      splinterScatter: 0,
      objTrailType: -1,
      objTrailDelay: 0,
      partTrailType: 0,
      partTrailObj: -1,
      partTrailDelay: 0,
      speed: 110,
    },
    {
      detectDistance: 0,
      blowAway: 0,
      gravity: 0.0152587890625,
      exploSound: 4,
      addSpeed: 0,
      distribution: 0.030517578125,
      multSpeed: 1,
      createOnExp: -1,
      dirtEffect: -1,
      wormExplode: true,
      explGround: true,
      wormCollide: false,
      collideWithObjects: false,
      affectByExplosions: true,
      bounce: 0,
      bounceFriction: 0.800000011920929,
      timeToExplo: 0,
      timeToExploV: 0,
      hitDamage: 0,
      bloodOnHit: 0,
      startFrame: 185,
      numFrames: 7,
      loopAnim: true,
      shotType: 0,
      repeat: 1,
      colorBullets: 0,
      splinterAmount: 17,
      splinterColour: 114,
      splinterType: 12,
      splinterScatter: 0,
      objTrailType: -1,
      objTrailDelay: 0,
      partTrailType: 0,
      partTrailObj: -1,
      partTrailDelay: 0,
      speed: 177,
    },
    {
      detectDistance: 1,
      blowAway: 0.2199999988079071,
      gravity: 0,
      exploSound: 12,
      addSpeed: 0,
      distribution: 0,
      multSpeed: 1,
      createOnExp: 0,
      dirtEffect: -1,
      wormExplode: true,
      explGround: true,
      wormCollide: true,
      collideWithObjects: false,
      affectByExplosions: false,
      bounce: 0,
      bounceFriction: 0.800000011920929,
      timeToExplo: 0,
      timeToExploV: 0,
      hitDamage: 0,
      bloodOnHit: 18,
      startFrame: 112,
      numFrames: 0,
      loopAnim: false,
      shotType: 1,
      repeat: 1,
      colorBullets: 0,
      splinterAmount: 5,
      splinterColour: 67,
      splinterType: 4,
      splinterScatter: 0,
      objTrailType: 9,
      objTrailDelay: 5,
      partTrailType: 1,
      partTrailObj: 10,
      partTrailDelay: 6,
      speed: 200,
    },
    {
      detectDistance: 1,
      blowAway: 0,
      gravity: 0,
      exploSound: -1,
      addSpeed: 150,
      distribution: 0,
      multSpeed: 1,
      createOnExp: 0,
      dirtEffect: -1,
      wormExplode: true,
      explGround: true,
      wormCollide: true,
      collideWithObjects: false,
      affectByExplosions: false,
      bounce: 0,
      bounceFriction: 0.800000011920929,
      timeToExplo: 0,
      timeToExploV: 0,
      hitDamage: 12,
      bloodOnHit: 30,
      startFrame: 110,
      numFrames: 0,
      loopAnim: false,
      shotType: 2,
      repeat: 1,
      colorBullets: 0,
      splinterAmount: 12,
      splinterColour: 66,
      splinterType: 3,
      splinterScatter: 0,
      objTrailType: 3,
      objTrailDelay: 4,
      partTrailType: 0,
      partTrailObj: -1,
      partTrailDelay: 0,
      speed: 230,
    },
    {
      detectDistance: 0,
      blowAway: 0,
      gravity: 0.01983642578125,
      exploSound: -1,
      addSpeed: 0,
      distribution: 0.1068115234375,
      multSpeed: 1,
      createOnExp: 0,
      dirtEffect: -1,
      wormExplode: false,
      explGround: false,
      wormCollide: false,
      collideWithObjects: false,
      affectByExplosions: true,
      bounce: 0.4000000059604645,
      bounceFriction: 0.800000011920929,
      timeToExplo: 150,
      timeToExploV: 15,
      hitDamage: 0,
      bloodOnHit: 0,
      startFrame: 215,
      numFrames: 3,
      loopAnim: true,
      shotType: 0,
      repeat: 1,
      colorBullets: 0,
      splinterAmount: 22,
      splinterColour: 0,
      splinterType: 14,
      splinterScatter: 0,
      objTrailType: -1,
      objTrailDelay: 0,
      partTrailType: 0,
      partTrailObj: -1,
      partTrailDelay: 0,
      speed: 170,
    },
    {
      detectDistance: 3,
      blowAway: 0,
      gravity: 0.02288818359375,
      exploSound: -1,
      addSpeed: 0,
      distribution: 0.30517578125,
      multSpeed: 1,
      createOnExp: 0,
      dirtEffect: -1,
      wormExplode: true,
      explGround: false,
      wormCollide: true,
      collideWithObjects: false,
      affectByExplosions: true,
      bounce: 0.30000001192092896,
      bounceFriction: 0.800000011920929,
      timeToExplo: 4000,
      timeToExploV: 600,
      hitDamage: 5,
      bloodOnHit: 20,
      startFrame: 210,
      numFrames: 0,
      loopAnim: true,
      shotType: 0,
      repeat: 1,
      colorBullets: 0,
      splinterAmount: 0,
      splinterColour: 0,
      splinterType: -1,
      splinterScatter: 0,
      objTrailType: -1,
      objTrailDelay: 0,
      partTrailType: 0,
      partTrailObj: -1,
      partTrailDelay: 0,
      speed: 100,
    },
    {
      detectDistance: 1,
      blowAway: 0,
      gravity: 0.01678466796875,
      exploSound: -1,
      addSpeed: 0,
      distribution: 0.1068115234375,
      multSpeed: 1,
      createOnExp: 0,
      dirtEffect: -1,
      wormExplode: true,
      explGround: true,
      wormCollide: true,
      collideWithObjects: false,
      affectByExplosions: true,
      bounce: 0,
      bounceFriction: 0.800000011920929,
      timeToExplo: 130,
      timeToExploV: 50,
      hitDamage: 0,
      bloodOnHit: 0,
      startFrame: 239,
      numFrames: 0,
      loopAnim: false,
      shotType: 0,
      repeat: 1,
      colorBullets: 0,
      splinterAmount: 1,
      splinterColour: 0,
      splinterType: 15,
      splinterScatter: 0,
      objTrailType: -1,
      objTrailDelay: 0,
      partTrailType: 0,
      partTrailObj: -1,
      partTrailDelay: 0,
      speed: 190,
    },
    {
      detectDistance: 1,
      blowAway: 0.10000000149011612,
      gravity: 0,
      exploSound: -1,
      addSpeed: 3,
      distribution: 0.0091552734375,
      multSpeed: 1,
      createOnExp: 10,
      dirtEffect: -1,
      wormExplode: true,
      explGround: true,
      wormCollide: true,
      collideWithObjects: false,
      affectByExplosions: false,
      bounce: 0,
      bounceFriction: 0.800000011920929,
      timeToExplo: 0,
      timeToExploV: 0,
      hitDamage: 2,
      bloodOnHit: 8,
      startFrame: 223,
      numFrames: 0,
      loopAnim: false,
      shotType: 3,
      repeat: 1,
      colorBullets: 0,
      splinterAmount: 0,
      splinterColour: 0,
      splinterType: -1,
      splinterScatter: 0,
      objTrailType: 6,
      objTrailDelay: 2,
      partTrailType: 0,
      partTrailObj: -1,
      partTrailDelay: 0,
      speed: 170,
    },
    {
      detectDistance: 0,
      blowAway: 0.20000000298023224,
      gravity: 0.0030517578125,
      exploSound: -1,
      addSpeed: 0,
      distribution: 0.0152587890625,
      multSpeed: 1,
      createOnExp: 2,
      dirtEffect: -1,
      wormExplode: false,
      explGround: true,
      wormCollide: false,
      collideWithObjects: false,
      affectByExplosions: false,
      bounce: 0,
      bounceFriction: 0.800000011920929,
      timeToExplo: 0,
      timeToExploV: 0,
      hitDamage: 4,
      bloodOnHit: 10,
      startFrame: 223,
      numFrames: 0,
      loopAnim: false,
      shotType: 1,
      repeat: 1,
      colorBullets: 0,
      splinterAmount: 0,
      splinterColour: 0,
      splinterType: -1,
      splinterScatter: 0,
      objTrailType: -1,
      objTrailDelay: 0,
      partTrailType: 0,
      partTrailObj: -1,
      partTrailDelay: 0,
      speed: 350,
    },
    {
      detectDistance: 0,
      blowAway: 0.05000000074505806,
      gravity: 0.01068115234375,
      exploSound: -1,
      addSpeed: 0,
      distribution: 0.4999847412109375,
      multSpeed: 1,
      createOnExp: 2,
      dirtEffect: -1,
      wormExplode: false,
      explGround: true,
      wormCollide: true,
      collideWithObjects: false,
      affectByExplosions: false,
      bounce: 0,
      bounceFriction: 0.800000011920929,
      timeToExplo: 0,
      timeToExploV: 0,
      hitDamage: 2,
      bloodOnHit: 4,
      startFrame: -1,
      numFrames: 0,
      loopAnim: false,
      shotType: 1,
      repeat: 1,
      colorBullets: 68,
      splinterAmount: 0,
      splinterColour: 0,
      splinterType: 2,
      splinterScatter: 0,
      objTrailType: -1,
      objTrailDelay: 0,
      partTrailType: 0,
      partTrailObj: -1,
      partTrailDelay: 0,
      speed: 250,
    },
    {
      detectDistance: 1,
      blowAway: 0.20000000298023224,
      gravity: 0.00030517578125,
      exploSound: -1,
      addSpeed: 0,
      distribution: 0,
      multSpeed: 1,
      createOnExp: 1,
      dirtEffect: -1,
      wormExplode: true,
      explGround: true,
      wormCollide: true,
      collideWithObjects: false,
      affectByExplosions: false,
      bounce: 0,
      bounceFriction: 0.800000011920929,
      timeToExplo: 0,
      timeToExploV: 0,
      hitDamage: 0,
      bloodOnHit: 7,
      startFrame: 196,
      numFrames: 0,
      loopAnim: false,
      shotType: 4,
      repeat: 8,
      colorBullets: 0,
      splinterAmount: 1,
      splinterColour: 75,
      splinterType: 3,
      splinterScatter: 0,
      objTrailType: -1,
      objTrailDelay: 0,
      partTrailType: 0,
      partTrailObj: -1,
      partTrailDelay: 0,
      speed: 200,
    },
  ],
  nObjects: [
    {
      detectDistance: 0,
      gravity: 0.0152587890625,
      speed: 1.2000000476837158,
      speedV: 0.4000000059604645,
      distribution: 0.1220703125,
      blowAway: 0,
      bounce: 0.10000000149011612,
      hitDamage: 0,
      wormExplode: false,
      explGround: true,
      wormDestroy: true,
      bloodOnHit: 0,
      startFrame: 165,
      numFrames: 3,
      drawOnMap: true,
      colorBullets: 0,
      createOnExp: 4,
      affectByExplosions: false,
      dirtEffect: -1,
      splinterAmount: 0,
      splinterColour: 0,
      splinterType: -1,
      bloodTrail: true,
      bloodTrailDelay: 10,
      leaveObj: -1,
      leaveObjDelay: 0,
      timeToExplo: 8000,
      timeToExploV: 2000,
    },
    {
      detectDistance: 0,
      gravity: 0.0152587890625,
      speed: 1.2000000476837158,
      speedV: 0.4000000059604645,
      distribution: 0.1220703125,
      blowAway: 0,
      bounce: 0.10000000149011612,
      hitDamage: 0,
      wormExplode: false,
      explGround: true,
      wormDestroy: true,
      bloodOnHit: 0,
      startFrame: 169,
      numFrames: 3,
      drawOnMap: true,
      colorBullets: 0,
      createOnExp: 4,
      affectByExplosions: false,
      dirtEffect: -1,
      splinterAmount: 0,
      splinterColour: 0,
      splinterType: -1,
      bloodTrail: true,
      bloodTrailDelay: 10,
      leaveObj: -1,
      leaveObjDelay: 0,
      timeToExplo: 8000,
      timeToExploV: 2000,
    },
    {
      detectDistance: 0,
      gravity: 0.01068115234375,
      speed: 0.800000011920929,
      speedV: 0.4000000059604645,
      distribution: 0.152587890625,
      blowAway: 0,
      bounce: 0,
      hitDamage: 0,
      wormExplode: false,
      explGround: true,
      wormDestroy: false,
      bloodOnHit: 0,
      startFrame: 0,
      numFrames: 0,
      drawOnMap: false,
      colorBullets: 17,
      createOnExp: -1,
      affectByExplosions: false,
      dirtEffect: -1,
      splinterAmount: 0,
      splinterColour: 0,
      splinterType: -1,
      bloodTrail: false,
      bloodTrailDelay: 0,
      leaveObj: -1,
      leaveObjDelay: 0,
      timeToExplo: 0,
      timeToExploV: 0,
    },
    {
      detectDistance: 0,
      gravity: 0.01068115234375,
      speed: 1.600000023841858,
      speedV: 1.399999976158142,
      distribution: 0.030517578125,
      blowAway: 0.10000000149011612,
      bounce: 0,
      hitDamage: 2,
      wormExplode: false,
      explGround: true,
      wormDestroy: true,
      bloodOnHit: 1,
      startFrame: 0,
      numFrames: 0,
      drawOnMap: false,
      colorBullets: 67,
      createOnExp: 2,
      affectByExplosions: false,
      dirtEffect: -1,
      splinterAmount: 0,
      splinterColour: 0,
      splinterType: -1,
      bloodTrail: false,
      bloodTrailDelay: 0,
      leaveObj: -1,
      leaveObjDelay: 0,
      timeToExplo: 0,
      timeToExploV: 0,
    },
    {
      detectDistance: 0,
      gravity: 0.01068115234375,
      speed: 1.899999976158142,
      speedV: 1.600000023841858,
      distribution: 0.030517578125,
      blowAway: 0.10000000149011612,
      bounce: 0,
      hitDamage: 3,
      wormExplode: false,
      explGround: true,
      wormDestroy: true,
      bloodOnHit: 1,
      startFrame: 0,
      numFrames: 0,
      drawOnMap: false,
      colorBullets: 67,
      createOnExp: 2,
      affectByExplosions: false,
      dirtEffect: -1,
      splinterAmount: 0,
      splinterColour: 0,
      splinterType: -1,
      bloodTrail: false,
      bloodTrailDelay: 0,
      leaveObj: -1,
      leaveObjDelay: 0,
      timeToExplo: 0,
      timeToExploV: 0,
    },
    {
      detectDistance: 0,
      gravity: 0.01068115234375,
      speed: 2.200000047683716,
      speedV: 1.7999999523162842,
      distribution: 0.030517578125,
      blowAway: 0.15000000596046448,
      bounce: 0,
      hitDamage: 4,
      wormExplode: false,
      explGround: true,
      wormDestroy: true,
      bloodOnHit: 1,
      startFrame: 0,
      numFrames: 0,
      drawOnMap: false,
      colorBullets: 67,
      createOnExp: 2,
      affectByExplosions: false,
      dirtEffect: -1,
      splinterAmount: 0,
      splinterColour: 0,
      splinterType: -1,
      bloodTrail: false,
      bloodTrailDelay: 0,
      leaveObj: -1,
      leaveObjDelay: 0,
      timeToExplo: 0,
      timeToExploV: 0,
    },
    {
      detectDistance: 0,
      gravity: 0.01068115234375,
      speed: 0.75,
      speedV: 0.4000000059604645,
      distribution: 0.30517578125,
      blowAway: 0,
      bounce: 0,
      hitDamage: 0,
      wormExplode: false,
      explGround: true,
      wormDestroy: false,
      bloodOnHit: 0,
      startFrame: 0,
      numFrames: 0,
      drawOnMap: false,
      colorBullets: 82,
      createOnExp: -1,
      affectByExplosions: false,
      dirtEffect: -1,
      splinterAmount: 0,
      splinterColour: 0,
      splinterType: -1,
      bloodTrail: true,
      bloodTrailDelay: 10,
      leaveObj: -1,
      leaveObjDelay: 0,
      timeToExplo: 0,
      timeToExploV: 0,
    },
    {
      detectDistance: 0,
      gravity: 0.0152587890625,
      speed: 0,
      speedV: 0,
      distribution: 0.1220703125,
      blowAway: 0,
      bounce: 0.4000000059604645,
      hitDamage: 0,
      wormExplode: false,
      explGround: true,
      wormDestroy: true,
      bloodOnHit: 0,
      startFrame: 155,
      numFrames: 3,
      drawOnMap: true,
      colorBullets: 0,
      createOnExp: 4,
      affectByExplosions: false,
      dirtEffect: -1,
      splinterAmount: 0,
      splinterColour: 0,
      splinterType: -1,
      bloodTrail: false,
      bloodTrailDelay: 0,
      leaveObj: -1,
      leaveObjDelay: 0,
      timeToExplo: 4000,
      timeToExploV: 1000,
    },
    {
      detectDistance: 1,
      gravity: 0.0152587890625,
      speed: 2.200000047683716,
      speedV: 1.399999976158142,
      distribution: 0.152587890625,
      blowAway: 0,
      bounce: 0,
      hitDamage: 1,
      wormExplode: true,
      explGround: true,
      wormDestroy: true,
      bloodOnHit: 5,
      startFrame: 202,
      numFrames: 3,
      drawOnMap: false,
      colorBullets: 0,
      createOnExp: 1,
      affectByExplosions: false,
      dirtEffect: -1,
      splinterAmount: 0,
      splinterColour: 0,
      splinterType: -1,
      bloodTrail: false,
      bloodTrailDelay: 0,
      leaveObj: -1,
      leaveObjDelay: 0,
      timeToExplo: 0,
      timeToExploV: 0,
    },
    {
      detectDistance: 0,
      gravity: 0.0152587890625,
      speed: 2,
      speedV: 1.2000000476837158,
      distribution: 0.30517578125,
      blowAway: 0,
      bounce: 0.6000000238418579,
      hitDamage: 0,
      wormExplode: false,
      explGround: false,
      wormDestroy: false,
      bloodOnHit: 0,
      startFrame: 177,
      numFrames: 0,
      drawOnMap: false,
      colorBullets: 0,
      createOnExp: 0,
      affectByExplosions: true,
      dirtEffect: -1,
      splinterAmount: 3,
      splinterColour: 75,
      splinterType: 5,
      bloodTrail: false,
      bloodTrailDelay: 0,
      leaveObj: 5,
      leaveObjDelay: 5,
      timeToExplo: 200,
      timeToExploV: 50,
    },
    {
      detectDistance: 1,
      gravity: 0.0152587890625,
      speed: 1.399999976158142,
      speedV: 0.20000000298023224,
      distribution: 0.30517578125,
      blowAway: 0.15000000596046448,
      bounce: 0,
      hitDamage: 3,
      wormExplode: true,
      explGround: true,
      wormDestroy: true,
      bloodOnHit: 10,
      startFrame: 193,
      numFrames: 0,
      drawOnMap: false,
      colorBullets: 0,
      createOnExp: 0,
      affectByExplosions: false,
      dirtEffect: -1,
      splinterAmount: 5,
      splinterColour: 66,
      splinterType: 3,
      bloodTrail: false,
      bloodTrailDelay: 0,
      leaveObj: 3,
      leaveObjDelay: 8,
      timeToExplo: 0,
      timeToExploV: 0,
    },
    {
      detectDistance: 1,
      gravity: 0.0152587890625,
      speed: 2,
      speedV: 1.2000000476837158,
      distribution: 0.30517578125,
      blowAway: 0,
      bounce: 0.6000000238418579,
      hitDamage: 1,
      wormExplode: true,
      explGround: false,
      wormDestroy: true,
      bloodOnHit: 9,
      startFrame: 177,
      numFrames: 0,
      drawOnMap: false,
      colorBullets: 0,
      createOnExp: 0,
      affectByExplosions: true,
      dirtEffect: -1,
      splinterAmount: 6,
      splinterColour: 75,
      splinterType: 4,
      bloodTrail: false,
      bloodTrailDelay: 0,
      leaveObj: 5,
      leaveObjDelay: 5,
      timeToExplo: 100,
      timeToExploV: 40,
    },
    {
      detectDistance: 0,
      gravity: 0.0152587890625,
      speed: 1.5,
      speedV: 0.8999999761581421,
      distribution: 0.152587890625,
      blowAway: 0,
      bounce: 0,
      hitDamage: 0,
      wormExplode: false,
      explGround: true,
      wormDestroy: false,
      bloodOnHit: 0,
      startFrame: 0,
      numFrames: 0,
      drawOnMap: false,
      colorBullets: 10,
      createOnExp: 8,
      affectByExplosions: false,
      dirtEffect: -1,
      splinterAmount: 0,
      splinterColour: 0,
      splinterType: -1,
      bloodTrail: false,
      bloodTrailDelay: 0,
      leaveObj: 8,
      leaveObjDelay: 4,
      timeToExplo: 40,
      timeToExploV: 10,
    },
    {
      detectDistance: 0,
      gravity: 0,
      speed: 4,
      speedV: 8,
      distribution: 0.152587890625,
      blowAway: 0,
      bounce: 1,
      hitDamage: 0,
      wormExplode: false,
      explGround: false,
      wormDestroy: false,
      bloodOnHit: 0,
      startFrame: 0,
      numFrames: 0,
      drawOnMap: false,
      colorBullets: 0,
      createOnExp: -1,
      affectByExplosions: false,
      dirtEffect: 4,
      splinterAmount: 0,
      splinterColour: 0,
      splinterType: -1,
      bloodTrail: false,
      bloodTrailDelay: 0,
      leaveObj: -1,
      leaveObjDelay: 0,
      timeToExplo: 1,
      timeToExploV: 0,
    },
    {
      detectDistance: 1,
      gravity: 0.0152587890625,
      speed: 2.200000047683716,
      speedV: 1.5,
      distribution: 0.152587890625,
      blowAway: 0,
      bounce: 0,
      hitDamage: 4,
      wormExplode: true,
      explGround: true,
      wormDestroy: true,
      bloodOnHit: 10,
      startFrame: 219,
      numFrames: 3,
      drawOnMap: false,
      colorBullets: 0,
      createOnExp: 0,
      affectByExplosions: false,
      dirtEffect: -1,
      splinterAmount: 0,
      splinterColour: 0,
      splinterType: -1,
      bloodTrail: false,
      bloodTrailDelay: 0,
      leaveObj: -1,
      leaveObjDelay: 0,
      timeToExplo: 0,
      timeToExploV: 0,
    },
    {
      detectDistance: 1,
      gravity: 0.0152587890625,
      speed: 1.2000000476837158,
      speedV: 0.4000000059604645,
      distribution: 0.152587890625,
      blowAway: 0,
      bounce: 0.6000000238418579,
      hitDamage: 1,
      wormExplode: true,
      explGround: false,
      wormDestroy: true,
      bloodOnHit: 0,
      startFrame: 239,
      numFrames: 0,
      drawOnMap: false,
      colorBullets: 0,
      createOnExp: 0,
      affectByExplosions: true,
      dirtEffect: -1,
      splinterAmount: 1,
      splinterColour: 0,
      splinterType: 16,
      bloodTrail: false,
      bloodTrailDelay: 0,
      leaveObj: -1,
      leaveObjDelay: 0,
      timeToExplo: 70,
      timeToExploV: 60,
    },
    {
      detectDistance: 1,
      gravity: 0.0152587890625,
      speed: 1.2000000476837158,
      speedV: 0.4000000059604645,
      distribution: 0.152587890625,
      blowAway: 0,
      bounce: 0.6000000238418579,
      hitDamage: 1,
      wormExplode: true,
      explGround: false,
      wormDestroy: true,
      bloodOnHit: 0,
      startFrame: 239,
      numFrames: 0,
      drawOnMap: false,
      colorBullets: 0,
      createOnExp: 0,
      affectByExplosions: true,
      dirtEffect: -1,
      splinterAmount: 1,
      splinterColour: 0,
      splinterType: 17,
      bloodTrail: false,
      bloodTrailDelay: 0,
      leaveObj: -1,
      leaveObjDelay: 0,
      timeToExplo: 70,
      timeToExploV: 60,
    },
    {
      detectDistance: 1,
      gravity: 0.0152587890625,
      speed: 1.2000000476837158,
      speedV: 0.4000000059604645,
      distribution: 0.152587890625,
      blowAway: 0,
      bounce: 0.6000000238418579,
      hitDamage: 1,
      wormExplode: true,
      explGround: false,
      wormDestroy: true,
      bloodOnHit: 0,
      startFrame: 239,
      numFrames: 0,
      drawOnMap: false,
      colorBullets: 0,
      createOnExp: 0,
      affectByExplosions: true,
      dirtEffect: -1,
      splinterAmount: 1,
      splinterColour: 0,
      splinterType: 18,
      bloodTrail: false,
      bloodTrailDelay: 0,
      leaveObj: -1,
      leaveObjDelay: 0,
      timeToExplo: 70,
      timeToExploV: 60,
    },
    {
      detectDistance: 1,
      gravity: 0.0152587890625,
      speed: 1.2000000476837158,
      speedV: 0.4000000059604645,
      distribution: 0.152587890625,
      blowAway: 0,
      bounce: 0.6000000238418579,
      hitDamage: 1,
      wormExplode: true,
      explGround: false,
      wormDestroy: true,
      bloodOnHit: 0,
      startFrame: 239,
      numFrames: 0,
      drawOnMap: false,
      colorBullets: 0,
      createOnExp: 11,
      affectByExplosions: true,
      dirtEffect: -1,
      splinterAmount: 1,
      splinterColour: 0,
      splinterType: 19,
      bloodTrail: false,
      bloodTrailDelay: 0,
      leaveObj: -1,
      leaveObjDelay: 0,
      timeToExplo: 70,
      timeToExploV: 60,
    },
    {
      detectDistance: 1,
      gravity: 0.0152587890625,
      speed: 1.2000000476837158,
      speedV: 0.4000000059604645,
      distribution: 0.152587890625,
      blowAway: 0,
      bounce: 0.6000000238418579,
      hitDamage: 1,
      wormExplode: true,
      explGround: false,
      wormDestroy: true,
      bloodOnHit: 0,
      startFrame: 239,
      numFrames: 0,
      drawOnMap: false,
      colorBullets: 0,
      createOnExp: 12,
      affectByExplosions: true,
      dirtEffect: -1,
      splinterAmount: 1,
      splinterColour: 0,
      splinterType: 22,
      bloodTrail: false,
      bloodTrailDelay: 0,
      leaveObj: -1,
      leaveObjDelay: 0,
      timeToExplo: 70,
      timeToExploV: 60,
    },
    {
      detectDistance: 3,
      gravity: 0.0152587890625,
      speed: 0,
      speedV: 0,
      distribution: 0,
      blowAway: 0,
      bounce: 0.4000000059604645,
      hitDamage: 0,
      wormExplode: false,
      explGround: false,
      wormDestroy: false,
      bloodOnHit: 0,
      startFrame: 213,
      numFrames: 0,
      drawOnMap: false,
      colorBullets: 0,
      createOnExp: -1,
      affectByExplosions: true,
      dirtEffect: -1,
      splinterAmount: 0,
      splinterColour: 0,
      splinterType: -1,
      bloodTrail: false,
      bloodTrailDelay: 0,
      leaveObj: -1,
      leaveObjDelay: 0,
      timeToExplo: 0,
      timeToExploV: 0,
    },
    {
      detectDistance: 3,
      gravity: 0.0152587890625,
      speed: 0,
      speedV: 0,
      distribution: 0,
      blowAway: 0,
      bounce: 0.4000000059604645,
      hitDamage: 0,
      wormExplode: false,
      explGround: false,
      wormDestroy: false,
      bloodOnHit: 0,
      startFrame: 214,
      numFrames: 0,
      drawOnMap: false,
      colorBullets: 0,
      createOnExp: -1,
      affectByExplosions: true,
      dirtEffect: -1,
      splinterAmount: 0,
      splinterColour: 0,
      splinterType: -1,
      bloodTrail: false,
      bloodTrailDelay: 0,
      leaveObj: -1,
      leaveObjDelay: 0,
      timeToExplo: 0,
      timeToExploV: 0,
    },
    {
      detectDistance: 1,
      gravity: 0.0152587890625,
      speed: 1.2000000476837158,
      speedV: 0.4000000059604645,
      distribution: 0.152587890625,
      blowAway: 0,
      bounce: 0.4000000059604645,
      hitDamage: 1,
      wormExplode: true,
      explGround: false,
      wormDestroy: true,
      bloodOnHit: 0,
      startFrame: 239,
      numFrames: 0,
      drawOnMap: false,
      colorBullets: 0,
      createOnExp: 1,
      affectByExplosions: true,
      dirtEffect: -1,
      splinterAmount: 1,
      splinterColour: 0,
      splinterType: 23,
      bloodTrail: false,
      bloodTrailDelay: 0,
      leaveObj: -1,
      leaveObjDelay: 0,
      timeToExplo: 70,
      timeToExploV: 60,
    },
    {
      detectDistance: 1,
      gravity: 0.0152587890625,
      speed: 1.2000000476837158,
      speedV: 0.4000000059604645,
      distribution: 0.152587890625,
      blowAway: 0,
      bounce: 0.4000000059604645,
      hitDamage: 1,
      wormExplode: true,
      explGround: false,
      wormDestroy: true,
      bloodOnHit: 0,
      startFrame: 239,
      numFrames: 0,
      drawOnMap: false,
      colorBullets: 0,
      createOnExp: 10,
      affectByExplosions: true,
      dirtEffect: -1,
      splinterAmount: 0,
      splinterColour: 0,
      splinterType: -1,
      bloodTrail: false,
      bloodTrailDelay: 0,
      leaveObj: -1,
      leaveObjDelay: 0,
      timeToExplo: 70,
      timeToExploV: 60,
    },
  ],
  sObjects: [
    {
      startSound: 9,
      numSounds: 4,
      animDelay: 2,
      startFrame: 40,
      numFrames: 15,
      detectRange: 20,
      damage: 15,
      blowAway: 0.0457763671875,
      shadow: true,
      shake: 4,
      flash: 8,
      dirtEffect: 0,
    },
    {
      startSound: 9,
      numSounds: 4,
      animDelay: 2,
      startFrame: 45,
      numFrames: 10,
      detectRange: 14,
      damage: 10,
      blowAway: 0.0457763671875,
      shadow: true,
      shake: 2,
      flash: 4,
      dirtEffect: 1,
    },
    {
      startSound: 7,
      numSounds: 2,
      animDelay: 2,
      startFrame: 50,
      numFrames: 5,
      detectRange: 8,
      damage: 5,
      blowAway: 0.0457763671875,
      shadow: true,
      shake: 1,
      flash: 0,
      dirtEffect: 2,
    },
    {
      startSound: -1,
      numSounds: 0,
      animDelay: 4,
      startFrame: 64,
      numFrames: 4,
      detectRange: 0,
      damage: 0,
      blowAway: 0,
      shadow: false,
      shake: 0,
      flash: 0,
      dirtEffect: -1,
    },
    {
      startSound: -1,
      numSounds: 0,
      animDelay: 4,
      startFrame: 100,
      numFrames: 3,
      detectRange: 0,
      damage: 0,
      blowAway: 0,
      shadow: true,
      shake: 0,
      flash: 0,
      dirtEffect: 5,
    },
    {
      startSound: -1,
      numSounds: 0,
      animDelay: 2,
      startFrame: 104,
      numFrames: 3,
      detectRange: 0,
      damage: 0,
      blowAway: 0,
      shadow: false,
      shake: 0,
      flash: 0,
      dirtEffect: -1,
    },
    {
      startSound: -1,
      numSounds: 0,
      animDelay: 2,
      startFrame: 76,
      numFrames: 2,
      detectRange: 0,
      damage: 0,
      blowAway: 0,
      shadow: true,
      shake: 0,
      flash: 0,
      dirtEffect: -1,
    },
    {
      startSound: -1,
      numSounds: 0,
      animDelay: 2,
      startFrame: 91,
      numFrames: 4,
      detectRange: 0,
      damage: 0,
      blowAway: 0,
      shadow: true,
      shake: 0,
      flash: 0,
      dirtEffect: -1,
    },
    {
      startSound: -1,
      numSounds: 0,
      animDelay: 2,
      startFrame: 49,
      numFrames: 6,
      detectRange: 8,
      damage: 7,
      blowAway: 0,
      shadow: true,
      shake: 0,
      flash: 0,
      dirtEffect: 2,
    },
    {
      startSound: -1,
      numSounds: 0,
      animDelay: 2,
      startFrame: 53,
      numFrames: 2,
      detectRange: 6,
      damage: 0,
      blowAway: 0,
      shadow: true,
      shake: 0,
      flash: 0,
      dirtEffect: 5,
    },
    {
      startSound: 9,
      numSounds: 4,
      animDelay: 2,
      startFrame: 47,
      numFrames: 8,
      detectRange: 10,
      damage: 8,
      blowAway: 0.0457763671875,
      shadow: true,
      shake: 2,
      flash: 3,
      dirtEffect: 8,
    },
    {
      startSound: 9,
      numSounds: 4,
      animDelay: 2,
      startFrame: 42,
      numFrames: 13,
      detectRange: 15,
      damage: 13,
      blowAway: 0.0457763671875,
      shadow: true,
      shake: 3,
      flash: 6,
      dirtEffect: 1,
    },
    {
      startSound: 9,
      numSounds: 4,
      animDelay: 2,
      startFrame: 44,
      numFrames: 11,
      detectRange: 14,
      damage: 12,
      blowAway: 0.0457763671875,
      shadow: true,
      shake: 3,
      flash: 5,
      dirtEffect: 1,
    },
    {
      startSound: -1,
      numSounds: 0,
      animDelay: 0,
      startFrame: 0,
      numFrames: 0,
      detectRange: 0,
      damage: 0,
      blowAway: 1.0039215087890625,
      shadow: false,
      shake: 0,
      flash: 0,
      dirtEffect: -1,
    },
  ],
  textures: [
    {
      nDrawBack: true,
      mFrame: 0,
      sFrame: 73,
      rFrame: 2,
    },
    {
      nDrawBack: true,
      mFrame: 1,
      sFrame: 73,
      rFrame: 2,
    },
    {
      nDrawBack: true,
      mFrame: 2,
      sFrame: 73,
      rFrame: 2,
    },
    {
      nDrawBack: true,
      mFrame: 37,
      sFrame: 73,
      rFrame: 2,
    },
    {
      nDrawBack: false,
      mFrame: 0,
      sFrame: 87,
      rFrame: 2,
    },
    {
      nDrawBack: true,
      mFrame: 39,
      sFrame: 73,
      rFrame: 2,
    },
    {
      nDrawBack: false,
      mFrame: 38,
      sFrame: 82,
      rFrame: 2,
    },
    {
      nDrawBack: true,
      mFrame: 99,
      sFrame: 73,
      rFrame: 2,
    },
    {
      nDrawBack: true,
      mFrame: 37,
      sFrame: 73,
      rFrame: 2,
    },
  ],
  colorAnim: [
    129,
    131,
    133,
    136,
    152,
    159,
    168,
    171,
  ],
  textSpritesStartIdx: 240,
  crossHairSprite: 153,
}
