{
  name: "Liero XFE v2.0",
  constants: {
    nrInitialLength: 250,
    nrAttachLength: 28.125,
    minBounceUp: -0.8125,
    minBounceDown: 0.8125,
    minBounceHoriz: 0.8125,
    wormGravity: 0.01220703125,
    wormAcc: 0.02288818359375,
    wormMaxVel: 0.4453125,
    jumpForce: 0.85546875,
    maxAimVel: 0.05243098363280296,
    aimAcc: 0.002996056340634823,
    ninjaropeGravity: 0.006103515625,
    nrMinLength: 10.625,
    nrMaxLength: 250,
    bonusGravity: 0.01220703125,
    wormFricMult: 0.949999988079071,
    aimFric: 0.8299999833106995,
    nrThrowVel: 2,
    nrForce: 0.0833333358168602,
    bonusBounce: 0.4000000059604645,
    bonusFlickerTime: 220,
    aimMaxAngle: 1.5707963705062866,
    aimMinAngle: -0.9817476868629456,
    nrAdjustVel: 1.5,
    nrColourBegin: 62,
    nrColourEnd: 64,
    bonusExplodeRisk: 13,
    bonusHealthVar: 21,
    bonusMinHealth: 40,
    firstBloodColour: 80,
    numBloodColours: 2,
    bObjGravity: 0.01220703125,
    splinterLarpaVelDiv: 3,
    splinterCracklerVelDiv: 3,
    fallDamageHoriz: 0,
    fallDamageDown: 0,
    fallDamageUp: 0,
    hFallDamage: false,
    hBonusReloadOnly: true,
  },
  weapons: [
    {
      parts: 8,
      bulletType: 0,
      bulletSpeed: 2.5,
      bulletSpeedInherit: 0.4000000059604645,
      distribution: 0.1220703125,
      recoil: 0.550000011920929,
      ammo: 4,
      delay: 110,
      loadingTime: 470,
      leaveShells: 1,
      leaveShellDelay: 28,
      fireCone: 9,
      laserSight: false,
      laserBeam: false,
      launchSound: 0,
      playReloadSound: true,
      name: 'P A SHOTGUN',
    },
    {
      parts: 1,
      bulletType: 1,
      bulletSpeed: 2.5,
      bulletSpeedInherit: 0.4000000059604645,
      distribution: 0.3509521484375,
      recoil: 0.05999999865889549,
      ammo: 40,
      delay: 4,
      loadingTime: 315,
      leaveShells: 2,
      leaveShellDelay: 1,
      fireCone: 6,
      laserSight: false,
      laserBeam: false,
      launchSound: 1,
      playReloadSound: true,
      name: 'CHAINGUN',
    },
    {
      parts: 1,
      bulletType: 2,
      bulletSpeed: 2.5999999046325684,
      bulletSpeedInherit: 0.38461539149284363,
      distribution: 0,
      recoil: 0.699999988079071,
      ammo: 1,
      delay: 0,
      loadingTime: 390,
      leaveShells: 1,
      leaveShellDelay: 1,
      fireCone: 8,
      laserSight: true,
      laserBeam: false,
      launchSound: 0,
      playReloadSound: true,
      name: 'SNIPER RIFLE',
    },
    {
      parts: 1,
      bulletType: 3,
      bulletSpeed: 1.399999976158142,
      bulletSpeedInherit: 0.7142857313156128,
      distribution: 0.0762939453125,
      recoil: 0.15000000596046448,
      ammo: 6,
      delay: 38,
      loadingTime: 410,
      leaveShells: 0,
      leaveShellDelay: 1,
      fireCone: 9,
      laserSight: false,
      laserBeam: false,
      launchSound: 6,
      playReloadSound: true,
      name: 'HAND LAUNCHER',
    },
    {
      parts: 1,
      bulletType: 4,
      bulletSpeed: 2,
      bulletSpeedInherit: 0.5,
      distribution: 0.18310546875,
      recoil: 0,
      ammo: 5,
      delay: 20,
      loadingTime: 225,
      leaveShells: 0,
      leaveShellDelay: 1,
      fireCone: 0,
      laserSight: false,
      laserBeam: false,
      launchSound: 4,
      playReloadSound: true,
      name: 'DIRTBALL',
    },
    {
      parts: 10,
      bulletType: 5,
      bulletSpeed: 1.5,
      bulletSpeedInherit: 0.6666666865348816,
      distribution: 0.244140625,
      recoil: 0.800000011920929,
      ammo: 5,
      delay: 90,
      loadingTime: 480,
      leaveShells: 0,
      leaveShellDelay: 1,
      fireCone: 30,
      laserSight: false,
      laserBeam: false,
      launchSound: 11,
      playReloadSound: false,
      name: 'FLAK',
    },
    {
      parts: 1,
      bulletType: 6,
      bulletSpeed: 1,
      bulletSpeedInherit: 1,
      distribution: 0.1220703125,
      recoil: 0,
      ammo: 1,
      delay: 0,
      loadingTime: 220,
      leaveShells: 0,
      leaveShellDelay: 1,
      fireCone: 0,
      laserSight: false,
      laserBeam: false,
      launchSound: 5,
      playReloadSound: false,
      name: 'MINE',
    },
    {
      parts: 1,
      bulletType: 7,
      bulletSpeed: 2.5,
      bulletSpeedInherit: 0.4000000059604645,
      distribution: 0.00152587890625,
      recoil: 0.3499999940395355,
      ammo: 9,
      delay: 50,
      loadingTime: 510,
      leaveShells: 1,
      leaveShellDelay: 1,
      fireCone: 8,
      laserSight: false,
      laserBeam: false,
      launchSound: 2,
      playReloadSound: true,
      name: 'WINCHESTER',
    },
    {
      parts: 2,
      bulletType: 8,
      bulletSpeed: 1.7000000476837158,
      bulletSpeedInherit: 0.5882352590560913,
      distribution: 0.152587890625,
      recoil: 0.15000000596046448,
      ammo: 5,
      delay: 25,
      loadingTime: 780,
      leaveShells: 0,
      leaveShellDelay: 1,
      fireCone: 8,
      laserSight: false,
      laserBeam: false,
      launchSound: 3,
      playReloadSound: true,
      name: 'DEVASTATOR',
    },
    {
      parts: 1,
      bulletType: 9,
      bulletSpeed: 1.5,
      bulletSpeedInherit: 0.6666666865348816,
      distribution: 0.030517578125,
      recoil: 0,
      ammo: 65,
      delay: 3,
      loadingTime: 470,
      leaveShells: 0,
      leaveShellDelay: 1,
      fireCone: 2,
      laserSight: false,
      laserBeam: false,
      launchSound: 13,
      playReloadSound: false,
      name: 'BIORIFLE',
    },
    {
      parts: 1,
      bulletType: 10,
      bulletSpeed: 1.7000000476837158,
      bulletSpeedInherit: 0.5882352590560913,
      distribution: 0.1068115234375,
      recoil: 0,
      ammo: 2,
      delay: 40,
      loadingTime: 600,
      leaveShells: 0,
      leaveShellDelay: 1,
      fireCone: 0,
      laserSight: false,
      laserBeam: false,
      launchSound: 5,
      playReloadSound: false,
      name: 'SPARK HAIL',
    },
    {
      parts: 1,
      bulletType: 11,
      bulletSpeed: 2.200000047683716,
      bulletSpeedInherit: 0.45454543828964233,
      distribution: 0,
      recoil: 0.20000000298023224,
      ammo: 5,
      delay: 46,
      loadingTime: 550,
      leaveShells: 0,
      leaveShellDelay: 1,
      fireCone: 7,
      laserSight: false,
      laserBeam: false,
      launchSound: 6,
      playReloadSound: true,
      name: 'LARPA',
    },
    {
      parts: 1,
      bulletType: 12,
      bulletSpeed: 1.5,
      bulletSpeedInherit: 0.6666666865348816,
      distribution: 0,
      recoil: 0.30000001192092896,
      ammo: 4,
      delay: 60,
      loadingTime: 540,
      leaveShells: 0,
      leaveShellDelay: 1,
      fireCone: 8,
      laserSight: false,
      laserBeam: false,
      launchSound: 4,
      playReloadSound: true,
      name: 'BLASTER',
    },
    {
      parts: 1,
      bulletType: 13,
      bulletSpeed: 1,
      bulletSpeedInherit: 1,
      distribution: 0.1220703125,
      recoil: 0,
      ammo: 1,
      delay: 0,
      loadingTime: 280,
      leaveShells: 0,
      leaveShellDelay: 1,
      fireCone: 0,
      laserSight: false,
      laserBeam: false,
      launchSound: 5,
      playReloadSound: false,
      name: 'DRAGON',
    },
    {
      parts: 6,
      bulletType: 14,
      bulletSpeed: 2.5999999046325684,
      bulletSpeedInherit: 0.38461539149284363,
      distribution: 0.18310546875,
      recoil: 0.05999999865889549,
      ammo: 12,
      delay: 30,
      loadingTime: 380,
      leaveShells: 2,
      leaveShellDelay: 1,
      fireCone: 6,
      laserSight: false,
      laserBeam: false,
      launchSound: 1,
      playReloadSound: true,
      name: 'JACKHAMMER',
    },
    {
      parts: 1,
      bulletType: 15,
      bulletSpeed: 1.2999999523162842,
      bulletSpeedInherit: 0.7692307829856873,
      distribution: 0.1068115234375,
      recoil: 0,
      ammo: 1,
      delay: 0,
      loadingTime: 575,
      leaveShells: 0,
      leaveShellDelay: 1,
      fireCone: 0,
      laserSight: false,
      laserBeam: false,
      launchSound: 5,
      playReloadSound: false,
      name: 'CLUSTER BOMB',
    },
    {
      parts: 18,
      bulletType: 16,
      bulletSpeed: 2.0999999046325684,
      bulletSpeedInherit: 0.4761905074119568,
      distribution: 0.457763671875,
      recoil: 2,
      ammo: 2,
      delay: 110,
      loadingTime: 460,
      leaveShells: 1,
      leaveShellDelay: 28,
      fireCone: 10,
      laserSight: false,
      laserBeam: false,
      launchSound: 0,
      playReloadSound: true,
      name: 'SAWED OFF',
    },
    {
      parts: 1,
      bulletType: 17,
      bulletSpeed: 3.5999999046325684,
      bulletSpeedInherit: 0.2777777910232544,
      distribution: 0.030517578125,
      recoil: 0.20000000298023224,
      ammo: 10,
      delay: 30,
      loadingTime: 220,
      leaveShells: 1,
      leaveShellDelay: 1,
      fireCone: 6,
      laserSight: true,
      laserBeam: false,
      launchSound: 28,
      playReloadSound: true,
      name: 'HANDGUN',
    },
    {
      parts: 1,
      bulletType: 18,
      bulletSpeed: 1.7000000476837158,
      bulletSpeedInherit: 0.5882352590560913,
      distribution: 0.1220703125,
      recoil: 0.10000000149011612,
      ammo: 2,
      delay: 80,
      loadingTime: 600,
      leaveShells: 0,
      leaveShellDelay: 1,
      fireCone: 0,
      laserSight: false,
      laserBeam: false,
      launchSound: 2,
      playReloadSound: true,
      name: 'BLOOM',
    },
    {
      parts: 1,
      bulletType: 19,
      bulletSpeed: 1.2000000476837158,
      bulletSpeedInherit: 0.8333333134651184,
      distribution: 0.030517578125,
      recoil: 0.30000001192092896,
      ammo: 3,
      delay: 62,
      loadingTime: 465,
      leaveShells: 0,
      leaveShellDelay: 1,
      fireCone: 20,
      laserSight: true,
      laserBeam: false,
      launchSound: 3,
      playReloadSound: false,
      name: 'LAUNCHER',
    },
    {
      parts: 1,
      bulletType: 20,
      bulletSpeed: 1.7000000476837158,
      bulletSpeedInherit: 0.5882352590560913,
      distribution: 0.030517578125,
      recoil: 0,
      ammo: 1,
      delay: 0,
      loadingTime: 650,
      leaveShells: 0,
      leaveShellDelay: 1,
      fireCone: 0,
      laserSight: false,
      laserBeam: false,
      launchSound: 5,
      playReloadSound: true,
      name: 'BONKERS',
    },
    {
      parts: 1,
      bulletType: 21,
      bulletSpeed: 3,
      bulletSpeedInherit: 0.3333333432674408,
      distribution: 0,
      recoil: 0.30000001192092896,
      ammo: 2,
      delay: 70,
      loadingTime: 540,
      leaveShells: 0,
      leaveShellDelay: 1,
      fireCone: 0,
      laserSight: false,
      laserBeam: false,
      launchSound: 6,
      playReloadSound: true,
      name: 'ZIMM',
    },
    {
      parts: 1,
      bulletType: 22,
      bulletSpeed: 1.7999999523162842,
      bulletSpeedInherit: 0.5555555820465088,
      distribution: 0.1220703125,
      recoil: 0.20000000298023224,
      ammo: 2,
      delay: 30,
      loadingTime: 450,
      leaveShells: 0,
      leaveShellDelay: 1,
      fireCone: 0,
      laserSight: false,
      laserBeam: false,
      launchSound: 5,
      playReloadSound: false,
      name: 'MINI NUKE',
    },
    {
      parts: 1,
      bulletType: 23,
      bulletSpeed: 1,
      bulletSpeedInherit: 1,
      distribution: 0.213623046875,
      recoil: 0,
      ammo: 2,
      delay: 20,
      loadingTime: 550,
      leaveShells: 0,
      leaveShellDelay: 1,
      fireCone: 0,
      laserSight: false,
      laserBeam: false,
      launchSound: 5,
      playReloadSound: true,
      name: 'FLOAT MINE',
    },
    {
      parts: 2,
      bulletType: 24,
      bulletSpeed: 1.7999999523162842,
      bulletSpeedInherit: 0.5555555820465088,
      distribution: 0.3662109375,
      recoil: 0.019999999552965164,
      ammo: 150,
      delay: 0,
      loadingTime: 220,
      leaveShells: 0,
      leaveShellDelay: 1,
      fireCone: 0,
      laserSight: false,
      laserBeam: false,
      launchSound: -1,
      playReloadSound: false,
      name: 'FAN',
    },
    {
      parts: 1,
      bulletType: 25,
      bulletSpeed: 1,
      bulletSpeedInherit: 1,
      distribution: 0.01220703125,
      recoil: 0.5,
      ammo: 1,
      delay: 0,
      loadingTime: 640,
      leaveShells: 0,
      leaveShellDelay: 1,
      fireCone: 8,
      laserSight: false,
      laserBeam: false,
      launchSound: 3,
      playReloadSound: true,
      name: 'HELLRAIDER',
    },
    {
      parts: 1,
      bulletType: 26,
      bulletSpeed: 2,
      bulletSpeedInherit: 0.5,
      distribution: 0.00457763671875,
      recoil: 0.4000000059604645,
      ammo: 7,
      delay: 10,
      loadingTime: 740,
      leaveShells: 0,
      leaveShellDelay: 1,
      fireCone: 8,
      laserSight: false,
      laserBeam: false,
      launchSound: 11,
      playReloadSound: true,
      name: 'CANNON',
    },
    {
      parts: 2,
      bulletType: 27,
      bulletSpeed: 2.5999999046325684,
      bulletSpeedInherit: 0.38461539149284363,
      distribution: 0,
      recoil: 0.20000000298023224,
      ammo: 4,
      delay: 50,
      loadingTime: 210,
      leaveShells: 0,
      leaveShellDelay: 1,
      fireCone: 7,
      laserSight: false,
      laserBeam: false,
      launchSound: 6,
      playReloadSound: true,
      name: 'FLAMEPUNCH',
    },
    {
      parts: 1,
      bulletType: 28,
      bulletSpeed: 1,
      bulletSpeedInherit: 0,
      distribution: 0.000152587890625,
      recoil: 0,
      ammo: 1,
      delay: 0,
      loadingTime: 400,
      leaveShells: 0,
      leaveShellDelay: 1,
      fireCone: 0,
      laserSight: false,
      laserBeam: true,
      launchSound: 8,
      playReloadSound: true,
      name: 'BEAM',
    },
    {
      parts: 4,
      bulletType: 29,
      bulletSpeed: 1,
      bulletSpeedInherit: 1,
      distribution: 0.3662109375,
      recoil: 0,
      ammo: 1,
      delay: 0,
      loadingTime: 400,
      leaveShells: 0,
      leaveShellDelay: 1,
      fireCone: 0,
      laserSight: false,
      laserBeam: false,
      launchSound: 5,
      playReloadSound: true,
      name: 'CLUSTERBALLS',
    },
    {
      parts: 1,
      bulletType: 30,
      bulletSpeed: 1.2999999523162842,
      bulletSpeedInherit: 0.7692307829856873,
      distribution: 0.06103515625,
      recoil: 0,
      ammo: 1,
      delay: 0,
      loadingTime: 680,
      leaveShells: 0,
      leaveShellDelay: 1,
      fireCone: 0,
      laserSight: false,
      laserBeam: false,
      launchSound: 5,
      playReloadSound: false,
      name: 'BIO BOMB',
    },
    {
      parts: 1,
      bulletType: 31,
      bulletSpeed: 1.7000000476837158,
      bulletSpeedInherit: 0.5882352590560913,
      distribution: 0.48828125,
      recoil: 0.019999999552965164,
      ammo: 45,
      delay: 4,
      loadingTime: 290,
      leaveShells: 2,
      leaveShellDelay: 1,
      fireCone: 20,
      laserSight: false,
      laserBeam: false,
      launchSound: 28,
      playReloadSound: true,
      name: 'UZI',
    },
    {
      parts: 1,
      bulletType: 32,
      bulletSpeed: 2.299999952316284,
      bulletSpeedInherit: 0.43478262424468994,
      distribution: 0,
      recoil: 0.15000000596046448,
      ammo: 1,
      delay: 0,
      loadingTime: 480,
      leaveShells: 0,
      leaveShellDelay: 1,
      fireCone: 9,
      laserSight: false,
      laserBeam: false,
      launchSound: 3,
      playReloadSound: true,
      name: 'MISSILE',
    },
    {
      parts: 1,
      bulletType: 33,
      bulletSpeed: 1.2000000476837158,
      bulletSpeedInherit: 0.8333333134651184,
      distribution: 0.1068115234375,
      recoil: 0,
      ammo: 1,
      delay: 0,
      loadingTime: 800,
      leaveShells: 0,
      leaveShellDelay: 1,
      fireCone: 0,
      laserSight: false,
      laserBeam: false,
      launchSound: 5,
      playReloadSound: false,
      name: 'MEGABOMB',
    },
    {
      parts: 1,
      bulletType: 34,
      bulletSpeed: 1,
      bulletSpeedInherit: 1,
      distribution: 0.30517578125,
      recoil: 0,
      ammo: 1,
      delay: 0,
      loadingTime: 300,
      leaveShells: 0,
      leaveShellDelay: 1,
      fireCone: 0,
      laserSight: false,
      laserBeam: false,
      launchSound: 5,
      playReloadSound: false,
      name: 'BOOBY TRAP',
    },
    {
      parts: 1,
      bulletType: 35,
      bulletSpeed: 1.899999976158142,
      bulletSpeedInherit: 0.5263158082962036,
      distribution: 0.1068115234375,
      recoil: 0,
      ammo: 1,
      delay: 0,
      loadingTime: 450,
      leaveShells: 0,
      leaveShellDelay: 1,
      fireCone: 0,
      laserSight: false,
      laserBeam: false,
      launchSound: 5,
      playReloadSound: false,
      name: 'GRASSHOPPERS',
    },
    {
      parts: 1,
      bulletType: 36,
      bulletSpeed: 1.7000000476837158,
      bulletSpeedInherit: 0.5882352590560913,
      distribution: 0.0091552734375,
      recoil: 0.05000000074505806,
      ammo: 10,
      delay: 7,
      loadingTime: 450,
      leaveShells: 0,
      leaveShellDelay: 1,
      fireCone: 7,
      laserSight: false,
      laserBeam: false,
      launchSound: 6,
      playReloadSound: true,
      name: 'MINI ROCKETS',
    },
    {
      parts: 1,
      bulletType: 37,
      bulletSpeed: 2.9000000953674316,
      bulletSpeedInherit: 0,
      distribution: 0,
      recoil: 0,
      ammo: 6,
      delay: 30,
      loadingTime: 320,
      leaveShells: 0,
      leaveShellDelay: 1,
      fireCone: 0,
      laserSight: true,
      laserBeam: false,
      launchSound: 1,
      playReloadSound: false,
      name: 'DART RIFLE',
    },
    {
      parts: 1,
      bulletType: 38,
      bulletSpeed: 1.899999976158142,
      bulletSpeedInherit: 0.5263158082962036,
      distribution: 0.0152587890625,
      recoil: 0.03999999910593033,
      ammo: 10,
      delay: 2,
      loadingTime: 260,
      leaveShells: 1,
      leaveShellDelay: 1,
      fireCone: 6,
      laserSight: false,
      laserBeam: false,
      launchSound: 1,
      playReloadSound: true,
      name: 'RB RAMPAGE',
    },
    {
      parts: 3,
      bulletType: 39,
      bulletSpeed: 1.2000000476837158,
      bulletSpeedInherit: 0.8333333134651184,
      distribution: 0,
      recoil: 0.8999999761581421,
      ammo: 1,
      delay: 5,
      loadingTime: 550,
      leaveShells: 0,
      leaveShellDelay: 1,
      fireCone: 10,
      laserSight: false,
      laserBeam: false,
      launchSound: 10,
      playReloadSound: true,
      name: 'GAUSS GUN',
    },
  ],
  wObjects: [
    {
      detectDistance: 0,
      blowAway: 0.029999999329447746,
      gravity: 0.01068115234375,
      exploSound: -1,
      addSpeed: 0,
      distribution: 0.1220703125,
      multSpeed: 1,
      createOnExp: 2,
      dirtEffect: -1,
      wormExplode: false,
      explGround: true,
      wormCollide: true,
      collideWithObjects: false,
      affectByExplosions: false,
      bounce: 0,
      bounceFriction: 0.800000011920929,
      timeToExplo: 0,
      timeToExploV: 0,
      hitDamage: 4,
      bloodOnHit: 6,
      startFrame: -1,
      numFrames: 0,
      loopAnim: false,
      shotType: 0,
      repeat: 1,
      colorBullets: 65,
      splinterAmount: 2,
      splinterColour: 115,
      splinterType: 12,
      splinterScatter: 0,
      objTrailType: -1,
      objTrailDelay: 0,
      partTrailType: 0,
      partTrailObj: -1,
      partTrailDelay: 0,
      speed: 250,
    },
    {
      detectDistance: 0,
      blowAway: 0.029999999329447746,
      gravity: 0.01068115234375,
      exploSound: -1,
      addSpeed: 0,
      distribution: 0.3509521484375,
      multSpeed: 1,
      createOnExp: 2,
      dirtEffect: -1,
      wormExplode: false,
      explGround: true,
      wormCollide: true,
      collideWithObjects: false,
      affectByExplosions: false,
      bounce: 0,
      bounceFriction: 0.800000011920929,
      timeToExplo: 0,
      timeToExploV: 0,
      hitDamage: 3,
      bloodOnHit: 4,
      startFrame: -1,
      numFrames: 0,
      loopAnim: false,
      shotType: 0,
      repeat: 1,
      colorBullets: 68,
      splinterAmount: 1,
      splinterColour: 115,
      splinterType: 12,
      splinterScatter: 0,
      objTrailType: -1,
      objTrailDelay: 0,
      partTrailType: 0,
      partTrailObj: -1,
      partTrailDelay: 0,
      speed: 250,
    },
    {
      detectDistance: 0,
      blowAway: 0.699999988079071,
      gravity: 0,
      exploSound: -1,
      addSpeed: 0,
      distribution: 0,
      multSpeed: 1,
      createOnExp: 2,
      dirtEffect: -1,
      wormExplode: true,
      explGround: true,
      wormCollide: true,
      collideWithObjects: false,
      affectByExplosions: false,
      bounce: 0,
      bounceFriction: 0.800000011920929,
      timeToExplo: 0,
      timeToExploV: 0,
      hitDamage: 34,
      bloodOnHit: 20,
      startFrame: -1,
      numFrames: 0,
      loopAnim: false,
      shotType: 4,
      repeat: 8,
      colorBullets: 68,
      splinterAmount: 12,
      splinterColour: 115,
      splinterType: 23,
      splinterScatter: 0,
      objTrailType: -1,
      objTrailDelay: 0,
      partTrailType: 0,
      partTrailObj: -1,
      partTrailDelay: 0,
      speed: 260,
    },
    {
      detectDistance: 1,
      blowAway: 0,
      gravity: 0,
      exploSound: -1,
      addSpeed: 2,
      distribution: 0.0762939453125,
      multSpeed: 1,
      createOnExp: 1,
      dirtEffect: -1,
      wormExplode: true,
      explGround: true,
      wormCollide: true,
      collideWithObjects: false,
      affectByExplosions: false,
      bounce: 0,
      bounceFriction: 0.800000011920929,
      timeToExplo: 0,
      timeToExploV: 0,
      hitDamage: 12,
      bloodOnHit: 30,
      startFrame: 112,
      numFrames: 0,
      loopAnim: false,
      shotType: 3,
      repeat: 1,
      colorBullets: 0,
      splinterAmount: 50,
      splinterColour: 116,
      splinterType: 23,
      splinterScatter: 0,
      objTrailType: 9,
      objTrailDelay: 4,
      partTrailType: 0,
      partTrailObj: -1,
      partTrailDelay: 0,
      speed: 140,
    },
    {
      detectDistance: 0,
      blowAway: 0,
      gravity: 0.0152587890625,
      exploSound: 13,
      addSpeed: 0,
      distribution: 0.18310546875,
      multSpeed: 1,
      createOnExp: -1,
      dirtEffect: 4,
      wormExplode: true,
      explGround: false,
      wormCollide: false,
      collideWithObjects: false,
      affectByExplosions: true,
      bounce: 0.30000001192092896,
      bounceFriction: 0.800000011920929,
      timeToExplo: 80,
      timeToExploV: 20,
      hitDamage: 0,
      bloodOnHit: 0,
      startFrame: 197,
      numFrames: 0,
      loopAnim: false,
      shotType: 0,
      repeat: 1,
      colorBullets: 0,
      splinterAmount: 14,
      splinterColour: 0,
      splinterType: 13,
      splinterScatter: 0,
      objTrailType: -1,
      objTrailDelay: 0,
      partTrailType: 0,
      partTrailObj: -1,
      partTrailDelay: 0,
      speed: 200,
    },
    {
      detectDistance: 0,
      blowAway: 0.05000000074505806,
      gravity: 0.000762939453125,
      exploSound: -1,
      addSpeed: 0,
      distribution: 0.244140625,
      multSpeed: 1,
      createOnExp: -1,
      dirtEffect: -1,
      wormExplode: false,
      explGround: true,
      wormCollide: true,
      collideWithObjects: false,
      affectByExplosions: false,
      bounce: 0.12999999523162842,
      bounceFriction: 0.800000011920929,
      timeToExplo: 1600,
      timeToExploV: 100,
      hitDamage: 2,
      bloodOnHit: 5,
      startFrame: -1,
      numFrames: 3,
      loopAnim: false,
      shotType: 4,
      repeat: 8,
      colorBullets: 111,
      splinterAmount: 0,
      splinterColour: 0,
      splinterType: 2,
      splinterScatter: 0,
      objTrailType: -1,
      objTrailDelay: 0,
      partTrailType: 0,
      partTrailObj: -1,
      partTrailDelay: 0,
      speed: 150,
    },
    {
      detectDistance: 2,
      blowAway: 0.6000000238418579,
      gravity: 0.0152587890625,
      exploSound: -1,
      addSpeed: 0,
      distribution: 0.1220703125,
      multSpeed: 1,
      createOnExp: 12,
      dirtEffect: -1,
      wormExplode: true,
      explGround: false,
      wormCollide: true,
      collideWithObjects: false,
      affectByExplosions: true,
      bounce: 0.4000000059604645,
      bounceFriction: 0.800000011920929,
      timeToExplo: 15000,
      timeToExploV: 600,
      hitDamage: 12,
      bloodOnHit: 20,
      startFrame: 219,
      numFrames: 3,
      loopAnim: true,
      shotType: 0,
      repeat: 1,
      colorBullets: 0,
      splinterAmount: 10,
      splinterColour: 115,
      splinterType: 5,
      splinterScatter: 0,
      objTrailType: -1,
      objTrailDelay: 0,
      partTrailType: 0,
      partTrailObj: -1,
      partTrailDelay: 0,
      speed: 30,
    },
    {
      detectDistance: 0,
      blowAway: 0.699999988079071,
      gravity: 0.00030517578125,
      exploSound: -1,
      addSpeed: 0,
      distribution: 0.00152587890625,
      multSpeed: 1,
      createOnExp: 2,
      dirtEffect: -1,
      wormExplode: false,
      explGround: true,
      wormCollide: true,
      collideWithObjects: false,
      affectByExplosions: false,
      bounce: 0,
      bounceFriction: 0.800000011920929,
      timeToExplo: 0,
      timeToExploV: 0,
      hitDamage: 12,
      bloodOnHit: 15,
      startFrame: -1,
      numFrames: 0,
      loopAnim: false,
      shotType: 4,
      repeat: 8,
      colorBullets: 68,
      splinterAmount: 3,
      splinterColour: 115,
      splinterType: 12,
      splinterScatter: 0,
      objTrailType: -1,
      objTrailDelay: 0,
      partTrailType: 0,
      partTrailObj: -1,
      partTrailDelay: 0,
      speed: 250,
    },
    {
      detectDistance: 1,
      blowAway: 0.15000000596046448,
      gravity: 0.0091552734375,
      exploSound: -1,
      addSpeed: 3,
      distribution: 0.152587890625,
      multSpeed: 1,
      createOnExp: 11,
      dirtEffect: -1,
      wormExplode: true,
      explGround: true,
      wormCollide: true,
      collideWithObjects: false,
      affectByExplosions: false,
      bounce: 0,
      bounceFriction: 0.800000011920929,
      timeToExplo: 0,
      timeToExploV: 0,
      hitDamage: 0,
      bloodOnHit: 10,
      startFrame: 127,
      numFrames: 0,
      loopAnim: false,
      shotType: 3,
      repeat: 1,
      colorBullets: 0,
      splinterAmount: 25,
      splinterColour: 116,
      splinterType: 23,
      splinterScatter: 0,
      objTrailType: 6,
      objTrailDelay: 1,
      partTrailType: 0,
      partTrailObj: -1,
      partTrailDelay: 0,
      speed: 170,
    },
    {
      detectDistance: 1,
      blowAway: 0.20000000298023224,
      gravity: 0.006103515625,
      exploSound: 7,
      addSpeed: 0,
      distribution: 0.030517578125,
      multSpeed: 1,
      createOnExp: 5,
      dirtEffect: -1,
      wormExplode: true,
      explGround: false,
      wormCollide: true,
      collideWithObjects: false,
      affectByExplosions: false,
      bounce: 0.05999999865889549,
      bounceFriction: 0.800000011920929,
      timeToExplo: 170,
      timeToExploV: 20,
      hitDamage: 3,
      bloodOnHit: 1,
      startFrame: 202,
      numFrames: 3,
      loopAnim: true,
      shotType: 0,
      repeat: 1,
      colorBullets: 0,
      splinterAmount: 4,
      splinterColour: 53,
      splinterType: 2,
      splinterScatter: 1,
      objTrailType: -1,
      objTrailDelay: 0,
      partTrailType: 0,
      partTrailObj: -1,
      partTrailDelay: 0,
      speed: 150,
    },
    {
      detectDistance: 0,
      blowAway: 0,
      gravity: -0.006103515625,
      exploSound: -1,
      addSpeed: 0,
      distribution: 0.1068115234375,
      multSpeed: 0.9800000190734863,
      createOnExp: 0,
      dirtEffect: -1,
      wormExplode: false,
      explGround: false,
      wormCollide: false,
      collideWithObjects: false,
      affectByExplosions: true,
      bounce: 0.4000000059604645,
      bounceFriction: 0.800000011920929,
      timeToExplo: 270,
      timeToExploV: 20,
      hitDamage: 0,
      bloodOnHit: 0,
      startFrame: 206,
      numFrames: 3,
      loopAnim: true,
      shotType: 0,
      repeat: 1,
      colorBullets: 0,
      splinterAmount: 120,
      splinterColour: 54,
      splinterType: 3,
      splinterScatter: 0,
      objTrailType: -1,
      objTrailDelay: 0,
      partTrailType: 0,
      partTrailObj: -1,
      partTrailDelay: 0,
      speed: 170,
    },
    {
      detectDistance: 1,
      blowAway: 0.4000000059604645,
      gravity: 0.0030517578125,
      exploSound: -1,
      addSpeed: 0,
      distribution: 0,
      multSpeed: 1,
      createOnExp: 2,
      dirtEffect: -1,
      wormExplode: true,
      explGround: true,
      wormCollide: true,
      collideWithObjects: false,
      affectByExplosions: false,
      bounce: 0,
      bounceFriction: 0.800000011920929,
      timeToExplo: 0,
      timeToExploV: 0,
      hitDamage: 4,
      bloodOnHit: 6,
      startFrame: 140,
      numFrames: 0,
      loopAnim: false,
      shotType: 1,
      repeat: 1,
      colorBullets: 0,
      splinterAmount: 5,
      splinterColour: 67,
      splinterType: 4,
      splinterScatter: 0,
      objTrailType: -1,
      objTrailDelay: 0,
      partTrailType: 1,
      partTrailObj: 4,
      partTrailDelay: 5,
      speed: 220,
    },
    {
      detectDistance: 0,
      blowAway: 0,
      gravity: 0.01220703125,
      exploSound: -1,
      addSpeed: 0,
      distribution: 0,
      multSpeed: 1,
      createOnExp: 12,
      dirtEffect: -1,
      wormExplode: true,
      explGround: true,
      wormCollide: false,
      collideWithObjects: false,
      affectByExplosions: false,
      bounce: 0,
      bounceFriction: 0.800000011920929,
      timeToExplo: 0,
      timeToExploV: 0,
      hitDamage: 0,
      bloodOnHit: 0,
      startFrame: 196,
      numFrames: 0,
      loopAnim: false,
      shotType: 0,
      repeat: 1,
      colorBullets: 0,
      splinterAmount: 45,
      splinterColour: 117,
      splinterType: 4,
      splinterScatter: 0,
      objTrailType: 3,
      objTrailDelay: 10,
      partTrailType: 0,
      partTrailObj: -1,
      partTrailDelay: 0,
      speed: 150,
    },
    {
      detectDistance: 5,
      blowAway: 0.2199999988079071,
      gravity: 0.0152587890625,
      exploSound: -1,
      addSpeed: 0,
      distribution: 0.1220703125,
      multSpeed: 1,
      createOnExp: 1,
      dirtEffect: -1,
      wormExplode: true,
      explGround: false,
      wormCollide: true,
      collideWithObjects: false,
      affectByExplosions: true,
      bounce: 0.949999988079071,
      bounceFriction: 0.800000011920929,
      timeToExplo: 200,
      timeToExploV: 40,
      hitDamage: 18,
      bloodOnHit: 18,
      startFrame: 236,
      numFrames: 2,
      loopAnim: true,
      shotType: 0,
      repeat: 1,
      colorBullets: 0,
      splinterAmount: 7,
      splinterColour: 115,
      splinterType: 22,
      splinterScatter: 0,
      objTrailType: 8,
      objTrailDelay: 3,
      partTrailType: 0,
      partTrailObj: 23,
      partTrailDelay: 1,
      speed: 100,
    },
    {
      detectDistance: 0,
      blowAway: 0.009999999776482582,
      gravity: 0.01068115234375,
      exploSound: 7,
      addSpeed: 0,
      distribution: 0.18310546875,
      multSpeed: 1,
      createOnExp: 9,
      dirtEffect: 2,
      wormExplode: true,
      explGround: true,
      wormCollide: true,
      collideWithObjects: false,
      affectByExplosions: false,
      bounce: 0,
      bounceFriction: 0.800000011920929,
      timeToExplo: 0,
      timeToExploV: 0,
      hitDamage: 3,
      bloodOnHit: 5,
      startFrame: -1,
      numFrames: 0,
      loopAnim: false,
      shotType: 0,
      repeat: 1,
      colorBullets: 68,
      splinterAmount: 0,
      splinterColour: 0,
      splinterType: -1,
      splinterScatter: 1,
      objTrailType: -1,
      objTrailDelay: 0,
      partTrailType: 0,
      partTrailObj: -1,
      partTrailDelay: 0,
      speed: 260,
    },
    {
      detectDistance: 0,
      blowAway: 0,
      gravity: 0.0152587890625,
      exploSound: -1,
      addSpeed: 0,
      distribution: 0.1068115234375,
      multSpeed: 1,
      createOnExp: 0,
      dirtEffect: -1,
      wormExplode: false,
      explGround: false,
      wormCollide: false,
      collideWithObjects: false,
      affectByExplosions: true,
      bounce: 0.5,
      bounceFriction: 0.800000011920929,
      timeToExplo: 165,
      timeToExploV: 15,
      hitDamage: 0,
      bloodOnHit: 0,
      startFrame: 206,
      numFrames: 3,
      loopAnim: true,
      shotType: 0,
      repeat: 1,
      colorBullets: 0,
      splinterAmount: 20,
      splinterColour: 0,
      splinterType: 8,
      splinterScatter: 0,
      objTrailType: -1,
      objTrailDelay: 0,
      partTrailType: 0,
      partTrailObj: -1,
      partTrailDelay: 0,
      speed: 130,
    },
    {
      detectDistance: 0,
      blowAway: 0.019999999552965164,
      gravity: 0.01068115234375,
      exploSound: -1,
      addSpeed: 0,
      distribution: 0.457763671875,
      multSpeed: 1,
      createOnExp: 2,
      dirtEffect: -1,
      wormExplode: false,
      explGround: true,
      wormCollide: true,
      collideWithObjects: false,
      affectByExplosions: false,
      bounce: 0,
      bounceFriction: 0.800000011920929,
      timeToExplo: 0,
      timeToExploV: 0,
      hitDamage: 3,
      bloodOnHit: 8,
      startFrame: -1,
      numFrames: 0,
      loopAnim: false,
      shotType: 0,
      repeat: 1,
      colorBullets: 65,
      splinterAmount: 2,
      splinterColour: 115,
      splinterType: 12,
      splinterScatter: 0,
      objTrailType: -1,
      objTrailDelay: 0,
      partTrailType: 0,
      partTrailObj: -1,
      partTrailDelay: 0,
      speed: 210,
    },
    {
      detectDistance: 0,
      blowAway: 0.20000000298023224,
      gravity: 0.01068115234375,
      exploSound: -1,
      addSpeed: 0,
      distribution: 0.030517578125,
      multSpeed: 1,
      createOnExp: 2,
      dirtEffect: -1,
      wormExplode: true,
      explGround: true,
      wormCollide: true,
      collideWithObjects: false,
      affectByExplosions: false,
      bounce: 0,
      bounceFriction: 0.800000011920929,
      timeToExplo: 0,
      timeToExploV: 0,
      hitDamage: 9,
      bloodOnHit: 4,
      startFrame: -1,
      numFrames: 0,
      loopAnim: false,
      shotType: 0,
      repeat: 1,
      colorBullets: 68,
      splinterAmount: 1,
      splinterColour: 115,
      splinterType: 12,
      splinterScatter: 0,
      objTrailType: -1,
      objTrailDelay: 0,
      partTrailType: 0,
      partTrailObj: -1,
      partTrailDelay: 0,
      speed: 360,
    },
    {
      detectDistance: 3,
      blowAway: 0,
      gravity: 0.01068115234375,
      exploSound: 13,
      addSpeed: 0,
      distribution: 0.1220703125,
      multSpeed: 1,
      createOnExp: -1,
      dirtEffect: -1,
      wormExplode: true,
      explGround: true,
      wormCollide: true,
      collideWithObjects: false,
      affectByExplosions: true,
      bounce: 0,
      bounceFriction: 0.800000011920929,
      timeToExplo: 0,
      timeToExploV: 0,
      hitDamage: 0,
      bloodOnHit: 0,
      startFrame: 206,
      numFrames: 3,
      loopAnim: true,
      shotType: 0,
      repeat: 1,
      colorBullets: 54,
      splinterAmount: 100,
      splinterColour: 53,
      splinterType: 19,
      splinterScatter: 0,
      objTrailType: -1,
      objTrailDelay: 0,
      partTrailType: 0,
      partTrailObj: -1,
      partTrailDelay: 0,
      speed: 170,
    },
    {
      detectDistance: 1,
      blowAway: 0,
      gravity: 0,
      exploSound: 4,
      addSpeed: 2,
      distribution: 0.030517578125,
      multSpeed: 1,
      createOnExp: 0,
      dirtEffect: -1,
      wormExplode: true,
      explGround: true,
      wormCollide: true,
      collideWithObjects: false,
      affectByExplosions: false,
      bounce: 0,
      bounceFriction: 0.800000011920929,
      timeToExplo: 0,
      timeToExploV: 0,
      hitDamage: 20,
      bloodOnHit: 50,
      startFrame: 112,
      numFrames: 0,
      loopAnim: false,
      shotType: 3,
      repeat: 1,
      colorBullets: 0,
      splinterAmount: 20,
      splinterColour: 116,
      splinterType: 22,
      splinterScatter: 0,
      objTrailType: 8,
      objTrailDelay: 5,
      partTrailType: 0,
      partTrailObj: -1,
      partTrailDelay: 0,
      speed: 120,
    },
    {
      detectDistance: 0,
      blowAway: 0,
      gravity: 0.0152587890625,
      exploSound: -1,
      addSpeed: 0,
      distribution: 0.030517578125,
      multSpeed: 1,
      createOnExp: 1,
      dirtEffect: -1,
      wormExplode: false,
      explGround: false,
      wormCollide: false,
      collideWithObjects: false,
      affectByExplosions: true,
      bounce: 0.8999999761581421,
      bounceFriction: 0.800000011920929,
      timeToExplo: 400,
      timeToExploV: 50,
      hitDamage: 0,
      bloodOnHit: 0,
      startFrame: 179,
      numFrames: 0,
      loopAnim: false,
      shotType: 0,
      repeat: 1,
      colorBullets: 0,
      splinterAmount: 8,
      splinterColour: 75,
      splinterType: 4,
      splinterScatter: 0,
      objTrailType: -1,
      objTrailDelay: 0,
      partTrailType: 1,
      partTrailObj: 4,
      partTrailDelay: 4,
      speed: 170,
    },
    {
      detectDistance: 1,
      blowAway: 0,
      gravity: 0,
      exploSound: -1,
      addSpeed: 0,
      distribution: 0,
      multSpeed: 1,
      createOnExp: 4,
      dirtEffect: -1,
      wormExplode: true,
      explGround: false,
      wormCollide: true,
      collideWithObjects: false,
      affectByExplosions: false,
      bounce: 1,
      bounceFriction: 1,
      timeToExplo: 1000,
      timeToExploV: 300,
      hitDamage: 40,
      bloodOnHit: 15,
      startFrame: 180,
      numFrames: 0,
      loopAnim: false,
      shotType: 0,
      repeat: 1,
      colorBullets: 0,
      splinterAmount: 20,
      splinterColour: 49,
      splinterType: 2,
      splinterScatter: 1,
      objTrailType: -1,
      objTrailDelay: 0,
      partTrailType: 1,
      partTrailObj: 2,
      partTrailDelay: 1,
      speed: 300,
    },
    {
      detectDistance: 0,
      blowAway: 0,
      gravity: 0.0152587890625,
      exploSound: 4,
      addSpeed: 0,
      distribution: 0.1220703125,
      multSpeed: 1,
      createOnExp: -1,
      dirtEffect: -1,
      wormExplode: false,
      explGround: false,
      wormCollide: false,
      collideWithObjects: false,
      affectByExplosions: true,
      bounce: 0.75,
      bounceFriction: 0.800000011920929,
      timeToExplo: 70,
      timeToExploV: 4,
      hitDamage: 0,
      bloodOnHit: 0,
      startFrame: 195,
      numFrames: 0,
      loopAnim: false,
      shotType: 0,
      repeat: 1,
      colorBullets: 0,
      splinterAmount: 6,
      splinterColour: 0,
      splinterType: 11,
      splinterScatter: 1,
      objTrailType: -1,
      objTrailDelay: 0,
      partTrailType: 0,
      partTrailObj: -1,
      partTrailDelay: 0,
      speed: 180,
    },
    {
      detectDistance: 2,
      blowAway: 0.2199999988079071,
      gravity: 0.0000762939453125,
      exploSound: -1,
      addSpeed: 0,
      distribution: 0.213623046875,
      multSpeed: 0.9800000190734863,
      createOnExp: 0,
      dirtEffect: -1,
      wormExplode: true,
      explGround: false,
      wormCollide: true,
      collideWithObjects: false,
      affectByExplosions: true,
      bounce: 1,
      bounceFriction: 1,
      timeToExplo: 13000,
      timeToExploV: 600,
      hitDamage: 4,
      bloodOnHit: 18,
      startFrame: 178,
      numFrames: 0,
      loopAnim: false,
      shotType: 0,
      repeat: 1,
      colorBullets: 0,
      splinterAmount: 8,
      splinterColour: 67,
      splinterType: 5,
      splinterScatter: 0,
      objTrailType: -1,
      objTrailDelay: 0,
      partTrailType: 0,
      partTrailObj: -1,
      partTrailDelay: 0,
      speed: 40,
    },
    {
      detectDistance: 1,
      blowAway: 0.15000000596046448,
      gravity: 0,
      exploSound: -1,
      addSpeed: 0,
      distribution: 0.3662109375,
      multSpeed: 1,
      createOnExp: -1,
      dirtEffect: -1,
      wormExplode: false,
      explGround: true,
      wormCollide: true,
      collideWithObjects: true,
      affectByExplosions: false,
      bounce: 0,
      bounceFriction: 0.800000011920929,
      timeToExplo: 45,
      timeToExploV: 10,
      hitDamage: 0,
      bloodOnHit: 0,
      startFrame: -1,
      numFrames: 0,
      loopAnim: false,
      shotType: 0,
      repeat: 1,
      colorBullets: 25,
      splinterAmount: 0,
      splinterColour: 0,
      splinterType: -1,
      splinterScatter: 0,
      objTrailType: -1,
      objTrailDelay: 0,
      partTrailType: 0,
      partTrailObj: -1,
      partTrailDelay: 0,
      speed: 180,
    },
    {
      detectDistance: 0,
      blowAway: 0.6000000238418579,
      gravity: 0.0091552734375,
      exploSound: -1,
      addSpeed: 0,
      distribution: 0.01220703125,
      multSpeed: 1,
      createOnExp: 0,
      dirtEffect: -1,
      wormExplode: true,
      explGround: false,
      wormCollide: false,
      collideWithObjects: false,
      affectByExplosions: false,
      bounce: 0.800000011920929,
      bounceFriction: 0.800000011920929,
      timeToExplo: 250,
      timeToExploV: 20,
      hitDamage: 5,
      bloodOnHit: 15,
      startFrame: 179,
      numFrames: 0,
      loopAnim: false,
      shotType: 0,
      repeat: 1,
      colorBullets: 0,
      splinterAmount: 10,
      splinterColour: 0,
      splinterType: 10,
      splinterScatter: 0,
      objTrailType: 11,
      objTrailDelay: 7,
      partTrailType: 0,
      partTrailObj: -1,
      partTrailDelay: 0,
      speed: 100,
    },
    {
      detectDistance: 1,
      blowAway: 0.20000000298023224,
      gravity: 0.01068115234375,
      exploSound: -1,
      addSpeed: 0,
      distribution: 0.00457763671875,
      multSpeed: 1,
      createOnExp: 10,
      dirtEffect: -1,
      wormExplode: true,
      explGround: true,
      wormCollide: true,
      collideWithObjects: false,
      affectByExplosions: true,
      bounce: 0,
      bounceFriction: 0.800000011920929,
      timeToExplo: 0,
      timeToExploV: 0,
      hitDamage: 4,
      bloodOnHit: 15,
      startFrame: 193,
      numFrames: 0,
      loopAnim: false,
      shotType: 0,
      repeat: 1,
      colorBullets: 0,
      splinterAmount: 5,
      splinterColour: 66,
      splinterType: 3,
      splinterScatter: 0,
      objTrailType: -1,
      objTrailDelay: 0,
      partTrailType: 0,
      partTrailObj: -1,
      partTrailDelay: 0,
      speed: 200,
    },
    {
      detectDistance: 3,
      blowAway: 0.1599999964237213,
      gravity: 0,
      exploSound: -1,
      addSpeed: 0,
      distribution: 0,
      multSpeed: 1,
      createOnExp: 1,
      dirtEffect: -1,
      wormExplode: false,
      explGround: true,
      wormCollide: false,
      collideWithObjects: false,
      affectByExplosions: false,
      bounce: 1,
      bounceFriction: 1,
      timeToExplo: 10,
      timeToExploV: 1,
      hitDamage: 1,
      bloodOnHit: 0,
      startFrame: 194,
      numFrames: 0,
      loopAnim: false,
      shotType: 0,
      repeat: 1,
      colorBullets: 0,
      splinterAmount: 12,
      splinterColour: 116,
      splinterType: 23,
      splinterScatter: 1,
      objTrailType: 2,
      objTrailDelay: 2,
      partTrailType: 0,
      partTrailObj: 12,
      partTrailDelay: 1,
      speed: 260,
    },
    {
      detectDistance: 0,
      blowAway: 0,
      gravity: 0,
      exploSound: -1,
      addSpeed: 0,
      distribution: 0.000152587890625,
      multSpeed: 1,
      createOnExp: 8,
      dirtEffect: -1,
      wormExplode: true,
      explGround: true,
      wormCollide: true,
      collideWithObjects: false,
      affectByExplosions: false,
      bounce: 0,
      bounceFriction: 0.800000011920929,
      timeToExplo: 0,
      timeToExploV: 0,
      hitDamage: 30,
      bloodOnHit: 50,
      startFrame: -1,
      numFrames: 0,
      loopAnim: false,
      shotType: 4,
      repeat: 1000,
      colorBullets: 104,
      splinterAmount: 50,
      splinterColour: 105,
      splinterType: 23,
      splinterScatter: 0,
      objTrailType: 9,
      objTrailDelay: 1,
      partTrailType: 0,
      partTrailObj: -1,
      partTrailDelay: 0,
      speed: 100,
    },
    {
      detectDistance: 2,
      blowAway: 0,
      gravity: 0.00762939453125,
      exploSound: -1,
      addSpeed: 0,
      distribution: 0.3662109375,
      multSpeed: 1,
      createOnExp: 2,
      dirtEffect: -1,
      wormExplode: true,
      explGround: false,
      wormCollide: true,
      collideWithObjects: false,
      affectByExplosions: true,
      bounce: 0.6000000238418579,
      bounceFriction: 0.800000011920929,
      timeToExplo: 200,
      timeToExploV: 50,
      hitDamage: 4,
      bloodOnHit: 10,
      startFrame: 194,
      numFrames: 0,
      loopAnim: false,
      shotType: 0,
      repeat: 1,
      colorBullets: 0,
      splinterAmount: 7,
      splinterColour: 69,
      splinterType: 3,
      splinterScatter: 1,
      objTrailType: -1,
      objTrailDelay: 0,
      partTrailType: 0,
      partTrailObj: -1,
      partTrailDelay: 0,
      speed: 90,
    },
    {
      detectDistance: 0,
      blowAway: 0,
      gravity: 0.00457763671875,
      exploSound: 4,
      addSpeed: 0,
      distribution: 0.06103515625,
      multSpeed: 1,
      createOnExp: -1,
      dirtEffect: -1,
      wormExplode: false,
      explGround: false,
      wormCollide: false,
      collideWithObjects: false,
      affectByExplosions: true,
      bounce: 0.10000000149011612,
      bounceFriction: 0.800000011920929,
      timeToExplo: 120,
      timeToExploV: 10,
      hitDamage: 0,
      bloodOnHit: 0,
      startFrame: 185,
      numFrames: 7,
      loopAnim: true,
      shotType: 0,
      repeat: 1,
      colorBullets: 0,
      splinterAmount: 50,
      splinterColour: 0,
      splinterType: 9,
      splinterScatter: 0,
      objTrailType: -1,
      objTrailDelay: 0,
      partTrailType: 0,
      partTrailObj: -1,
      partTrailDelay: 0,
      speed: 130,
    },
    {
      detectDistance: 0,
      blowAway: 0.029999999329447746,
      gravity: 0.00457763671875,
      exploSound: 8,
      addSpeed: 0,
      distribution: 0.48828125,
      multSpeed: 1,
      createOnExp: 9,
      dirtEffect: -1,
      wormExplode: false,
      explGround: true,
      wormCollide: true,
      collideWithObjects: false,
      affectByExplosions: false,
      bounce: 0,
      bounceFriction: 0.800000011920929,
      timeToExplo: 0,
      timeToExploV: 0,
      hitDamage: 4,
      bloodOnHit: 2,
      startFrame: -1,
      numFrames: 0,
      loopAnim: false,
      shotType: 0,
      repeat: 1,
      colorBullets: 75,
      splinterAmount: 1,
      splinterColour: 115,
      splinterType: 12,
      splinterScatter: 0,
      objTrailType: -1,
      objTrailDelay: 0,
      partTrailType: 0,
      partTrailObj: -1,
      partTrailDelay: 0,
      speed: 170,
    },
    {
      detectDistance: 1,
      blowAway: 0,
      gravity: 0,
      exploSound: -1,
      addSpeed: 150,
      distribution: 0,
      multSpeed: 1,
      createOnExp: 0,
      dirtEffect: -1,
      wormExplode: true,
      explGround: true,
      wormCollide: true,
      collideWithObjects: false,
      affectByExplosions: false,
      bounce: 0,
      bounceFriction: 0.800000011920929,
      timeToExplo: 0,
      timeToExploV: 0,
      hitDamage: 12,
      bloodOnHit: 30,
      startFrame: 110,
      numFrames: 0,
      loopAnim: false,
      shotType: 2,
      repeat: 1,
      colorBullets: 0,
      splinterAmount: 12,
      splinterColour: 66,
      splinterType: 3,
      splinterScatter: 0,
      objTrailType: 3,
      objTrailDelay: 4,
      partTrailType: 0,
      partTrailObj: -1,
      partTrailDelay: 0,
      speed: 230,
    },
    {
      detectDistance: 0,
      blowAway: 0,
      gravity: 0.01220703125,
      exploSound: -1,
      addSpeed: 0,
      distribution: 0.1068115234375,
      multSpeed: 1,
      createOnExp: 0,
      dirtEffect: -1,
      wormExplode: false,
      explGround: false,
      wormCollide: false,
      collideWithObjects: false,
      affectByExplosions: true,
      bounce: 0.4000000059604645,
      bounceFriction: 0.800000011920929,
      timeToExplo: 200,
      timeToExploV: 15,
      hitDamage: 0,
      bloodOnHit: 0,
      startFrame: 215,
      numFrames: 3,
      loopAnim: true,
      shotType: 0,
      repeat: 1,
      colorBullets: 0,
      splinterAmount: 22,
      splinterColour: 0,
      splinterType: 14,
      splinterScatter: 0,
      objTrailType: -1,
      objTrailDelay: 0,
      partTrailType: 0,
      partTrailObj: -1,
      partTrailDelay: 0,
      speed: 120,
    },
    {
      detectDistance: 3,
      blowAway: 0,
      gravity: 0.02288818359375,
      exploSound: -1,
      addSpeed: 0,
      distribution: 0.30517578125,
      multSpeed: 1,
      createOnExp: 0,
      dirtEffect: -1,
      wormExplode: true,
      explGround: false,
      wormCollide: true,
      collideWithObjects: false,
      affectByExplosions: true,
      bounce: 0.30000001192092896,
      bounceFriction: 0.800000011920929,
      timeToExplo: 4000,
      timeToExploV: 600,
      hitDamage: 5,
      bloodOnHit: 20,
      startFrame: 210,
      numFrames: 0,
      loopAnim: true,
      shotType: 0,
      repeat: 1,
      colorBullets: 0,
      splinterAmount: 0,
      splinterColour: 0,
      splinterType: -1,
      splinterScatter: 0,
      objTrailType: -1,
      objTrailDelay: 0,
      partTrailType: 0,
      partTrailObj: -1,
      partTrailDelay: 0,
      speed: 100,
    },
    {
      detectDistance: 1,
      blowAway: 0,
      gravity: 0.01678466796875,
      exploSound: -1,
      addSpeed: 0,
      distribution: 0.1068115234375,
      multSpeed: 1,
      createOnExp: 0,
      dirtEffect: -1,
      wormExplode: true,
      explGround: true,
      wormCollide: true,
      collideWithObjects: false,
      affectByExplosions: true,
      bounce: 0,
      bounceFriction: 0.800000011920929,
      timeToExplo: 130,
      timeToExploV: 50,
      hitDamage: 0,
      bloodOnHit: 0,
      startFrame: 239,
      numFrames: 0,
      loopAnim: false,
      shotType: 0,
      repeat: 1,
      colorBullets: 0,
      splinterAmount: 2,
      splinterColour: 0,
      splinterType: 15,
      splinterScatter: 0,
      objTrailType: -1,
      objTrailDelay: 0,
      partTrailType: 0,
      partTrailObj: -1,
      partTrailDelay: 0,
      speed: 190,
    },
    {
      detectDistance: 1,
      blowAway: 0.10000000149011612,
      gravity: 0,
      exploSound: -1,
      addSpeed: 3,
      distribution: 0.0091552734375,
      multSpeed: 1,
      createOnExp: 10,
      dirtEffect: -1,
      wormExplode: true,
      explGround: true,
      wormCollide: true,
      collideWithObjects: false,
      affectByExplosions: false,
      bounce: 0,
      bounceFriction: 0.800000011920929,
      timeToExplo: 0,
      timeToExploV: 0,
      hitDamage: 0,
      bloodOnHit: 8,
      startFrame: 223,
      numFrames: 0,
      loopAnim: false,
      shotType: 3,
      repeat: 1,
      colorBullets: 0,
      splinterAmount: 2,
      splinterColour: 115,
      splinterType: 12,
      splinterScatter: 0,
      objTrailType: 6,
      objTrailDelay: 2,
      partTrailType: 0,
      partTrailObj: -1,
      partTrailDelay: 0,
      speed: 170,
    },
    {
      detectDistance: 0,
      blowAway: 0.2800000011920929,
      gravity: 0,
      exploSound: -1,
      addSpeed: 0,
      distribution: 0,
      multSpeed: 1,
      createOnExp: 2,
      dirtEffect: -1,
      wormExplode: true,
      explGround: true,
      wormCollide: true,
      collideWithObjects: false,
      affectByExplosions: true,
      bounce: 0,
      bounceFriction: 0.800000011920929,
      timeToExplo: 0,
      timeToExploV: 0,
      hitDamage: 15,
      bloodOnHit: 10,
      startFrame: 223,
      numFrames: 0,
      loopAnim: false,
      shotType: 1,
      repeat: 1,
      colorBullets: 0,
      splinterAmount: 0,
      splinterColour: 0,
      splinterType: -1,
      splinterScatter: 0,
      objTrailType: -1,
      objTrailDelay: 0,
      partTrailType: 0,
      partTrailObj: -1,
      partTrailDelay: 0,
      speed: 290,
    },
    {
      detectDistance: 0,
      blowAway: 0.03999999910593033,
      gravity: 0.01068115234375,
      exploSound: -1,
      addSpeed: 0,
      distribution: 0.0152587890625,
      multSpeed: 1,
      createOnExp: 2,
      dirtEffect: -1,
      wormExplode: true,
      explGround: false,
      wormCollide: true,
      collideWithObjects: false,
      affectByExplosions: false,
      bounce: 0.9900000095367432,
      bounceFriction: 0.800000011920929,
      timeToExplo: 580,
      timeToExploV: 70,
      hitDamage: 0,
      bloodOnHit: 4,
      startFrame: -1,
      numFrames: 0,
      loopAnim: false,
      shotType: 0,
      repeat: 1,
      colorBullets: 101,
      splinterAmount: 3,
      splinterColour: 115,
      splinterType: 23,
      splinterScatter: 0,
      objTrailType: -1,
      objTrailDelay: 0,
      partTrailType: 0,
      partTrailObj: -1,
      partTrailDelay: 0,
      speed: 190,
    },
    {
      detectDistance: 1,
      blowAway: 0.20000000298023224,
      gravity: 0.000762939453125,
      exploSound: -1,
      addSpeed: 0,
      distribution: 0,
      multSpeed: 1,
      createOnExp: 1,
      dirtEffect: -1,
      wormExplode: true,
      explGround: true,
      wormCollide: true,
      collideWithObjects: false,
      affectByExplosions: false,
      bounce: 0,
      bounceFriction: 0.800000011920929,
      timeToExplo: 0,
      timeToExploV: 0,
      hitDamage: 0,
      bloodOnHit: 7,
      startFrame: 196,
      numFrames: 0,
      loopAnim: false,
      shotType: 4,
      repeat: 8,
      colorBullets: 0,
      splinterAmount: 12,
      splinterColour: 115,
      splinterType: 23,
      splinterScatter: 0,
      objTrailType: -1,
      objTrailDelay: 0,
      partTrailType: 0,
      partTrailObj: -1,
      partTrailDelay: 0,
      speed: 120,
    },
  ],
  nObjects: [
    {
      detectDistance: 0,
      gravity: 0.0152587890625,
      speed: 1.2000000476837158,
      speedV: 0.4000000059604645,
      distribution: 0.1220703125,
      blowAway: 0,
      bounce: 0.10000000149011612,
      hitDamage: 0,
      wormExplode: false,
      explGround: true,
      wormDestroy: false,
      bloodOnHit: 0,
      startFrame: 165,
      numFrames: 3,
      drawOnMap: true,
      colorBullets: 0,
      createOnExp: -1,
      affectByExplosions: false,
      dirtEffect: -1,
      splinterAmount: 5,
      splinterColour: 82,
      splinterType: 6,
      bloodTrail: true,
      bloodTrailDelay: 10,
      leaveObj: -1,
      leaveObjDelay: 0,
      timeToExplo: 0,
      timeToExploV: 0,
    },
    {
      detectDistance: 0,
      gravity: 0.0152587890625,
      speed: 1.2000000476837158,
      speedV: 0.4000000059604645,
      distribution: 0.1220703125,
      blowAway: 0,
      bounce: 0.10000000149011612,
      hitDamage: 0,
      wormExplode: false,
      explGround: true,
      wormDestroy: false,
      bloodOnHit: 0,
      startFrame: 169,
      numFrames: 3,
      drawOnMap: true,
      colorBullets: 0,
      createOnExp: -1,
      affectByExplosions: false,
      dirtEffect: -1,
      splinterAmount: 5,
      splinterColour: 82,
      splinterType: 6,
      bloodTrail: true,
      bloodTrailDelay: 10,
      leaveObj: -1,
      leaveObjDelay: 0,
      timeToExplo: 0,
      timeToExploV: 0,
    },
    {
      detectDistance: 0,
      gravity: 0.01068115234375,
      speed: 0.800000011920929,
      speedV: 0.4000000059604645,
      distribution: 0.274658203125,
      blowAway: 0,
      bounce: 0,
      hitDamage: 0,
      wormExplode: false,
      explGround: true,
      wormDestroy: false,
      bloodOnHit: 0,
      startFrame: 0,
      numFrames: 0,
      drawOnMap: false,
      colorBullets: 49,
      createOnExp: -1,
      affectByExplosions: false,
      dirtEffect: -1,
      splinterAmount: 0,
      splinterColour: 0,
      splinterType: -1,
      bloodTrail: false,
      bloodTrailDelay: 0,
      leaveObj: -1,
      leaveObjDelay: 0,
      timeToExplo: 0,
      timeToExploV: 0,
    },
    {
      detectDistance: 0,
      gravity: 0.01068115234375,
      speed: 1.600000023841858,
      speedV: 1.399999976158142,
      distribution: 0.030517578125,
      blowAway: 0.10000000149011612,
      bounce: 0,
      hitDamage: 2,
      wormExplode: false,
      explGround: true,
      wormDestroy: true,
      bloodOnHit: 1,
      startFrame: 0,
      numFrames: 0,
      drawOnMap: false,
      colorBullets: 67,
      createOnExp: 2,
      affectByExplosions: false,
      dirtEffect: -1,
      splinterAmount: 4,
      splinterColour: 115,
      splinterType: 12,
      bloodTrail: false,
      bloodTrailDelay: 0,
      leaveObj: -1,
      leaveObjDelay: 0,
      timeToExplo: 0,
      timeToExploV: 0,
    },
    {
      detectDistance: 0,
      gravity: 0.01068115234375,
      speed: 1.899999976158142,
      speedV: 1.600000023841858,
      distribution: 0.030517578125,
      blowAway: 0.10000000149011612,
      bounce: 0,
      hitDamage: 3,
      wormExplode: false,
      explGround: true,
      wormDestroy: true,
      bloodOnHit: 1,
      startFrame: 0,
      numFrames: 0,
      drawOnMap: false,
      colorBullets: 67,
      createOnExp: 2,
      affectByExplosions: false,
      dirtEffect: -1,
      splinterAmount: 4,
      splinterColour: 115,
      splinterType: 23,
      bloodTrail: false,
      bloodTrailDelay: 0,
      leaveObj: -1,
      leaveObjDelay: 0,
      timeToExplo: 0,
      timeToExploV: 0,
    },
    {
      detectDistance: 0,
      gravity: 0.01068115234375,
      speed: 2.200000047683716,
      speedV: 1.7999999523162842,
      distribution: 0.030517578125,
      blowAway: 0.15000000596046448,
      bounce: 0,
      hitDamage: 4,
      wormExplode: true,
      explGround: true,
      wormDestroy: true,
      bloodOnHit: 1,
      startFrame: 0,
      numFrames: 0,
      drawOnMap: false,
      colorBullets: 67,
      createOnExp: 2,
      affectByExplosions: false,
      dirtEffect: -1,
      splinterAmount: 6,
      splinterColour: 115,
      splinterType: 23,
      bloodTrail: false,
      bloodTrailDelay: 0,
      leaveObj: -1,
      leaveObjDelay: 0,
      timeToExplo: 0,
      timeToExploV: 0,
    },
    {
      detectDistance: 0,
      gravity: 0.01068115234375,
      speed: 0.5,
      speedV: 0.25,
      distribution: 0.30517578125,
      blowAway: 0,
      bounce: 0,
      hitDamage: 0,
      wormExplode: false,
      explGround: true,
      wormDestroy: false,
      bloodOnHit: 0,
      startFrame: 0,
      numFrames: 0,
      drawOnMap: false,
      colorBullets: 82,
      createOnExp: -1,
      affectByExplosions: false,
      dirtEffect: -1,
      splinterAmount: 1,
      splinterColour: 82,
      splinterType: 17,
      bloodTrail: true,
      bloodTrailDelay: 32,
      leaveObj: -1,
      leaveObjDelay: 0,
      timeToExplo: 0,
      timeToExploV: 0,
    },
    {
      detectDistance: 0,
      gravity: 0.0152587890625,
      speed: 0,
      speedV: 0,
      distribution: 0.1220703125,
      blowAway: 0,
      bounce: 0.4000000059604645,
      hitDamage: 0,
      wormExplode: false,
      explGround: true,
      wormDestroy: false,
      bloodOnHit: 0,
      startFrame: 155,
      numFrames: 3,
      drawOnMap: true,
      colorBullets: 0,
      createOnExp: -1,
      affectByExplosions: false,
      dirtEffect: -1,
      splinterAmount: 0,
      splinterColour: 0,
      splinterType: -1,
      bloodTrail: false,
      bloodTrailDelay: 0,
      leaveObj: -1,
      leaveObjDelay: 0,
      timeToExplo: 0,
      timeToExploV: 0,
    },
    {
      detectDistance: 1,
      gravity: 0.0152587890625,
      speed: 2.200000047683716,
      speedV: 1.399999976158142,
      distribution: 0.152587890625,
      blowAway: 0,
      bounce: 0,
      hitDamage: 1,
      wormExplode: true,
      explGround: true,
      wormDestroy: true,
      bloodOnHit: 5,
      startFrame: 202,
      numFrames: 3,
      drawOnMap: false,
      colorBullets: 0,
      createOnExp: 11,
      affectByExplosions: false,
      dirtEffect: -1,
      splinterAmount: 10,
      splinterColour: 115,
      splinterType: 23,
      bloodTrail: false,
      bloodTrailDelay: 0,
      leaveObj: -1,
      leaveObjDelay: 0,
      timeToExplo: 0,
      timeToExploV: 0,
    },
    {
      detectDistance: 1,
      gravity: 0.00762939453125,
      speed: 1.2000000476837158,
      speedV: 0.10000000149011612,
      distribution: 0.48828125,
      blowAway: 0,
      bounce: 0.15000000596046448,
      hitDamage: 4,
      wormExplode: true,
      explGround: false,
      wormDestroy: true,
      bloodOnHit: 1,
      startFrame: 202,
      numFrames: 3,
      drawOnMap: false,
      colorBullets: 0,
      createOnExp: 5,
      affectByExplosions: true,
      dirtEffect: -1,
      splinterAmount: 10,
      splinterColour: 53,
      splinterType: 2,
      bloodTrail: false,
      bloodTrailDelay: 0,
      leaveObj: -1,
      leaveObjDelay: 0,
      timeToExplo: 6000,
      timeToExploV: 1500,
    },
    {
      detectDistance: 1,
      gravity: 0.0152587890625,
      speed: 1.399999976158142,
      speedV: 0.20000000298023224,
      distribution: 0.30517578125,
      blowAway: 0.15000000596046448,
      bounce: 0,
      hitDamage: 3,
      wormExplode: true,
      explGround: true,
      wormDestroy: true,
      bloodOnHit: 10,
      startFrame: 193,
      numFrames: 0,
      drawOnMap: false,
      colorBullets: 0,
      createOnExp: 11,
      affectByExplosions: false,
      dirtEffect: -1,
      splinterAmount: 5,
      splinterColour: 66,
      splinterType: 3,
      bloodTrail: false,
      bloodTrailDelay: 0,
      leaveObj: 3,
      leaveObjDelay: 8,
      timeToExplo: 0,
      timeToExploV: 0,
    },
    {
      detectDistance: 1,
      gravity: 0.0152587890625,
      speed: 2,
      speedV: 1.2000000476837158,
      distribution: 0.30517578125,
      blowAway: 0,
      bounce: 0.6000000238418579,
      hitDamage: 1,
      wormExplode: true,
      explGround: false,
      wormDestroy: true,
      bloodOnHit: 9,
      startFrame: 177,
      numFrames: 0,
      drawOnMap: false,
      colorBullets: 0,
      createOnExp: 1,
      affectByExplosions: true,
      dirtEffect: -1,
      splinterAmount: 6,
      splinterColour: 75,
      splinterType: 5,
      bloodTrail: false,
      bloodTrailDelay: 0,
      leaveObj: 5,
      leaveObjDelay: 5,
      timeToExplo: 100,
      timeToExploV: 40,
    },
    {
      detectDistance: 0,
      gravity: 0,
      speed: 1.100000023841858,
      speedV: 1,
      distribution: 0.152587890625,
      blowAway: 0,
      bounce: 0,
      hitDamage: 0,
      wormExplode: false,
      explGround: true,
      wormDestroy: false,
      bloodOnHit: 0,
      startFrame: 0,
      numFrames: 0,
      drawOnMap: false,
      colorBullets: 115,
      createOnExp: 6,
      affectByExplosions: false,
      dirtEffect: 1,
      splinterAmount: 0,
      splinterColour: 0,
      splinterType: -1,
      bloodTrail: false,
      bloodTrailDelay: 0,
      leaveObj: 6,
      leaveObjDelay: 2,
      timeToExplo: 20,
      timeToExploV: 10,
    },
    {
      detectDistance: 0,
      gravity: 0,
      speed: 12,
      speedV: 12,
      distribution: 0.152587890625,
      blowAway: 0,
      bounce: 1,
      hitDamage: 0,
      wormExplode: false,
      explGround: false,
      wormDestroy: false,
      bloodOnHit: 0,
      startFrame: 0,
      numFrames: 0,
      drawOnMap: false,
      colorBullets: 0,
      createOnExp: -1,
      affectByExplosions: false,
      dirtEffect: 4,
      splinterAmount: 0,
      splinterColour: 0,
      splinterType: -1,
      bloodTrail: false,
      bloodTrailDelay: 0,
      leaveObj: -1,
      leaveObjDelay: 0,
      timeToExplo: 1,
      timeToExploV: 0,
    },
    {
      detectDistance: 1,
      gravity: 0.0152587890625,
      speed: 2.200000047683716,
      speedV: 1.5,
      distribution: 0.152587890625,
      blowAway: 0,
      bounce: 0,
      hitDamage: 4,
      wormExplode: true,
      explGround: true,
      wormDestroy: true,
      bloodOnHit: 10,
      startFrame: 219,
      numFrames: 3,
      drawOnMap: false,
      colorBullets: 0,
      createOnExp: 1,
      affectByExplosions: false,
      dirtEffect: -1,
      splinterAmount: 10,
      splinterColour: 115,
      splinterType: 22,
      bloodTrail: false,
      bloodTrailDelay: 0,
      leaveObj: -1,
      leaveObjDelay: 0,
      timeToExplo: 0,
      timeToExploV: 0,
    },
    {
      detectDistance: 1,
      gravity: 0.0152587890625,
      speed: 1.2000000476837158,
      speedV: 0.4000000059604645,
      distribution: 0.152587890625,
      blowAway: 0,
      bounce: 0.6000000238418579,
      hitDamage: 1,
      wormExplode: true,
      explGround: false,
      wormDestroy: true,
      bloodOnHit: 0,
      startFrame: 239,
      numFrames: 0,
      drawOnMap: false,
      colorBullets: 0,
      createOnExp: 0,
      affectByExplosions: true,
      dirtEffect: -1,
      splinterAmount: 2,
      splinterColour: 0,
      splinterType: 16,
      bloodTrail: false,
      bloodTrailDelay: 0,
      leaveObj: -1,
      leaveObjDelay: 0,
      timeToExplo: 70,
      timeToExploV: 60,
    },
    {
      detectDistance: 1,
      gravity: 0.0152587890625,
      speed: 1.2000000476837158,
      speedV: 0.4000000059604645,
      distribution: 0.152587890625,
      blowAway: 0,
      bounce: 0.8999999761581421,
      hitDamage: 1,
      wormExplode: true,
      explGround: false,
      wormDestroy: true,
      bloodOnHit: 0,
      startFrame: 239,
      numFrames: 0,
      drawOnMap: false,
      colorBullets: 0,
      createOnExp: 0,
      affectByExplosions: true,
      dirtEffect: -1,
      splinterAmount: 3,
      splinterColour: 115,
      splinterType: 22,
      bloodTrail: false,
      bloodTrailDelay: 0,
      leaveObj: -1,
      leaveObjDelay: 0,
      timeToExplo: 300,
      timeToExploV: 60,
    },
    {
      detectDistance: 0,
      gravity: 0.00762939453125,
      speed: 0.25,
      speedV: 0.10000000149011612,
      distribution: 0.152587890625,
      blowAway: 0,
      bounce: 0,
      hitDamage: 0,
      wormExplode: false,
      explGround: false,
      wormDestroy: false,
      bloodOnHit: 0,
      startFrame: 0,
      numFrames: 0,
      drawOnMap: false,
      colorBullets: 82,
      createOnExp: -1,
      affectByExplosions: true,
      dirtEffect: -1,
      splinterAmount: 0,
      splinterColour: 0,
      splinterType: -1,
      bloodTrail: true,
      bloodTrailDelay: 1,
      leaveObj: -1,
      leaveObjDelay: 0,
      timeToExplo: 1,
      timeToExploV: 0,
    },
    {
      detectDistance: 0,
      gravity: 0,
      speed: 1.5,
      speedV: 0.800000011920929,
      distribution: 0,
      blowAway: 0,
      bounce: 0,
      hitDamage: 0,
      wormExplode: false,
      explGround: false,
      wormDestroy: false,
      bloodOnHit: 0,
      startFrame: 0,
      numFrames: 0,
      drawOnMap: false,
      colorBullets: 53,
      createOnExp: 5,
      affectByExplosions: true,
      dirtEffect: 1,
      splinterAmount: 0,
      splinterColour: 53,
      splinterType: 2,
      bloodTrail: false,
      bloodTrailDelay: 0,
      leaveObj: -1,
      leaveObjDelay: 0,
      timeToExplo: 150,
      timeToExploV: 50,
    },
    {
      detectDistance: 1,
      gravity: 0,
      speed: 8,
      speedV: 6,
      distribution: 0.152587890625,
      blowAway: 0,
      bounce: 0,
      hitDamage: 2,
      wormExplode: false,
      explGround: false,
      wormDestroy: false,
      bloodOnHit: 0,
      startFrame: 0,
      numFrames: 0,
      drawOnMap: false,
      colorBullets: 53,
      createOnExp: -1,
      affectByExplosions: true,
      dirtEffect: 6,
      splinterAmount: 2,
      splinterColour: 53,
      splinterType: 18,
      bloodTrail: true,
      bloodTrailDelay: 1,
      leaveObj: -1,
      leaveObjDelay: 0,
      timeToExplo: 2,
      timeToExploV: 0,
    },
    {
      detectDistance: 3,
      gravity: 0.0152587890625,
      speed: 0,
      speedV: 0,
      distribution: 0,
      blowAway: 0,
      bounce: 0.4000000059604645,
      hitDamage: 0,
      wormExplode: false,
      explGround: false,
      wormDestroy: false,
      bloodOnHit: 0,
      startFrame: 213,
      numFrames: 0,
      drawOnMap: false,
      colorBullets: 0,
      createOnExp: -1,
      affectByExplosions: true,
      dirtEffect: -1,
      splinterAmount: 0,
      splinterColour: 0,
      splinterType: -1,
      bloodTrail: false,
      bloodTrailDelay: 0,
      leaveObj: -1,
      leaveObjDelay: 0,
      timeToExplo: 0,
      timeToExploV: 0,
    },
    {
      detectDistance: 3,
      gravity: 0.0152587890625,
      speed: 0,
      speedV: 0,
      distribution: 0,
      blowAway: 0,
      bounce: 0.4000000059604645,
      hitDamage: 0,
      wormExplode: false,
      explGround: false,
      wormDestroy: false,
      bloodOnHit: 0,
      startFrame: 214,
      numFrames: 0,
      drawOnMap: false,
      colorBullets: 0,
      createOnExp: -1,
      affectByExplosions: true,
      dirtEffect: -1,
      splinterAmount: 0,
      splinterColour: 0,
      splinterType: -1,
      bloodTrail: false,
      bloodTrailDelay: 0,
      leaveObj: -1,
      leaveObjDelay: 0,
      timeToExplo: 0,
      timeToExploV: 0,
    },
    {
      detectDistance: 0,
      gravity: 0,
      speed: 2.299999952316284,
      speedV: 1.3300000429153442,
      distribution: 0.152587890625,
      blowAway: 0,
      bounce: 0,
      hitDamage: 0,
      wormExplode: false,
      explGround: true,
      wormDestroy: false,
      bloodOnHit: 0,
      startFrame: 0,
      numFrames: 0,
      drawOnMap: false,
      colorBullets: 115,
      createOnExp: 6,
      affectByExplosions: true,
      dirtEffect: 1,
      splinterAmount: 3,
      splinterColour: 115,
      splinterType: 12,
      bloodTrail: false,
      bloodTrailDelay: 0,
      leaveObj: 9,
      leaveObjDelay: 1,
      timeToExplo: 30,
      timeToExploV: 15,
    },
    {
      detectDistance: 0,
      gravity: 0,
      speed: 1.100000023841858,
      speedV: 1,
      distribution: 0.152587890625,
      blowAway: 0,
      bounce: 0,
      hitDamage: 0,
      wormExplode: false,
      explGround: true,
      wormDestroy: false,
      bloodOnHit: 0,
      startFrame: 0,
      numFrames: 0,
      drawOnMap: false,
      colorBullets: 115,
      createOnExp: -1,
      affectByExplosions: true,
      dirtEffect: 1,
      splinterAmount: 0,
      splinterColour: 0,
      splinterType: -1,
      bloodTrail: false,
      bloodTrailDelay: 0,
      leaveObj: 6,
      leaveObjDelay: 2,
      timeToExplo: 28,
      timeToExploV: 14,
    },
  ],
  sObjects: [
    {
      startSound: 9,
      numSounds: 4,
      animDelay: 4,
      startFrame: 40,
      numFrames: 15,
      detectRange: 43,
      damage: 18,
      blowAway: 0.00762939453125,
      shadow: true,
      shake: 4,
      flash: 8,
      dirtEffect: 0,
    },
    {
      startSound: 9,
      numSounds: 4,
      animDelay: 3,
      startFrame: 45,
      numFrames: 10,
      detectRange: 25,
      damage: 15,
      blowAway: 0.00762939453125,
      shadow: true,
      shake: 2,
      flash: 4,
      dirtEffect: 1,
    },
    {
      startSound: 7,
      numSounds: 2,
      animDelay: 2,
      startFrame: 50,
      numFrames: 5,
      detectRange: 6,
      damage: 5,
      blowAway: 0.00762939453125,
      shadow: true,
      shake: 1,
      flash: 0,
      dirtEffect: 2,
    },
    {
      startSound: -1,
      numSounds: 0,
      animDelay: 4,
      startFrame: 64,
      numFrames: 4,
      detectRange: 0,
      damage: 0,
      blowAway: 0,
      shadow: false,
      shake: 0,
      flash: 0,
      dirtEffect: -1,
    },
    {
      startSound: -1,
      numSounds: 0,
      animDelay: 6,
      startFrame: 100,
      numFrames: 3,
      detectRange: 0,
      damage: 0,
      blowAway: 0,
      shadow: true,
      shake: 0,
      flash: 0,
      dirtEffect: 5,
    },
    {
      startSound: -1,
      numSounds: 0,
      animDelay: 3,
      startFrame: 104,
      numFrames: 3,
      detectRange: 0,
      damage: 0,
      blowAway: 0,
      shadow: false,
      shake: 0,
      flash: 0,
      dirtEffect: -1,
    },
    {
      startSound: -1,
      numSounds: 0,
      animDelay: 2,
      startFrame: 76,
      numFrames: 2,
      detectRange: 0,
      damage: 0,
      blowAway: 0,
      shadow: true,
      shake: 0,
      flash: 0,
      dirtEffect: -1,
    },
    {
      startSound: -1,
      numSounds: 0,
      animDelay: 3,
      startFrame: 91,
      numFrames: 4,
      detectRange: 0,
      damage: 0,
      blowAway: 0,
      shadow: true,
      shake: 0,
      flash: 0,
      dirtEffect: -1,
    },
    {
      startSound: -1,
      numSounds: 0,
      animDelay: 2,
      startFrame: 49,
      numFrames: 6,
      detectRange: 8,
      damage: 7,
      blowAway: 0,
      shadow: true,
      shake: 0,
      flash: 0,
      dirtEffect: 2,
    },
    {
      startSound: -1,
      numSounds: 0,
      animDelay: 2,
      startFrame: 53,
      numFrames: 2,
      detectRange: 0,
      damage: 0,
      blowAway: 0,
      shadow: true,
      shake: 0,
      flash: 0,
      dirtEffect: 5,
    },
    {
      startSound: 9,
      numSounds: 4,
      animDelay: 3,
      startFrame: 47,
      numFrames: 8,
      detectRange: 10,
      damage: 8,
      blowAway: 0.0457763671875,
      shadow: true,
      shake: 2,
      flash: 3,
      dirtEffect: 8,
    },
    {
      startSound: 9,
      numSounds: 4,
      animDelay: 3,
      startFrame: 42,
      numFrames: 13,
      detectRange: 17,
      damage: 13,
      blowAway: 0.00762939453125,
      shadow: true,
      shake: 3,
      flash: 6,
      dirtEffect: 1,
    },
    {
      startSound: 9,
      numSounds: 4,
      animDelay: 3,
      startFrame: 44,
      numFrames: 11,
      detectRange: 14,
      damage: 28,
      blowAway: 0.01220703125,
      shadow: true,
      shake: 3,
      flash: 5,
      dirtEffect: 1,
    },
    {
      startSound: -1,
      numSounds: 0,
      animDelay: 0,
      startFrame: 0,
      numFrames: 0,
      detectRange: 0,
      damage: 0,
      blowAway: 1.0039215087890625,
      shadow: false,
      shake: 0,
      flash: 0,
      dirtEffect: -1,
    },
  ],
  textures: [
    {
      nDrawBack: true,
      mFrame: 0,
      sFrame: 73,
      rFrame: 2,
    },
    {
      nDrawBack: true,
      mFrame: 1,
      sFrame: 73,
      rFrame: 2,
    },
    {
      nDrawBack: true,
      mFrame: 2,
      sFrame: 73,
      rFrame: 2,
    },
    {
      nDrawBack: true,
      mFrame: 37,
      sFrame: 73,
      rFrame: 2,
    },
    {
      nDrawBack: false,
      mFrame: 0,
      sFrame: 87,
      rFrame: 2,
    },
    {
      nDrawBack: true,
      mFrame: 39,
      sFrame: 73,
      rFrame: 2,
    },
    {
      nDrawBack: false,
      mFrame: 38,
      sFrame: 82,
      rFrame: 2,
    },
    {
      nDrawBack: true,
      mFrame: 99,
      sFrame: 73,
      rFrame: 2,
    },
    {
      nDrawBack: true,
      mFrame: 37,
      sFrame: 73,
      rFrame: 2,
    },
  ],
  colorAnim: [
    129,
    131,
    133,
    136,
    152,
    159,
    168,
    171,
  ],
  textSpritesStartIdx: 240,
  crossHairSprite: 153,
}
