{
  soundpack: "promode.zip",
  constants: {
    nrInitialLength: 250,
    nrAttachLength: 28.125,
    minBounceUp: -0.8125,
    minBounceDown: 0.8125,
    minBounceHoriz: 0.8125,
    wormGravity: 0.02288818359375,
    wormAcc: 0.0762939453125,
    wormMaxVel: 0.969482421875,
    jumpForce: 0.85546875,
    maxAimVel: 0.052430983960935,
    aimAcc: 0.0029960562263391427,
    ninjaropeGravity: 0.0152587890625,
    nrMinLength: 10.625,
    nrMaxLength: 250,
    bonusGravity: 0.02288818359375,
    wormFricMult: 0.89,
    aimFric: 0.83,
    nrThrowVel: 8,
    nrForce: 0.08333333333333333,
    bonusBounce: 0.4,
    bonusFlickerTime: 220,
    aimMaxAngle: 1.5707963267948966,
    aimMinAngle: -1.521708941582556,
    nrAdjustVel: 1.5,
    nrColourBegin: 24,
    nrColourEnd: 27,
    bonusExplodeRisk: 100,
    bonusHealthVar: 20,
    bonusMinHealth: 10,
    firstBloodColour: 69,
    numBloodColours: 1,
    bObjGravity: 0.0004587890625,
    splinterLarpaVelDiv: 3,
    splinterCracklerVelDiv: 3,
    fallDamageHoriz: 0,
    fallDamageDown: 0,
    fallDamageUp: 0,
    hFallDamage: false,
    hBonusReloadOnly: true
  },
  weapons: [
    {
      parts: 25,
      bulletType: 0,
      bulletSpeed: 4,
      bulletSpeedInherit: 0.2298850574712644,
      distribution: 0.25,
      recoil: 0.55,
      ammo: 8,
      delay: 28,
      loadingTime: 400,
      leaveShells: 1,
      leaveShellDelay: 28,
      fireCone: 9,
      laserSight: false,
      laserBeam: false,
      launchSound: 0,
      playReloadSound: true,
      name: "AUTO SHOTGUN"
    },
    {
      parts: 1,
      bulletType: 1,
      bulletSpeed: 4,
      bulletSpeedInherit: 0.2040816326530612,
      distribution: 0.0457763671875,
      recoil: 0.06,
      ammo: 50,
      delay: 3,
      loadingTime: 299,
      leaveShells: 2,
      leaveShellDelay: 1,
      fireCone: 6,
      laserSight: false,
      laserBeam: false,
      launchSound: 1,
      playReloadSound: true,
      name: "CHAINGUN"
    },
    {
      parts: 1,
      bulletType: 2,
      bulletSpeed: 4,
      bulletSpeedInherit: 0,
      distribution: 0,
      recoil: 0.8,
      ammo: 1,
      delay: 5,
      loadingTime: 250,
      leaveShells: 1,
      leaveShellDelay: 1,
      fireCone: 8,
      laserSight: true,
      laserBeam: false,
      launchSound: 13,
      playReloadSound: true,
      name: "RIFLE"
    },
    {
      parts: 1,
      bulletType: 3,
      bulletSpeed: 2.6,
      bulletSpeedInherit: 0.3846153846153846,
      distribution: 0,
      recoil: 0.6,
      ammo: 3,
      delay: 60,
      loadingTime: 400,
      leaveShells: 0,
      leaveShellDelay: 1,
      fireCone: 9,
      laserSight: false,
      laserBeam: false,
      launchSound: 3,
      playReloadSound: true,
      name: "BAZOOKA"
    },
    {
      parts: 1,
      bulletType: 4,
      bulletSpeed: 1.4,
      bulletSpeedInherit: 0,
      distribution: 0,
      recoil: 0,
      ammo: 60,
      delay: 0,
      loadingTime: 400,
      leaveShells: 0,
      leaveShellDelay: 1,
      fireCone: 5,
      laserSight: false,
      laserBeam: false,
      launchSound: 29,
      playReloadSound: true,
      name: "LIGHTNING GUN"
    },
    {
      parts: 2,
      bulletType: 5,
      bulletSpeed: 4,
      bulletSpeedInherit: 0,
      distribution: 0.2288818359375,
      recoil: 0,
      ammo: 17,
      delay: 0,
      loadingTime: 400,
      leaveShells: 0,
      leaveShellDelay: 1,
      fireCone: 0,
      laserSight: false,
      laserBeam: false,
      launchSound: 23,
      playReloadSound: true,
      name: "SOLAR SCORCH"
    },
    {
      parts: 1,
      bulletType: 41,
      bulletSpeed: 1.5,
      bulletSpeedInherit: 1,
      distribution: 0.30517578125,
      recoil: 0,
      ammo: 1,
      delay: 0,
      loadingTime: 420,
      leaveShells: 0,
      leaveShellDelay: 1,
      fireCone: 0,
      laserSight: false,
      laserBeam: false,
      launchSound: 5,
      playReloadSound: false,
      name: "DEADLY GIFT"
    },
    {
      parts: 1,
      bulletType: 7,
      bulletSpeed: 2.5,
      bulletSpeedInherit: 0,
      distribution: 0.00152587890625,
      recoil: 0.5,
      ammo: 5,
      delay: 22,
      loadingTime: 400,
      leaveShells: 1,
      leaveShellDelay: 1,
      fireCone: 8,
      laserSight: true,
      laserBeam: false,
      launchSound: 2,
      playReloadSound: true,
      name: "WINCHESTER"
    },
    {
      parts: 2,
      bulletType: 8,
      bulletSpeed: 2.1,
      bulletSpeedInherit: 0.47619047619047616,
      distribution: 0.030517578125,
      recoil: 0.15,
      ammo: 8,
      delay: 11,
      loadingTime: 400,
      leaveShells: 0,
      leaveShellDelay: 1,
      fireCone: 8,
      laserSight: false,
      laserBeam: false,
      launchSound: 6,
      playReloadSound: true,
      name: "DOOMSDAY"
    },
    {
      parts: 3,
      bulletType: 9,
      bulletSpeed: 1.65,
      bulletSpeedInherit: 0.3,
      distribution: 0.152587890625,
      recoil: 0,
      ammo: 50,
      delay: 1,
      loadingTime: 300,
      leaveShells: 0,
      leaveShellDelay: 1,
      fireCone: 20,
      laserSight: false,
      laserBeam: false,
      launchSound: -1,
      playReloadSound: true,
      name: "FLAMER"
    },
    {
      parts: 1,
      bulletType: 42,
      bulletSpeed: 2,
      bulletSpeedInherit: 1,
      distribution: 0.1220703125,
      recoil: 0,
      ammo: 1,
      delay: 0,
      loadingTime: 370,
      leaveShells: 0,
      leaveShellDelay: 1,
      fireCone: 0,
      laserSight: false,
      laserBeam: false,
      launchSound: 5,
      playReloadSound: false,
      name: "CHRISTMAS TREE"
    },
    {
      parts: 1,
      bulletType: 10,
      bulletSpeed: 3,
      bulletSpeedInherit: 0.3333333333333333,
      distribution: 0.000152587890625,
      recoil: 0,
      ammo: 5,
      delay: 10,
      loadingTime: 400,
      leaveShells: 0,
      leaveShellDelay: 1,
      fireCone: 0,
      laserSight: false,
      laserBeam: false,
      launchSound: 4,
      playReloadSound: true,
      name: "GRN LAUNCHER"
    },
    {
      parts: 1,
      bulletType: 12,
      bulletSpeed: 4,
      bulletSpeedInherit: 0.5,
      distribution: 0.0152587890625,
      recoil: 0,
      ammo: 1,
      delay: 20,
      loadingTime: 400,
      leaveShells: 0,
      leaveShellDelay: 1,
      fireCone: 0,
      laserSight: false,
      laserBeam: false,
      launchSound: 5,
      playReloadSound: true,
      name: "PROXY MINE"
    },
    {
      parts: 1,
      bulletType: 13,
      bulletSpeed: 0.45,
      bulletSpeedInherit: 0,
      distribution: 0.00762939453125,
      recoil: 1,
      ammo: 1,
      delay: 50,
      loadingTime: 300,
      leaveShells: 0,
      leaveShellDelay: 1,
      fireCone: 10,
      laserSight: false,
      laserBeam: false,
      launchSound: 4,
      playReloadSound: false,
      name: "MORTAR"
    },
    {
      parts: 1,
      bulletType: 14,
      bulletSpeed: 3,
      bulletSpeedInherit: 0.28169014084507044,
      distribution: 0.091552734375,
      recoil: 0.06,
      ammo: 80,
      delay: 0,
      loadingTime: 360,
      leaveShells: 4,
      leaveShellDelay: 1,
      fireCone: 6,
      laserSight: false,
      laserBeam: false,
      launchSound: 1,
      playReloadSound: true,
      name: "MINIGUN"
    },
    {
      parts: 20,
      bulletType: 15,
      bulletSpeed: 1.4,
      bulletSpeedInherit: 0.7142857142857143,
      distribution: 0.4999847412109375,
      recoil: 0,
      ammo: 1,
      delay: 0,
      loadingTime: 400,
      leaveShells: 0,
      leaveShellDelay: 1,
      fireCone: 0,
      laserSight: false,
      laserBeam: false,
      launchSound: 5,
      playReloadSound: false,
      name: "CLUSTER POD"
    },
    {
      parts: 48,
      bulletType: 16,
      bulletSpeed: 3,
      bulletSpeedInherit: 0.2225,
      distribution: 1,
      recoil: 1.2,
      ammo: 2,
      delay: 20,
      loadingTime: 400,
      leaveShells: 1,
      leaveShellDelay: 28,
      fireCone: 10,
      laserSight: false,
      laserBeam: false,
      launchSound: 0,
      playReloadSound: true,
      name: "SUPER SHOTGUN"
    },
    {
      parts: 1,
      bulletType: 17,
      bulletSpeed: 3.5,
      bulletSpeedInherit: 0.2857142857142857,
      distribution: 0.00762939453125,
      recoil: 0,
      ammo: 1,
      delay: 5,
      loadingTime: 90,
      leaveShells: 0,
      leaveShellDelay: 1,
      fireCone: 0,
      laserSight: false,
      laserBeam: false,
      launchSound: 5,
      playReloadSound: true,
      name: "SNOWBALLS"
    },
    {
      parts: 4,
      bulletType: 18,
      bulletSpeed: 3,
      bulletSpeedInherit: 0.3333333333333333,
      distribution: 0.30517578125,
      recoil: 2.3,
      ammo: 1,
      delay: 0,
      loadingTime: 400,
      leaveShells: 4,
      leaveShellDelay: 1,
      fireCone: 6,
      laserSight: false,
      laserBeam: false,
      launchSound: 11,
      playReloadSound: true,
      name: "CHIQUITA GUN"
    },
    {
      parts: 1,
      bulletType: 20,
      bulletSpeed: 4,
      bulletSpeedInherit: 0.1,
      distribution: 0.3,
      recoil: 0.35,
      ammo: 1,
      delay: 60,
      loadingTime: 400,
      leaveShells: 0,
      leaveShellDelay: 1,
      fireCone: 10,
      laserSight: false,
      laserBeam: false,
      launchSound: 3,
      playReloadSound: true,
      name: "INCENDIATOR"
    },
    {
      parts: 1,
      bulletType: 21,
      bulletSpeed: 3,
      bulletSpeedInherit: 0.3333333333333333,
      distribution: 0,
      recoil: 0.3,
      ammo: 2,
      delay: 90,
      loadingTime: 540,
      leaveShells: 0,
      leaveShellDelay: 1,
      fireCone: 0,
      laserSight: false,
      laserBeam: false,
      launchSound: 6,
      playReloadSound: true,
      name: "ZIMM"
    },
    {
      parts: 1,
      bulletType: 22,
      bulletSpeed: 1.8,
      bulletSpeedInherit: 0.5555555555555556,
      distribution: 0.1983642578125,
      recoil: 0.2,
      ammo: 2,
      delay: 30,
      loadingTime: 450,
      leaveShells: 0,
      leaveShellDelay: 1,
      fireCone: 0,
      laserSight: false,
      laserBeam: false,
      launchSound: 5,
      playReloadSound: false,
      name: "MINI NUKE"
    },
    {
      parts: 1,
      bulletType: 26,
      bulletSpeed: 5.1,
      bulletSpeedInherit: 0,
      distribution: 0.004119873046875,
      recoil: 0.6,
      ammo: 8,
      delay: 20,
      loadingTime: 510,
      leaveShells: 0,
      leaveShellDelay: 1,
      fireCone: 4,
      laserSight: false,
      laserBeam: false,
      launchSound: 9,
      playReloadSound: true,
      name: "FLAK CANNON"
    },
    {
      parts: 1,
      bulletType: 28,
      bulletSpeed: 1,
      bulletSpeedInherit: 0,
      distribution: 0.000152587890625,
      recoil: 0,
      ammo: 140,
      delay: 0,
      loadingTime: 400,
      leaveShells: 0,
      leaveShellDelay: 1,
      fireCone: 0,
      laserSight: false,
      laserBeam: true,
      launchSound: -1,
      playReloadSound: true,
      name: "LASER"
    },
    {
      parts: 7,
      bulletType: 29,
      bulletSpeed: 1.1,
      bulletSpeedInherit: 0.9090909090909091,
      distribution: 0.3662109375,
      recoil: 0,
      ammo: 1,
      delay: 0,
      loadingTime: 400,
      leaveShells: 0,
      leaveShellDelay: 1,
      fireCone: 0,
      laserSight: false,
      laserBeam: false,
      launchSound: 5,
      playReloadSound: false,
      name: "SNOWFLAKES"
    },
    {
      parts: 1,
      bulletType: 31,
      bulletSpeed: 1.2,
      bulletSpeedInherit: 0.5,
      distribution: 0,
      recoil: 0.2,
      ammo: 1,
      delay: 20,
      loadingTime: 400,
      leaveShells: 0,
      leaveShellDelay: 1,
      fireCone: 7,
      laserSight: false,
      laserBeam: false,
      launchSound: 3,
      playReloadSound: true,
      name: "SANTA CLAUS"
    },
    {
      parts: 1,
      bulletType: 32,
      bulletSpeed: 2.3,
      bulletSpeedInherit: 0.4347826086956522,
      distribution: 0,
      recoil: 0.15,
      ammo: 1,
      delay: 0,
      loadingTime: 480,
      leaveShells: 0,
      leaveShellDelay: 1,
      fireCone: 9,
      laserSight: false,
      laserBeam: false,
      launchSound: 3,
      playReloadSound: true,
      name: "MISSILE"
    },
    {
      parts: 2,
      bulletType: 37,
      bulletSpeed: 2.75,
      bulletSpeedInherit: 0.15,
      distribution: 0.04,
      recoil: 0,
      ammo: 6,
      delay: 18,
      loadingTime: 217,
      leaveShells: 0,
      leaveShellDelay: 1,
      fireCone: 0,
      laserSight: false,
      laserBeam: false,
      launchSound: 2,
      playReloadSound: true,
      name: "DARTGUN"
    },
    {
      parts: 3,
      bulletType: 38,
      bulletSpeed: 2.5,
      bulletSpeedInherit: 0.31746031746031744,
      distribution: 0.2,
      recoil: 0.06,
      ammo: 36,
      delay: 5,
      loadingTime: 375,
      leaveShells: 2,
      leaveShellDelay: 1,
      fireCone: 6,
      laserSight: false,
      laserBeam: false,
      launchSound: 28,
      playReloadSound: true,
      name: "SCATTERGUN"
    },
    {
      parts: 4,
      bulletType: 39,
      bulletSpeed: 2,
      bulletSpeedInherit: 0,
      distribution: 0,
      recoil: 0.9,
      ammo: 1,
      delay: 5,
      loadingTime: 400,
      leaveShells: 0,
      leaveShellDelay: 1,
      fireCone: 10,
      laserSight: false,
      laserBeam: false,
      launchSound: 10,
      playReloadSound: true,
      name: "GAUSS GUN"
    },
    {
      parts: 1,
      bulletType: 40,
      bulletSpeed: 2,
      bulletSpeedInherit: 0.5882352941176471,
      distribution: 0,
      recoil: 0,
      ammo: 1,
      delay: 0,
      loadingTime: 100,
      leaveShells: 0,
      leaveShellDelay: 1,
      fireCone: 0,
      laserSight: false,
      laserBeam: false,
      launchSound: 5,
      playReloadSound: false,
      name: "GRENADE"
    },
    {
      parts: 1,
      bulletType: 19,
      bulletSpeed: 1.8,
      bulletSpeedInherit: 0.5555555555555556,
      distribution: 0.18310546875,
      recoil: 0.03,
      ammo: 140,
      delay: 0,
      loadingTime: 300,
      leaveShells: 0,
      leaveShellDelay: 1,
      fireCone: 0,
      laserSight: false,
      laserBeam: false,
      launchSound: -1,
      playReloadSound: false,
      name: "ACID FAN"
    },
    // {
    //   parts: 1,
    //   bulletType: 41,
    //   bulletSpeed: 1.8,
    //   bulletSpeedInherit: 0.5555555555555556,
    //   distribution: 0.18310546875,
    //   recoil: 0,
    //   ammo: 1,
    //   delay: 0,
    //   loadingTime: 150,
    //   leaveShells: 0,
    //   leaveShellDelay: 1,
    //   fireCone: 0,
    //   laserSight: false,
    //   laserBeam: false,
    //   launchSound: -1,
    //   playReloadSound: false,
    //   name: "DELETE"
    // }
  ],
  wObjects: [
    { // auto shotgun wid0
      detectDistance: 1,
      blowAway: 0.01,
      gravity: 0.005068115234375,
      exploSound: -1,
      addSpeed: 0,
      distribution: 0.18310546875,
      multSpeed: 1,
      createOnExp: 2,
      dirtEffect: -1,
      wormExplode: false,
      explGround: true,
      wormCollide: true,
      collideWithObjects: false,
      affectByExplosions: false,
      bounce: 0,
      bounceFriction: 0.8,
      timeToExplo: 0,
      timeToExploV: 0,
      hitDamage: 1,
      bloodOnHit: 3,
      startFrame: -1,
      numFrames: 0,
      loopAnim: false,
      shotType: 0,
      repeat: 2,
      colorBullets: 75,
      splinterAmount: 1,
      splinterColour: 13,
      splinterType: 2,
      splinterScatter: 0,
      objTrailType: -1,
      objTrailDelay: 0,
      partTrailType: 0,
      partTrailObj: -1,
      partTrailDelay: 0,
      speed: 435
    },
    { // chaingun wid1
      detectDistance: 1,
      blowAway: 0.05,
      gravity: 0.0042724609375,
      exploSound: -1,
      addSpeed: 0,
      distribution: 0.0457763671875,
      multSpeed: 1,
      createOnExp: 2,
      dirtEffect: -1,
      wormExplode: false,
      explGround: true,
      wormCollide: true,
      collideWithObjects: false,
      affectByExplosions: false,
      bounce: 0,
      bounceFriction: 0.8,
      timeToExplo: 0,
      timeToExploV: 0,
      hitDamage: 4,
      bloodOnHit: 4,
      startFrame: -1,
      numFrames: 0,
      loopAnim: false,
      shotType: 0,
      repeat: 2,
      colorBullets: 68,
      splinterAmount: 2,
      splinterColour: 13,
      splinterType: 2,
      splinterScatter: 0,
      objTrailType: -1,
      objTrailDelay: 0,
      partTrailType: 0,
      partTrailObj: -1,
      partTrailDelay: 0,
      speed: 490
    },
    { // rifle wid2
      detectDistance: 1,
      blowAway: 0.6,
      gravity: 0.00030517578125,
      exploSound: -1,
      addSpeed: 0,
      distribution: 0,
      multSpeed: 1,
      createOnExp: 2,
      dirtEffect: -1,
      wormExplode: false,
      explGround: true,
      wormCollide: true,
      collideWithObjects: false,
      affectByExplosions: false,
      bounce: 0,
      bounceFriction: 0.8,
      timeToExplo: 0,
      timeToExploV: 0,
      hitDamage: 32,
      bloodOnHit: 50,
      startFrame: -1,
      numFrames: 0,
      loopAnim: false,
      shotType: 4,
      repeat: 8,
      colorBullets: 68,
      splinterAmount: 10,
      splinterColour: 13,
      splinterType: 2,
      splinterScatter: 0,
      objTrailType: -1,
      objTrailDelay: 0,
      partTrailType: 0,
      partTrailObj: -1,
      partTrailDelay: 0,
      speed: 0
    },
    { // bazooka wid3
      detectDistance: 2,
      blowAway: 0,
      gravity: 0,
      exploSound: -1,
      addSpeed: 3,
      distribution: 0,
      multSpeed: 1,
      createOnExp: 16,
      dirtEffect: -1,
      wormExplode: true,
      explGround: true,
      wormCollide: true,
      collideWithObjects: false,
      affectByExplosions: true,
      bounce: 0,
      bounceFriction: 0.8,
      timeToExplo: 0,
      timeToExploV: 0,
      hitDamage: 5,
      bloodOnHit: 30,
      startFrame: 112,
      numFrames: 0,
      loopAnim: false,
      shotType: 3,
      repeat: 1,
      colorBullets: 0,
      splinterAmount: 15,
      splinterColour: 66,
      splinterType: 15,
      splinterScatter: 0,
      objTrailType: 3,
      objTrailDelay: 4,
      partTrailType: 0,
      partTrailObj: -1,
      partTrailDelay: 0,
      speed: 0
    },
    { // lightning gun wid4
      detectDistance: 1,
      blowAway: 0.12,
      gravity: 0,
      exploSound: -1,
      addSpeed: 0,
      distribution: 0.03,
      multSpeed: 0.987,
      createOnExp: -1,
      dirtEffect: -1,
      wormExplode: false,
      explGround: true,
      wormCollide: true,
      collideWithObjects: false,
      affectByExplosions: false,
      bounce: 1,
      bounceFriction: 1,
      timeToExplo: 140,
      timeToExploV: 40,
      hitDamage: 1.8,
      bloodOnHit: 6,
      startFrame: -1,
      numFrames: 0,
      loopAnim: false,
      shotType: 3,
      repeat: 100,
      colorBullets: 241,
      splinterAmount: 0,
      splinterColour: 0,
      splinterType: -1,
      splinterScatter: 0,
      objTrailType: 21,
      objTrailDelay: 1,
      partTrailType: 0,
      partTrailObj: -1,
      partTrailDelay: 0,
      speed: 300
    },
    { // solar scorch wid5
      detectDistance: 1,
      blowAway: 0.015,
      gravity: 0,
      exploSound: -1,
      addSpeed: 0,
      distribution: 0.05,
      multSpeed: 1,
      createOnExp: 26,
      dirtEffect: 2,
      wormExplode: false,
      explGround: true,
      wormCollide: true,
      collideWithObjects: false,
      affectByExplosions: false,
      bounce: 0,
      bounceFriction: 0.8,
      timeToExplo: 0,
      timeToExploV: 0,
      hitDamage: 2,
      bloodOnHit: 5,
      startFrame: -1,
      numFrames: 0,
      loopAnim: false,
      shotType: 4,
      repeat: 20,
      colorBullets: 241,
      splinterAmount: 1,
      splinterColour: 67,
      splinterType: 17,
      splinterScatter: 0,
      objTrailType: 6,
      objTrailDelay: 1,
      partTrailType: 0,
      partTrailObj: -1,
      partTrailDelay: 0,
      speed: 500
    },
    { // mine wid6 (unused)
      detectDistance: 2,
      blowAway: 0.6,
      gravity: 0.0152587890625,
      exploSound: -1,
      addSpeed: 0,
      distribution: 0.1220703125,
      multSpeed: 1,
      createOnExp: 0,
      dirtEffect: -1,
      wormExplode: true,
      explGround: false,
      wormCollide: true,
      collideWithObjects: false,
      affectByExplosions: true,
      bounce: 0.4,
      bounceFriction: 0.8,
      timeToExplo: 3000,
      timeToExploV: 600,
      hitDamage: 12,
      bloodOnHit: 20,
      startFrame: 173,
      numFrames: 3,
      loopAnim: true,
      shotType: 0,
      repeat: 1,
      colorBullets: 0,
      splinterAmount: 5,
      splinterColour: 66,
      splinterType: 3,
      splinterScatter: 0,
      objTrailType: -1,
      objTrailDelay: 0,
      partTrailType: 0,
      partTrailObj: -1,
      partTrailDelay: 0,
      speed: 95
    },
    { // winchester wid7
      detectDistance: 1,
      blowAway: 0.7,
      gravity: 0.00030517578125,
      exploSound: -1,
      addSpeed: 0,
      distribution: 0.00152587890625,
      multSpeed: 1,
      createOnExp: 2,
      dirtEffect: -1,
      wormExplode: false,
      explGround: true,
      wormCollide: true,
      collideWithObjects: false,
      affectByExplosions: false,
      bounce: 0,
      bounceFriction: 0.8,
      timeToExplo: 0,
      timeToExploV: 0,
      hitDamage: 20,
      bloodOnHit: 30,
      startFrame: -1,
      numFrames: 0,
      loopAnim: false,
      shotType: 4,
      repeat: 8,
      colorBullets: 68,
      splinterAmount: 3,
      splinterColour: 13,
      splinterType: 2,
      splinterScatter: 0,
      objTrailType: -1,
      objTrailDelay: 0,
      partTrailType: 0,
      partTrailObj: -1,
      partTrailDelay: 0,
      speed: 250
    },
    { // doomsday wid8
      detectDistance: 1,
      blowAway: 0.15,
      gravity: 0,
      exploSound: -1,
      addSpeed: 4,
      distribution: 0.030517578125,
      multSpeed: 1,
      createOnExp: 1,
      dirtEffect: -1,
      wormExplode: true,
      explGround: true,
      wormCollide: true,
      collideWithObjects: false,
      affectByExplosions: true,
      bounce: 0,
      bounceFriction: 0.8,
      timeToExplo: 0,
      timeToExploV: 0,
      hitDamage: 0,
      bloodOnHit: 10,
      startFrame: 127,
      numFrames: 0,
      loopAnim: false,
      shotType: 3,
      repeat: 1,
      colorBullets: 0,
      splinterAmount: 8,
      splinterColour: 67,
      splinterType: 17,
      splinterScatter: 0,
      objTrailType: 6,
      objTrailDelay: 2,
      partTrailType: 0,
      partTrailObj: -1,
      partTrailDelay: 0,
      speed: 210
    },
    { // flamethrower wid9
      detectDistance: 2,
      blowAway: 0,
      gravity: -0.003814697265625,
      exploSound: -1,
      addSpeed: 1,
      distribution: 0.152587890625,
      multSpeed: 1,
      createOnExp: -1,
      dirtEffect: 3,
      wormExplode: false,
      explGround: false,
      wormCollide: true,
      collideWithObjects: false,
      affectByExplosions: true,
      bounce: 0.01,
      bounceFriction: 0.8,
      timeToExplo: 25,
      timeToExploV: 5,
      hitDamage: 1,
      bloodOnHit: 0,
      startFrame: 159,
      numFrames: 5,
      loopAnim: false,
      shotType: 0,
      repeat: 2,
      colorBullets: 0,
      splinterAmount: 1,
      splinterColour: 0,
      splinterType: 26,
      splinterScatter: 1,
      objTrailType: -1,
      objTrailDelay: 0,
      partTrailType: 0,
      partTrailObj: -1,
      partTrailDelay: 0,
      speed: 165
    },
    { // grnlauncher wid10
      detectDistance: 1,
      blowAway: 0.3,
      gravity: 0.01983642578125,
      exploSound: -1,
      addSpeed: 0,
      distribution: 0.000152587890625,
      multSpeed: 1,
      createOnExp: 0,
      dirtEffect: -1,
      wormExplode: true,
      explGround: false,
      wormCollide: true,
      collideWithObjects: false,
      affectByExplosions: true,
      bounce: 0.4,
      bounceFriction: 0.8,
      timeToExplo: 140,
      timeToExploV: 10,
      hitDamage: 4,
      bloodOnHit: 1,
      startFrame: 239,
      numFrames: 0,
      loopAnim: false,
      shotType: 0,
      repeat: 1,
      colorBullets: 0,
      splinterAmount: 8,
      splinterColour: 67,
      splinterType: 17,
      splinterScatter: 0,
      objTrailType: 19,
      objTrailDelay: 4,
      partTrailType: 0,
      partTrailObj: -1,
      partTrailDelay: 0,
      speed: 300
    },
    { // larpa wid11 (unused)
      detectDistance: 1,
      blowAway: 0.4,
      gravity: 0.0030517578125,
      exploSound: -1,
      addSpeed: 0,
      distribution: 0,
      multSpeed: 1,
      createOnExp: 1,
      dirtEffect: -1,
      wormExplode: true,
      explGround: true,
      wormCollide: true,
      collideWithObjects: false,
      affectByExplosions: false,
      bounce: 0,
      bounceFriction: 0.8,
      timeToExplo: 0,
      timeToExploV: 0,
      hitDamage: 0,
      bloodOnHit: 6,
      startFrame: 140,
      numFrames: 0,
      loopAnim: false,
      shotType: 1,
      repeat: 1,
      colorBullets: 0,
      splinterAmount: 5,
      splinterColour: 67,
      splinterType: 3,
      splinterScatter: 0,
      objTrailType: -1,
      objTrailDelay: 0,
      partTrailType: 1,
      partTrailObj: 5,
      partTrailDelay: 4,
      speed: 220
    },
    { // proxymine wid12
      detectDistance: 8,
      blowAway: 0.22,
      gravity: 0,
      exploSound: -1,
      addSpeed: 0,
      distribution: 0.0152587890625,
      multSpeed: 0.98,
      createOnExp: 23,
      dirtEffect: 0,
      wormExplode: true,
      explGround: false,
      wormCollide: true,
      collideWithObjects: false,
      affectByExplosions: true,
      bounce: 0.5,
      bounceFriction: 0.8,
      timeToExplo: 250,
      timeToExploV: 20,
      hitDamage: 0,
      bloodOnHit: 18,
      startFrame: 178,
      numFrames: 0,
      loopAnim: false,
      shotType: 0,
      repeat: 1,
      colorBullets: 0,
      splinterAmount: 20,
      splinterColour: 66,
      splinterType: 15,
      splinterScatter: 0,
      objTrailType: 9,
      objTrailDelay: 5,
      partTrailType: 0,
      partTrailObj: -1,
      partTrailDelay: 0,
      speed: 200
    },
    { // mortar wid13
      detectDistance: 3,
      blowAway: 0.1,
      gravity: 0.00091552734375,
      exploSound: -1,
      addSpeed: 0,
      distribution: 0.00762939453125,
      multSpeed: 1,
      createOnExp: 22,
      dirtEffect: 0,
      wormExplode: false,
      explGround: true,
      wormCollide: false,
      collideWithObjects: false,
      affectByExplosions: false,
      bounce: 0,
      bounceFriction: 0.8,
      timeToExplo: 0,
      timeToExploV: 0,
      hitDamage: 0,
      bloodOnHit: 0,
      startFrame: 193,
      numFrames: 0,
      loopAnim: false,
      shotType: 4,
      repeat: 8,
      colorBullets: 3,
      splinterAmount: 20,
      splinterColour: 3,
      splinterType: 21,
      splinterScatter: 0,
      objTrailType: 3,
      objTrailDelay: 4,
      partTrailType: 1,
      partTrailObj: -1,
      partTrailDelay: 0,
      speed: 45
    },
    { // minigun wid14
      detectDistance: 0,
      blowAway: 0.05,
      gravity: 0.00762939453125,
      exploSound: -1,
      addSpeed: 0,
      distribution: 0.091552734375,
      multSpeed: 1,
      createOnExp: 2,
      dirtEffect: -1,
      wormExplode: false,
      explGround: true,
      wormCollide: true,
      collideWithObjects: false,
      affectByExplosions: false,
      bounce: 0,
      bounceFriction: 0.8,
      timeToExplo: 0,
      timeToExploV: 0,
      hitDamage: 2,
      bloodOnHit: 2,
      startFrame: -1,
      numFrames: 0,
      loopAnim: false,
      shotType: 0,
      repeat: 2,
      colorBullets: 68,
      splinterAmount: 1,
      splinterColour: 13,
      splinterType: 2,
      splinterScatter: 0,
      objTrailType: -1,
      objTrailDelay: 0,
      partTrailType: 0,
      partTrailObj: -1,
      partTrailDelay: 0,
      speed: 355
    },
    { // clusterpod wid15
      detectDistance: 0,
      blowAway: 0,
      gravity: 0.01983642578125,
      exploSound: -1,
      addSpeed: 0,
      distribution: 0.3,
      multSpeed: 1,
      createOnExp: -1,
      dirtEffect: -1,
      wormExplode: false,
      explGround: false,
      wormCollide: false,
      collideWithObjects: false,
      affectByExplosions: true,
      bounce: 0.2,
      bounceFriction: 0.8,
      timeToExplo: 40,
      timeToExploV: 0,
      hitDamage: 0,
      bloodOnHit: 0,
      startFrame: 202,
      numFrames: 3,
      loopAnim: true,
      shotType: 0,
      repeat: 1,
      colorBullets: 0,
      splinterAmount: 1,
      splinterColour: 0,
      splinterType: 8,
      splinterScatter: 1,
      objTrailType: -1,
      objTrailDelay: 0,
      partTrailType: 0,
      partTrailObj: -1,
      partTrailDelay: 0,
      speed: 140
    },
    { // supershotgun wid16
      detectDistance: 1,
      blowAway: 0.015,
      gravity: 0.005,
      exploSound: -1,
      addSpeed: 0,
      distribution: 0.2,
      multSpeed: 1,
      createOnExp: 2,
      dirtEffect: -1,
      wormExplode: false,
      explGround: true,
      wormCollide: true,
      collideWithObjects: false,
      affectByExplosions: false,
      bounce: 0,
      bounceFriction: 0.8,
      timeToExplo: 0,
      timeToExploV: 0,
      hitDamage: 1,
      bloodOnHit: 2,
      startFrame: -1,
      numFrames: 0,
      loopAnim: false,
      shotType: 0,
      repeat: 2,
      colorBullets: 75,
      splinterAmount: 1,
      splinterColour: 13,
      splinterType: 2,
      splinterScatter: 0,
      objTrailType: -1,
      objTrailDelay: 0,
      partTrailType: 0,
      partTrailObj: -1,
      partTrailDelay: 0,
      speed: 320
    },
    { // snowballs wid17
      detectDistance: 2,
      blowAway: 0.1,
      gravity: 0.02288818359375,
      exploSound: -1,
      addSpeed: 0,
      distribution: 0.00762939453125,
      multSpeed: 1,
      createOnExp: 4,
      dirtEffect: -1,
      wormExplode: false,
      explGround: true,
      wormCollide: true,
      collideWithObjects: false,
      affectByExplosions: true,
      bounce: 0,
      bounceFriction: 0.8,
      timeToExplo: 0,
      timeToExploV: 0,
      hitDamage: 20,
      bloodOnHit: 25,
      startFrame: 102,
      numFrames: 0,
      loopAnim: false,
      shotType: 0,
      repeat: 1,
      colorBullets: 0,
      splinterAmount: 20,
      splinterColour: 69,
      splinterType: 31,
      splinterScatter: 0,
      objTrailType: -1,
      objTrailDelay: 0,
      partTrailType: 0,
      partTrailObj: 31,
      partTrailDelay: 0,
      speed: 350
    },
    { // chiquitagun wid18
      detectDistance: 0,
      blowAway: 0.15,
      gravity: 0.000152587890625,
      exploSound: -1,
      addSpeed: 0,
      distribution: 0.30517578125,
      multSpeed: 1,
      createOnExp: 2,
      dirtEffect: -1,
      wormExplode: true,
      explGround: true,
      wormCollide: true,
      collideWithObjects: false,
      affectByExplosions: false,
      bounce: 0,
      bounceFriction: 0.8,
      timeToExplo: 5,
      timeToExploV: 0,
      hitDamage: 0,
      bloodOnHit: 2,
      startFrame: -1,
      numFrames: 0,
      loopAnim: false,
      shotType: 0,
      repeat: 1,
      colorBullets: 88,
      splinterAmount: 1,
      splinterColour: 0,
      splinterType: 18,
      splinterScatter: 1,
      objTrailType: -1,
      objTrailDelay: 0,
      partTrailType: 0,
      partTrailObj: -1,
      partTrailDelay: 0,
      speed: 300
    },
    { // acid fan wid19
      detectDistance: 1,
      blowAway: 0.3,
      gravity: 0,
      exploSound: -1,
      addSpeed: 0,
      distribution: 0.18310546875,
      multSpeed: 1,
      createOnExp: -1,
      dirtEffect: 1,
      wormExplode: false,
      explGround: true,
      wormCollide: true,
      collideWithObjects: true,
      affectByExplosions: false,
      bounce: 0,
      bounceFriction: 0.8,
      timeToExplo: 45,
      timeToExploV: 10,
      hitDamage: 1,
      bloodOnHit: 2,
      startFrame: -1,
      numFrames: 0,
      loopAnim: false,
      shotType: 0,
      repeat: 1,
      colorBullets: 100,
      splinterAmount: 0,
      splinterColour: 0,
      splinterType: -1,
      splinterScatter: 0,
      objTrailType: -1,
      objTrailDelay: 0,
      partTrailType: 0,
      partTrailObj: -1,
      partTrailDelay: 0,
      speed: 180
    },
    { // incendiator wid20
      detectDistance: 0,
      blowAway: 0,
      gravity: 0.01,
      exploSound: -1,
      addSpeed: 0,
      distribution: 0.05,
      multSpeed: 1,
      createOnExp: 8,
      dirtEffect: -1,
      wormExplode: false,
      explGround: true,
      wormCollide: false,
      collideWithObjects: false,
      affectByExplosions: false,
      bounce: 0.8,
      bounceFriction: 0.8,
      timeToExplo: 70,
      timeToExploV: 10,
      hitDamage: 0,
      bloodOnHit: 0,
      startFrame: 179,
      numFrames: 0,
      loopAnim: false,
      shotType: 0,
      repeat: 2,
      colorBullets: 0,
      splinterAmount: 0,
      splinterColour: 75,
      splinterType: 4,
      splinterScatter: 0,
      objTrailType: -1,
      objTrailDelay: 0,
      partTrailType: 1,
      partTrailObj: 12,
      partTrailDelay: 3,
      speed: 500
    },
    { // zimm wid21
      detectDistance: 1,
      blowAway: 0,
      gravity: 0,
      exploSound: -1,
      addSpeed: 0,
      distribution: 0,
      multSpeed: 1,
      createOnExp: 4,
      dirtEffect: -1,
      wormExplode: true,
      explGround: false,
      wormCollide: true,
      collideWithObjects: false,
      affectByExplosions: false,
      bounce: 1,
      bounceFriction: 1,
      timeToExplo: 140,
      timeToExploV: 0,
      hitDamage: 49,
      bloodOnHit: 15,
      startFrame: 180,
      numFrames: 0,
      loopAnim: false,
      shotType: 0,
      repeat: 1,
      colorBullets: 0,
      splinterAmount: 0,
      splinterColour: 0,
      splinterType: -1,
      splinterScatter: 0,
      objTrailType: -1,
      objTrailDelay: 0,
      partTrailType: 0,
      partTrailObj: -1,
      partTrailDelay: 0,
      speed: 300
    },
    { // mininuke wid22
      detectDistance: 0,
      blowAway: 0,
      gravity: 0.0152587890625,
      exploSound: 4,
      addSpeed: 0,
      distribution: 0.1983642578125,
      multSpeed: 1,
      createOnExp: -1,
      dirtEffect: -1,
      wormExplode: false,
      explGround: false,
      wormCollide: false,
      collideWithObjects: false,
      affectByExplosions: true,
      bounce: 0.75,
      bounceFriction: 0.8,
      timeToExplo: 50,
      timeToExploV: 4,
      hitDamage: 0,
      bloodOnHit: 0,
      startFrame: 195,
      numFrames: 0,
      loopAnim: false,
      shotType: 0,
      repeat: 1,
      colorBullets: 0,
      splinterAmount: 8,
      splinterColour: 0,
      splinterType: 11,
      splinterScatter: 1,
      objTrailType: -1,
      objTrailDelay: 0,
      partTrailType: 0,
      partTrailObj: -1,
      partTrailDelay: 0,
      speed: 180
    },
    { // unused wid23
      detectDistance: 0,
      blowAway: 0,
      gravity: 0.0152587890625,
      exploSound: 4,
      addSpeed: 0,
      distribution: 0.1983642578125,
      multSpeed: 1,
      createOnExp: -1,
      dirtEffect: -1,
      wormExplode: false,
      explGround: false,
      wormCollide: false,
      collideWithObjects: false,
      affectByExplosions: true,
      bounce: 0.75,
      bounceFriction: 0.8,
      timeToExplo: 50,
      timeToExploV: 4,
      hitDamage: 0,
      bloodOnHit: 0,
      startFrame: 195,
      numFrames: 0,
      loopAnim: false,
      shotType: 0,
      repeat: 1,
      colorBullets: 0,
      splinterAmount: 6,
      splinterColour: 0,
      splinterType: 11,
      splinterScatter: 1,
      objTrailType: -1,
      objTrailDelay: 0,
      partTrailType: 0,
      partTrailObj: -1,
      partTrailDelay: 0,
      speed: 180
    },
    { // unused wid24
      detectDistance: 0,
      blowAway: 0,
      gravity: 0.0152587890625,
      exploSound: 4,
      addSpeed: 0,
      distribution: 0.1983642578125,
      multSpeed: 1,
      createOnExp: -1,
      dirtEffect: -1,
      wormExplode: false,
      explGround: false,
      wormCollide: false,
      collideWithObjects: false,
      affectByExplosions: true,
      bounce: 0.75,
      bounceFriction: 0.8,
      timeToExplo: 50,
      timeToExploV: 4,
      hitDamage: 0,
      bloodOnHit: 0,
      startFrame: 195,
      numFrames: 0,
      loopAnim: false,
      shotType: 0,
      repeat: 1,
      colorBullets: 0,
      splinterAmount: 6,
      splinterColour: 0,
      splinterType: 11,
      splinterScatter: 1,
      objTrailType: -1,
      objTrailDelay: 0,
      partTrailType: 0,
      partTrailObj: -1,
      partTrailDelay: 0,
      speed: 180
    },
    { // hovercrack wid25
      detectDistance: 0,
      blowAway: 0,
      gravity: 0,
      exploSound: -1,
      addSpeed: 0,
      distribution: 0,
      multSpeed: 0.94,
      createOnExp: 15,
      dirtEffect: -1,
      wormExplode: false,
      explGround: false,
      wormCollide: false,
      collideWithObjects: false,
      affectByExplosions: true,
      bounce: 0.9,
      bounceFriction: 0.8,
      timeToExplo: 400,
      timeToExploV: 0,
      hitDamage: 0,
      bloodOnHit: 0,
      startFrame: 179,
      numFrames: 0,
      loopAnim: false,
      shotType: 0,
      repeat: 3,
      colorBullets: 0,
      splinterAmount: 0,
      splinterColour: 0,
      splinterType: 0,
      splinterScatter: 0,
      objTrailType: -1,
      objTrailDelay: 0,
      partTrailType: 0,
      partTrailObj: 24,
      partTrailDelay: 1,
      speed: 300
    },
    { // flak wid26
      detectDistance: 2,
      blowAway: 0.2,
      gravity: 0.0030517578125,
      exploSound: 7,
      addSpeed: 0,
      distribution: 0.004119873046875,
      multSpeed: 1,
      createOnExp: 1,
      dirtEffect: 1,
      wormExplode: false,
      explGround: true,
      wormCollide: true,
      collideWithObjects: false,
      affectByExplosions: true,
      bounce: 0,
      bounceFriction: 0.8,
      timeToExplo: 35,
      timeToExploV: 0,
      hitDamage: 15,
      bloodOnHit: 50,
      startFrame: 193,
      numFrames: 0,
      loopAnim: false,
      shotType: 0,
      repeat: 1,
      colorBullets: 66,
      splinterAmount: 30,
      splinterColour: 3,
      splinterType: 5,
      splinterScatter: 0,
      objTrailType: -1,
      objTrailDelay: 0,
      partTrailType: 0,
      partTrailObj: -1,
      partTrailDelay: 0,
      speed: 510
    },
    { // bouncylarpa wid27
      detectDistance: 1,
      blowAway: 0.4,
      gravity: 0.0030517578125,
      exploSound: -1,
      addSpeed: 0,
      distribution: 0,
      multSpeed: 1,
      createOnExp: 1,
      dirtEffect: -1,
      wormExplode: true,
      explGround: true,
      wormCollide: true,
      collideWithObjects: false,
      affectByExplosions: false,
      bounce: 1,
      bounceFriction: 1,
      timeToExplo: 380,
      timeToExploV: 50,
      hitDamage: 0,
      bloodOnHit: 6,
      startFrame: 194,
      numFrames: 0,
      loopAnim: false,
      shotType: 0,
      repeat: 1,
      colorBullets: 0,
      splinterAmount: 5,
      splinterColour: 67,
      splinterType: 3,
      splinterScatter: 0,
      objTrailType: -1,
      objTrailDelay: 0,
      partTrailType: 1,
      partTrailObj: 3,
      partTrailDelay: 4,
      speed: 220
    },
    { // laser wid28
      detectDistance: 0,
      blowAway: 0,
      gravity: 0,
      exploSound: -1,
      addSpeed: 0,
      distribution: 0.000152587890625,
      multSpeed: 1,
      createOnExp: 9,
      dirtEffect: -1,
      wormExplode: false,
      explGround: true,
      wormCollide: true,
      collideWithObjects: false,
      affectByExplosions: true,
      bounce: 0,
      bounceFriction: 0.8,
      timeToExplo: 0,
      timeToExploV: 0,
      hitDamage: 1,
      bloodOnHit: 0,
      startFrame: -1,
      numFrames: 0,
      loopAnim: false,
      shotType: 4,
      repeat: 1000,
      colorBullets: 104,
      splinterAmount: 0,
      splinterColour: 0,
      splinterType: -1,
      splinterScatter: 0,
      objTrailType: -1,
      objTrailDelay: 0,
      partTrailType: 0,
      partTrailObj: -1,
      partTrailDelay: 0,
      speed: 100
    },
    { // snowflakes wid29
      detectDistance: 2,
      blowAway: 0.2,
      gravity: 0.0152587890625,
      exploSound: -1,
      addSpeed: 0,
      distribution: 0.3662109375,
      multSpeed: 1,
      createOnExp: 2,
      dirtEffect: -1,
      wormExplode: false,
      explGround: false,
      wormCollide: true,
      collideWithObjects: false,
      affectByExplosions: true,
      bounce: 0.5,
      bounceFriction: 0.8,
      timeToExplo: 230,
      timeToExploV: 50,
      hitDamage: 9,
      bloodOnHit: 20,
      startFrame: 541,
      numFrames: 1,
      loopAnim: true,
      shotType: 0,
      repeat: 1,
      colorBullets: 0,
      splinterAmount: 0,
      splinterColour: 0,
      splinterType: -1,
      splinterScatter: 0,
      objTrailType: -1,
      objTrailDelay: 0,
      partTrailType: 0,
      partTrailObj: -1,
      partTrailDelay: 0,
      speed: 110
    },
    { // unused wid30
      detectDistance: 2,
      blowAway: 0,
      gravity: 0.0152587890625,
      exploSound: 4,
      addSpeed: 0,
      distribution: 0.030517578125,
      multSpeed: 1,
      createOnExp: -1,
      dirtEffect: -1,
      wormExplode: true,
      explGround: true,
      wormCollide: false,
      collideWithObjects: false,
      affectByExplosions: true,
      bounce: 0,
      bounceFriction: 0.8,
      timeToExplo: 0,
      timeToExploV: 0,
      hitDamage: 0,
      bloodOnHit: 0,
      startFrame: 185,
      numFrames: 7,
      loopAnim: true,
      shotType: 0,
      repeat: 1,
      colorBullets: 0,
      splinterAmount: 17,
      splinterColour: 114,
      splinterType: 12,
      splinterScatter: 0,
      objTrailType: -1,
      objTrailDelay: 0,
      partTrailType: 0,
      partTrailObj: -1,
      partTrailDelay: 0,
      speed: 188
    },
    { // santaclaus wid31
      detectDistance: 30,
      blowAway: 0,
      gravity: 0,
      exploSound: -1,
      addSpeed: 0,
      distribution: 0,
      multSpeed: 1,
      createOnExp: 14,
      dirtEffect: 0,
      wormExplode: false,
      explGround: true,
      wormCollide: false,
      collideWithObjects: true,
      affectByExplosions: false,
      bounce: 0,
      bounceFriction: 0.8,
      timeToExplo: 240,
      timeToExploV: 0,
      hitDamage: 0,
      bloodOnHit: 0,
      startFrame: 519,
      numFrames: 0,
      loopAnim: false,
      shotType: 1,
      repeat: 0,
      colorBullets: 0,
      splinterAmount: 30,
      splinterColour: 67,
      splinterType: 27,
      splinterScatter: 0,
      objTrailType: -1,
      objTrailDelay: 0,
      partTrailType: 1,
      partTrailObj: 10,
      partTrailDelay: 25,
      speed: 200
    },
    { // missile wid32
      detectDistance: 1,
      blowAway: 0,
      gravity: 0,
      exploSound: -1,
      addSpeed: 150,
      distribution: 0,
      multSpeed: 1,
      createOnExp: 24,
      dirtEffect: -1,
      wormExplode: true,
      explGround: true,
      wormCollide: true,
      collideWithObjects: false,
      affectByExplosions: false,
      bounce: 0,
      bounceFriction: 0.8,
      timeToExplo: 0,
      timeToExploV: 0,
      hitDamage: 25,
      bloodOnHit: 30,
      startFrame: 110,
      numFrames: 0,
      loopAnim: false,
      shotType: 2,
      repeat: 1,
      colorBullets: 0,
      splinterAmount: 10,
      splinterColour: 66,
      splinterType: 25,
      splinterScatter: 0,
      objTrailType: 3,
      objTrailDelay: 4,
      partTrailType: 0,
      partTrailObj: -1,
      partTrailDelay: 0,
      speed: 230
    },
    { // chiquitabomb wid33
      detectDistance: 0,
      blowAway: 0,
      gravity: 0.01983642578125,
      exploSound: -1,
      addSpeed: 0,
      distribution: 0.1068115234375,
      multSpeed: 1,
      createOnExp: 0,
      dirtEffect: -1,
      wormExplode: false,
      explGround: false,
      wormCollide: false,
      collideWithObjects: false,
      affectByExplosions: true,
      bounce: 0.4,
      bounceFriction: 0.8,
      timeToExplo: 110,
      timeToExploV: 10,
      hitDamage: 0,
      bloodOnHit: 0,
      startFrame: 215,
      numFrames: 3,
      loopAnim: true,
      shotType: 0,
      repeat: 1,
      colorBullets: 0,
      splinterAmount: 22,
      splinterColour: 0,
      splinterType: 14,
      splinterScatter: 0,
      objTrailType: -1,
      objTrailDelay: 0,
      partTrailType: 0,
      partTrailObj: -1,
      partTrailDelay: 0,
      speed: 170
    },
    { // boobytrap wid34
      detectDistance: 3,
      blowAway: 0,
      gravity: 0.02288818359375,
      exploSound: -1,
      addSpeed: 0,
      distribution: 0.30517578125,
      multSpeed: 1,
      createOnExp: 0,
      dirtEffect: -1,
      wormExplode: true,
      explGround: false,
      wormCollide: true,
      collideWithObjects: false,
      affectByExplosions: true,
      bounce: 0.3,
      bounceFriction: 0.8,
      timeToExplo: 4000,
      timeToExploV: 600,
      hitDamage: 5,
      bloodOnHit: 20,
      startFrame: 210,
      numFrames: 0,
      loopAnim: true,
      shotType: 0,
      repeat: 1,
      colorBullets: 0,
      splinterAmount: 0,
      splinterColour: 0,
      splinterType: -1,
      splinterScatter: 0,
      objTrailType: -1,
      objTrailDelay: 0,
      partTrailType: 0,
      partTrailObj: -1,
      partTrailDelay: 0,
      speed: 100
    },
    { //unused wid35
      detectDistance: 1,
      blowAway: 0,
      gravity: 0.01678466796875,
      exploSound: -1,
      addSpeed: 0,
      distribution: 0.1068115234375,
      multSpeed: 1,
      createOnExp: 0,
      dirtEffect: -1,
      wormExplode: true,
      explGround: true,
      wormCollide: true,
      collideWithObjects: false,
      affectByExplosions: true,
      bounce: 0,
      bounceFriction: 0.8,
      timeToExplo: 130,
      timeToExploV: 50,
      hitDamage: 0,
      bloodOnHit: 0,
      startFrame: 239,
      numFrames: 0,
      loopAnim: false,
      shotType: 0,
      repeat: 1,
      colorBullets: 0,
      splinterAmount: 1,
      splinterColour: 0,
      splinterType: 15,
      splinterScatter: 0,
      objTrailType: -1,
      objTrailDelay: 0,
      partTrailType: 0,
      partTrailObj: -1,
      partTrailDelay: 0,
      speed: 190
    },
    { // unused wid36
      detectDistance: 1,
      blowAway: 0.1,
      gravity: 0,
      exploSound: -1,
      addSpeed: 3,
      distribution: 0.0091552734375,
      multSpeed: 1,
      createOnExp: 10,
      dirtEffect: -1,
      wormExplode: true,
      explGround: true,
      wormCollide: true,
      collideWithObjects: false,
      affectByExplosions: false,
      bounce: 0,
      bounceFriction: 0.8,
      timeToExplo: 0,
      timeToExploV: 0,
      hitDamage: 2,
      bloodOnHit: 8,
      startFrame: 223,
      numFrames: 0,
      loopAnim: false,
      shotType: 3,
      repeat: 1,
      colorBullets: 0,
      splinterAmount: 0,
      splinterColour: 0,
      splinterType: -1,
      splinterScatter: 0,
      objTrailType: 6,
      objTrailDelay: 2,
      partTrailType: 0,
      partTrailObj: -1,
      partTrailDelay: 0,
      speed: 230
    },
    { // dartgun wid37
      detectDistance: 1,
      blowAway: 0.3,
      gravity: 0.0,
      exploSound: -1,
      addSpeed: 0,
      distribution: 0.02288818359375,
      multSpeed: 1,
      createOnExp: 19,
      dirtEffect: -1,
      wormExplode: true,
      explGround: false,
      wormCollide: true,
      collideWithObjects: false,
      affectByExplosions: false,
      bounce: 0,
      bounceFriction: 0.8,
      timeToExplo: 300,
      timeToExploV: 0,
      hitDamage: 9,
      bloodOnHit: 20,
      startFrame: 223,
      numFrames: 0,
      loopAnim: false,
      shotType: 1,
      repeat: 2,
      colorBullets: 0,
      splinterAmount: 0,
      splinterColour: 0,
      splinterType: -1,
      splinterScatter: 0,
      objTrailType: -1,
      objTrailDelay: 0,
      partTrailType: 0,
      partTrailObj: -1,
      partTrailDelay: 0,
      speed: 350
    },
    { // scattergun wid38
      detectDistance: 0,
      blowAway: 0.05,
      gravity: 0.01068115234375,
      exploSound: -1,
      addSpeed: 0,
      distribution: 0.25,
      multSpeed: 1,
      createOnExp: 2,
      dirtEffect: -1,
      wormExplode: false,
      explGround: true,
      wormCollide: true,
      collideWithObjects: false,
      affectByExplosions: false,
      bounce: 0,
      bounceFriction: 0.8,
      timeToExplo: 0,
      timeToExploV: 0,
      hitDamage: 3,
      bloodOnHit: 4,
      startFrame: -1,
      numFrames: 0,
      loopAnim: false,
      shotType: 1,
      repeat: 2,
      colorBullets: 68,
      splinterAmount: 1,
      splinterColour: 13,
      splinterType: 2,
      splinterScatter: 0,
      objTrailType: -1,
      objTrailDelay: 0,
      partTrailType: 0,
      partTrailObj: -1,
      partTrailDelay: 0,
      speed: 315
    },
    { // gaussgun wid39
      detectDistance: 1,
      blowAway: 0.2,
      gravity: 0,
      exploSound: -1,
      addSpeed: 0,
      distribution: 0,
      multSpeed: 1,
      createOnExp: 17,
      dirtEffect: -1,
      wormExplode: true,
      explGround: true,
      wormCollide: true,
      collideWithObjects: false,
      affectByExplosions: false,
      bounce: 0,
      bounceFriction: 0.8,
      timeToExplo: 0,
      timeToExploV: 0,
      hitDamage: 0,
      bloodOnHit: 20,
      startFrame: 196,
      numFrames: 0,
      loopAnim: false,
      shotType: 4,
      repeat: 8,
      colorBullets: 0,
      splinterAmount: 3,
      splinterColour: 67,
      splinterType: 17,
      splinterScatter: 0,
      objTrailType: -1,
      objTrailDelay: 0,
      partTrailType: 0,
      partTrailObj: -1,
      partTrailDelay: 0,
      speed: 200
    },
    { // grenade wid40
      detectDistance: 0,
      blowAway: 0,
      gravity: 0.01983642578125,
      exploSound: -1,
      addSpeed: 0,
      distribution: 0,
      multSpeed: 1,
      createOnExp: 20,
      dirtEffect: -1,
      wormExplode: false,
      explGround: false,
      wormCollide: false,
      collideWithObjects: false,
      affectByExplosions: true,
      bounce: 0.4,
      bounceFriction: 0.8,
      timeToExplo: 45,
      timeToExploV: 5,
      hitDamage: 0,
      bloodOnHit: 1,
      startFrame: 206,
      numFrames: 3,
      loopAnim: true,
      shotType: 0,
      repeat: 1,
      colorBullets: 0,
      splinterAmount: 30,
      splinterColour: 66,
      splinterType: 27,
      splinterScatter: 0,
      objTrailType: 0,
      objTrailDelay: 0,
      partTrailType: 0,
      partTrailObj: -1,
      partTrailDelay: 0,
      speed: 300
    },
    { // deadlygift wid41
      detectDistance: 10,
      blowAway: 1.1,
      gravity: 0.02288818359375,
      exploSound: -1,
      addSpeed: 0,
      distribution: 0.30517578125,
      multSpeed: 1,
      createOnExp: 0,
      dirtEffect: -1,
      wormExplode: true,
      explGround: false,
      wormCollide: true,
      collideWithObjects: false,
      affectByExplosions: false,
      bounce: 0.4,
      bounceFriction: 0.8,
      timeToExplo: 1200,
      timeToExploV: 0,
      hitDamage: 6,
      bloodOnHit: 20,
      startFrame: 533,
      numFrames: 0,
      loopAnim: false,
      shotType: 0,
      repeat: 1,
      colorBullets: 0,
      splinterAmount: 0,
      splinterColour: 24,
      splinterType: -1,
      splinterScatter: 0,
      objTrailType: -1,
      objTrailDelay: 0,
      partTrailType: 0,
      partTrailObj: -1,
      partTrailDelay: 0,
      speed: 100
    },
    { // christmas tree wid42
      detectDistance: 2,
      blowAway: 0,
      gravity: 0.0252587890625,
      exploSound: -1,
      addSpeed: 0,
      distribution: 0.1220703125,
      multSpeed: 1,
      createOnExp: 2,
      dirtEffect: -1,
      wormExplode: false,
      explGround: true,
      wormCollide: false,
      collideWithObjects: false,
      affectByExplosions: false,
      bounce: 0,
      bounceFriction: 0.8,
      timeToExplo: 0,
      timeToExploV: 0,
      hitDamage: 0,
      bloodOnHit: 0,
      startFrame: 173,
      numFrames: 3,
      loopAnim: true,
      shotType: 0,
      repeat: 1,
      colorBullets: 0,
      splinterAmount: 1,
      splinterColour: 66,
      splinterType: 28,
      splinterScatter: 0,
      objTrailType: -1,
      objTrailDelay: 0,
      partTrailType: 0,
      partTrailObj: -1,
      partTrailDelay: 0,
      speed: 100
    },
  ],
  nObjects: [
    { // worm part nid0
      detectDistance: 0,
      gravity: 0.0152587890625,
      speed: 1.2,
      speedV: 0.4,
      distribution: 0.1220703125,
      blowAway: 0,
      bounce: 0.1,
      hitDamage: 0,
      wormExplode: false,
      explGround: true,
      wormDestroy: true,
      bloodOnHit: 0,
      startFrame: 165,
      numFrames: 3,
      drawOnMap: true,
      colorBullets: 0,
      createOnExp: 4,
      affectByExplosions: false,
      dirtEffect: -1,
      splinterAmount: 0,
      splinterColour: 0,
      splinterType: -1,
      bloodTrail: true,
      bloodTrailDelay: 10,
      leaveObj: -1,
      leaveObjDelay: 0,
      timeToExplo: 8000,
      timeToExploV: 2000
    },
    { // worm part nid1
      detectDistance: 0,
      gravity: 0.0152587890625,
      speed: 1.2,
      speedV: 0.4,
      distribution: 0.1220703125,
      blowAway: 0,
      bounce: 0.1,
      hitDamage: 0,
      wormExplode: false,
      explGround: true,
      wormDestroy: true,
      bloodOnHit: 0,
      startFrame: 169,
      numFrames: 3,
      drawOnMap: true,
      colorBullets: 0,
      createOnExp: 4,
      affectByExplosions: false,
      dirtEffect: -1,
      splinterAmount: 0,
      splinterColour: 0,
      splinterType: -1,
      bloodTrail: true,
      bloodTrailDelay: 10,
      leaveObj: -1,
      leaveObjDelay: 0,
      timeToExplo: 8000,
      timeToExploV: 2000
    },
    { // non-damaging bullet splinter nid2
      detectDistance: 0,
      gravity: 0.01068115234375,
      speed: 2,
      speedV: 2,
      distribution: 0.152587890625,
      blowAway: 0,
      bounce: 0,
      hitDamage: 0,
      wormExplode: false,
      explGround: true,
      wormDestroy: false,
      bloodOnHit: 0,
      startFrame: 0,
      numFrames: 0,
      drawOnMap: false,
      colorBullets: 17,
      createOnExp: -1,
      affectByExplosions: false,
      dirtEffect: -1,
      splinterAmount: 0,
      splinterColour: 0,
      splinterType: -1,
      bloodTrail: false,
      bloodTrailDelay: 0,
      leaveObj: -1,
      leaveObjDelay: 0,
      timeToExplo: 30,
      timeToExploV: 15
    },
    { // small damage bullet splinter nid3
      detectDistance: 0,
      gravity: 0.01068115234375,
      speed: 1.6,
      speedV: 1.4,
      distribution: 0.030517578125,
      blowAway: 0.1,
      bounce: 0,
      hitDamage: 2,
      wormExplode: false,
      explGround: true,
      wormDestroy: true,
      bloodOnHit: 1,
      startFrame: 0,
      numFrames: 0,
      drawOnMap: false,
      colorBullets: 67,
      createOnExp: 2,
      affectByExplosions: false,
      dirtEffect: -1,
      splinterAmount: 0,
      splinterColour: 0,
      splinterType: -1,
      bloodTrail: false,
      bloodTrailDelay: 0,
      leaveObj: -1,
      leaveObjDelay: 0,
      timeToExplo: 0,
      timeToExploV: 0
    },
    { // mortar splinter final nid4
      detectDistance: 1,
      gravity: 0.01068115234375,
      speed: 4,
      speedV: 3,
      distribution: 0.030517578125,
      blowAway: 0.015,
      bounce: 0,
      hitDamage: 1.75,
      wormExplode: false,
      explGround: true,
      wormDestroy: true,
      bloodOnHit: 8,
      startFrame: 0,
      numFrames: 0,
      drawOnMap: false,
      colorBullets: 67,
      createOnExp: -1,
      affectByExplosions: false,
      dirtEffect: -1,
      splinterAmount: 0,
      splinterColour: 0,
      splinterType: -1,
      bloodTrail: false,
      bloodTrailDelay: 0,
      leaveObj: -1,
      leaveObjDelay: 0,
      timeToExplo: 16,
      timeToExploV: 12
    },
    { // high damage bullet splinter nid5
      detectDistance: 1,
      gravity: 0.01068115234375,
      speed: 4,
      speedV: 3,
      distribution: 0.030517578125,
      blowAway: 0.05,
      bounce: 0,
      hitDamage: 4,
      wormExplode: false,
      explGround: true,
      wormDestroy: true,
      bloodOnHit: 6,
      startFrame: 0,
      numFrames: 0,
      drawOnMap: false,
      colorBullets: 67,
      createOnExp: -1,
      affectByExplosions: false,
      dirtEffect: -1,
      splinterAmount: 0,
      splinterColour: 0,
      splinterType: -1,
      bloodTrail: false,
      bloodTrailDelay: 0,
      leaveObj: -1,
      leaveObjDelay: 0,
      timeToExplo: 18,
      timeToExploV: 5
    },
    { // nid6
      detectDistance: 0,
      gravity: 0.01068115234375,
      speed: 0.75,
      speedV: 0.4,
      distribution: 0.30517578125,
      blowAway: 0,
      bounce: 0,
      hitDamage: 0,
      wormExplode: false,
      explGround: true,
      wormDestroy: false,
      bloodOnHit: 0,
      startFrame: 0,
      numFrames: 0,
      drawOnMap: false,
      colorBullets: 50,
      createOnExp: -1,
      affectByExplosions: false,
      dirtEffect: -1,
      splinterAmount: 0,
      splinterColour: 0,
      splinterType: -1,
      bloodTrail: true,
      bloodTrailDelay: 10,
      leaveObj: -1,
      leaveObjDelay: 0,
      timeToExplo: 0,
      timeToExploV: 0
    },
    { // shell nid7
      detectDistance: 0,
      gravity: 0.0152587890625,
      speed: 0,
      speedV: 0,
      distribution: 0.1220703125,
      blowAway: 0,
      bounce: 0.4,
      hitDamage: 0,
      wormExplode: false,
      explGround: true,
      wormDestroy: true,
      bloodOnHit: 0,
      startFrame: 155,
      numFrames: 3,
      drawOnMap: true,
      colorBullets: 0,
      createOnExp: -1,
      affectByExplosions: false,
      dirtEffect: 5,
      splinterAmount: 0,
      splinterColour: 0,
      splinterType: -1,
      bloodTrail: false,
      bloodTrailDelay: 0,
      leaveObj: -1,
      leaveObjDelay: 0,
      timeToExplo: 4000,
      timeToExploV: 1000
    },
    { // clusterpart nid8
      detectDistance: 1,
      gravity: 0.0152587890625,
      speed: 2.2,
      speedV: 1.4,
      distribution: 0.152587890625,
      blowAway: 0,
      bounce: 0,
      hitDamage: 1,
      wormExplode: true,
      explGround: true,
      wormDestroy: true,
      bloodOnHit: 5,
      startFrame: 202,
      numFrames: 3,
      drawOnMap: false,
      colorBullets: 0,
      createOnExp: 1,
      affectByExplosions: false,
      dirtEffect: -1,
      splinterAmount: 8,
      splinterColour: 67,
      splinterType: 17,
      bloodTrail: false,
      bloodTrailDelay: 0,
      leaveObj: -1,
      leaveObjDelay: 0,
      timeToExplo: 0,
      timeToExploV: 0
    },
    { // tupolev bomb nid9
      detectDistance: 0,
      gravity: 0.0152587890625,
      speed: 2,
      speedV: 1,
      distribution: 0.1,
      blowAway: 0,
      bounce: 0.6,
      hitDamage: 0,
      wormExplode: false,
      explGround: false,
      wormDestroy: false,
      bloodOnHit: 0,
      startFrame: 177,
      numFrames: 0,
      drawOnMap: false,
      colorBullets: 0,
      createOnExp: 0,
      affectByExplosions: true,
      dirtEffect: -1,
      splinterAmount: 3,
      splinterColour: 75,
      splinterType: 5,
      bloodTrail: false,
      bloodTrailDelay: 0,
      leaveObj: 5,
      leaveObjDelay: 5,
      timeToExplo: 200,
      timeToExploV: 50
    },
    { // santaclaus bomb nid10
      detectDistance: 7,
      gravity: 0.030517578125,
      speed: 0,
      speedV: 0,
      distribution: 0,
      blowAway: 0.15,
      bounce: 0,
      hitDamage: 5,
      wormExplode: true,
      explGround: true,
      wormDestroy: true,
      bloodOnHit: 10,
      startFrame: 211,
      numFrames: 0,
      drawOnMap: false,
      colorBullets: 0,
      createOnExp: 0,
      affectByExplosions: false,
      dirtEffect: -1,
      splinterAmount: 8,
      splinterColour: 67,
      splinterType: 17,
      bloodTrail: false,
      bloodTrailDelay: 0,
      leaveObj: -1,
      leaveObjDelay: 0,
      timeToExplo: 0,
      timeToExploV: 0
    },
    { // mininuke part nid11
      detectDistance: 1,
      gravity: 0.0152587890625,
      speed: 2,
      speedV: 1.2,
      distribution: 0.25,
      blowAway: 0.4,
      bounce: 0.6,
      hitDamage: 1,
      wormExplode: true,
      explGround: false,
      wormDestroy: true,
      bloodOnHit: 40,
      startFrame: 177,
      numFrames: 0,
      drawOnMap: false,
      colorBullets: 0,
      createOnExp: 0,
      affectByExplosions: true,
      dirtEffect: -1,
      splinterAmount: 8,
      splinterColour: 67,
      splinterType: 17,
      bloodTrail: false,
      bloodTrailDelay: 0,
      leaveObj: 5,
      leaveObjDelay: 5,
      timeToExplo: 80,
      timeToExploV: 20
    },
    { // napalm trail nid12
      detectDistance: 0,
      gravity: 0.0152587890625,
      speed: 1.5,
      speedV: 0.9,
      distribution: 0.152587890625,
      blowAway: 0,
      bounce: 0,
      hitDamage: 0,
      wormExplode: false,
      explGround: true,
      wormDestroy: false,
      bloodOnHit: 0,
      startFrame: 0,
      numFrames: 0,
      drawOnMap: false,
      colorBullets: 10,
      createOnExp: 8,
      affectByExplosions: false,
      dirtEffect: -1,
      splinterAmount: 0,
      splinterColour: 0,
      splinterType: -1,
      bloodTrail: false,
      bloodTrailDelay: 0,
      leaveObj: 8,
      leaveObjDelay: 4,
      timeToExplo: 40,
      timeToExploV: 10
    },
    { // nid13
      detectDistance: 0,
      gravity: 0,
      speed: 4,
      speedV: 8,
      distribution: 0.152587890625,
      blowAway: 0,
      bounce: 1,
      hitDamage: 0,
      wormExplode: false,
      explGround: false,
      wormDestroy: false,
      bloodOnHit: 0,
      startFrame: 0,
      numFrames: 0,
      drawOnMap: false,
      colorBullets: 0,
      createOnExp: -1,
      affectByExplosions: false,
      dirtEffect: 4,
      splinterAmount: 0,
      splinterColour: 0,
      splinterType: -1,
      bloodTrail: false,
      bloodTrailDelay: 0,
      leaveObj: -1,
      leaveObjDelay: 0,
      timeToExplo: 1,
      timeToExploV: 0
    },
    { // banana nid14
      detectDistance: 1,
      gravity: 0.0152587890625,
      speed: 2.2,
      speedV: 1.5,
      distribution: 0.152587890625,
      blowAway: 0,
      bounce: 0,
      hitDamage: 4,
      wormExplode: true,
      explGround: true,
      wormDestroy: true,
      bloodOnHit: 10,
      startFrame: 219,
      numFrames: 3,
      drawOnMap: false,
      colorBullets: 0,
      createOnExp: 16,
      affectByExplosions: false,
      dirtEffect: -1,
      splinterAmount: 15,
      splinterColour: 66,
      splinterType: 15,
      bloodTrail: false,
      bloodTrailDelay: 0,
      leaveObj: -1,
      leaveObjDelay: 0,
      timeToExplo: 0,
      timeToExploV: 0
    },
    { // new bazooka explosion nid15
      detectDistance: 0,
      gravity: 0,
      speed: 3,
      speedV: 3,
      distribution: 0,
      blowAway: 0,
      bounce: 0,
      hitDamage: 0,
      wormExplode: false,
      explGround: true,
      wormDestroy: false,
      bloodOnHit: 0,
      startFrame: 0,
      numFrames: 0,
      drawOnMap: false,
      colorBullets: 0,
      createOnExp: 14,
      affectByExplosions: false,
      dirtEffect: -1,
      splinterAmount: 4,
      splinterColour: 0,
      splinterType: 17,
      bloodTrail: false,
      bloodTrailDelay: 0,
      leaveObj: -1,
      leaveObjDelay: 0,
      timeToExplo: 5,
      timeToExploV: 5
    },
    { // new bazooka smoke nid16
      detectDistance: 1,
      gravity: -0.05,
      speed: 0,
      speedV: 0,
      distribution: 0.5,
      blowAway: 0,
      bounce: 1,
      hitDamage: 0,
      wormExplode: false,
      explGround: false,
      wormDestroy: false,
      bloodOnHit: 0,
      startFrame: 65,
      numFrames: 3,
      drawOnMap: false,
      colorBullets: 0,
      createOnExp: -1,
      affectByExplosions: false,
      dirtEffect: -1,
      splinterAmount: 0,
      splinterColour: 0,
      splinterType: 0,
      bloodTrail: false,
      bloodTrailDelay: 0,
      leaveObj: -1,
      leaveObjDelay: 0,
      timeToExplo: 30,
      timeToExploV: 15
    },
    { // smoke delay nid17
      detectDistance: 0,
      gravity: 0,
      speed: 0,
      speedV: 0,
      distribution: 0,
      blowAway: 0,
      bounce: 0,
      hitDamage: 0,
      wormExplode: false,
      explGround: false,
      wormDestroy: false,
      bloodOnHit: 0,
      startFrame: -1,
      numFrames: 0,
      drawOnMap: false,
      colorBullets: 0,
      createOnExp: -1,
      affectByExplosions: false,
      dirtEffect: -1,
      splinterAmount: 1,
      splinterColour: 0,
      splinterType: 16,
      bloodTrail: false,
      bloodTrailDelay: 0,
      leaveObj: -1,
      leaveObjDelay: 0,
      timeToExplo: 20,
      timeToExploV: 10
    },
    { // light banana nid18
      detectDistance: 1,
      gravity: 0.0152587890625,
      speed: 2.2,
      speedV: 1.5,
      distribution: 0.152587890625,
      blowAway: 0,
      bounce: 0,
      hitDamage: 4,
      wormExplode: true,
      explGround: true,
      wormDestroy: true,
      bloodOnHit: 10,
      startFrame: 219,
      numFrames: 3,
      drawOnMap: false,
      colorBullets: 0,
      createOnExp: 0,
      affectByExplosions: false,
      dirtEffect: -1,
      splinterAmount: 8,
      splinterColour: 67,
      splinterType: 17,
      bloodTrail: false,
      bloodTrailDelay: 0,
      leaveObj: -1,
      leaveObjDelay: 0,
      timeToExplo: 0,
      timeToExploV: 0
    },
    { // mortar splinter #1 nid19
      detectDistance: 0,
      gravity: 0.01068115234375,
      speed: 4,
      speedV: 0,
      distribution: 0.030517578125,
      blowAway: 0.05,
      bounce: 0,
      hitDamage: 4,
      wormExplode: false,
      explGround: false,
      wormDestroy: true,
      bloodOnHit: 5,
      startFrame: 0,
      numFrames: 0,
      drawOnMap: false,
      colorBullets: 3,
      createOnExp: -1,
      affectByExplosions: false,
      dirtEffect: -1,
      splinterAmount: 1,
      splinterColour: 67,
      splinterType: 20,
      bloodTrail: false,
      bloodTrailDelay: 0,
      leaveObj: -1,
      leaveObjDelay: 0,
      timeToExplo: 15,
      timeToExploV: 0
    },
    { // mortar splinter #2 nid20
      detectDistance: 0,
      gravity: 0.01068115234375,
      speed: 1,
      speedV: 0.1,
      distribution: 0.0001,
      blowAway: 0.05,
      bounce: 0,
      hitDamage: 6,
      wormExplode: false,
      explGround: false,
      wormDestroy: true,
      bloodOnHit: 5,
      startFrame: 0,
      numFrames: 0,
      drawOnMap: false,
      colorBullets: 67,
      createOnExp: -1,
      affectByExplosions: false,
      dirtEffect: -1,
      splinterAmount: 0,
      splinterColour: 0,
      splinterType: -1,
      bloodTrail: false,
      bloodTrailDelay: 0,
      leaveObj: -1,
      leaveObjDelay: 0,
      timeToExplo: 5,
      timeToExploV: 0
    },
    { // mortar splinter delayer nid21
      detectDistance: 0,
      gravity: 0,
      speed: 1,
      speedV: 0,
      distribution: 0.3,
      blowAway: 0,
      bounce: 0,
      hitDamage: 0,
      wormExplode: false,
      explGround: false,
      wormDestroy: false,
      bloodOnHit: 0,
      startFrame: 0,
      numFrames: 0,
      drawOnMap: false,
      colorBullets: 67,
      createOnExp: -1,
      affectByExplosions: false,
      dirtEffect: -1,
      splinterAmount: 10,
      splinterColour: 3,
      splinterType: 4,
      bloodTrail: false,
      bloodTrailDelay: 0,
      leaveObj: -1,
      leaveObjDelay: 0,
      timeToExplo: 5,
      timeToExploV: 2
    },
    { // nid22
      detectDistance: 1,
      gravity: 0.0152587890625,
      speed: 1.2,
      speedV: 0.4,
      distribution: 0.152587890625,
      blowAway: 0,
      bounce: 0.4,
      hitDamage: 1,
      wormExplode: true,
      explGround: false,
      wormDestroy: true,
      bloodOnHit: 0,
      startFrame: 239,
      numFrames: 0,
      drawOnMap: false,
      colorBullets: 0,
      createOnExp: 1,
      affectByExplosions: true,
      dirtEffect: -1,
      splinterAmount: 1,
      splinterColour: 0,
      splinterType: 23,
      bloodTrail: false,
      bloodTrailDelay: 0,
      leaveObj: -1,
      leaveObjDelay: 0,
      timeToExplo: 70,
      timeToExploV: 60
    },
    { // nid23
      detectDistance: 1,
      gravity: 0.0152587890625,
      speed: 1.2,
      speedV: 0.4,
      distribution: 0.152587890625,
      blowAway: 0,
      bounce: 0.4,
      hitDamage: 1,
      wormExplode: true,
      explGround: false,
      wormDestroy: true,
      bloodOnHit: 0,
      startFrame: 239,
      numFrames: 0,
      drawOnMap: false,
      colorBullets: 0,
      createOnExp: 10,
      affectByExplosions: true,
      dirtEffect: -1,
      splinterAmount: 0,
      splinterColour: 0,
      splinterType: -1,
      bloodTrail: false,
      bloodTrailDelay: 0,
      leaveObj: -1,
      leaveObjDelay: 0,
      timeToExplo: 70,
      timeToExploV: 60
    },
    { // crackfield particle + marker nid24
      detectDistance: 0,
      gravity: 0,
      speed: 5,
      speedV: 0.05,
      distribution: 0.030517578125,
      blowAway: 0.03,
      bounce: 0,
      hitDamage: 2,
      wormExplode: true,
      explGround: false,
      wormDestroy: true,
      bloodOnHit: 5,
      startFrame: 0,
      numFrames: 0,
      drawOnMap: false,
      colorBullets: 12,
      createOnExp: 18,
      affectByExplosions: false,
      dirtEffect: 2,
      splinterAmount: 0,
      splinterColour: 0,
      splinterType: -1,
      bloodTrail: false,
      bloodTrailDelay: 0,
      leaveObj: -1,
      leaveObjDelay: 0,
      timeToExplo: 7,
      timeToExploV: 0
    },
    { // new missile explosion nid25
      detectDistance: 0,
      gravity: 0,
      speed: 3,
      speedV: 3,
      distribution: 0,
      blowAway: 0,
      bounce: 0,
      hitDamage: 0,
      wormExplode: false,
      explGround: true,
      wormDestroy: false,
      bloodOnHit: 0,
      startFrame: 0,
      numFrames: 0,
      drawOnMap: false,
      colorBullets: 0,
      createOnExp: 14,
      affectByExplosions: false,
      dirtEffect: -1,
      splinterAmount: 4,
      splinterColour: 0,
      splinterType: 17,
      bloodTrail: false,
      bloodTrailDelay: 0,
      leaveObj: -1,
      leaveObjDelay: 0,
      timeToExplo: 2,
      timeToExploV: 2
    },
    { // flamer hot smoke nid26
      detectDistance: 1,
      gravity: -0.05,
      speed: 0,
      speedV: 0,
      distribution: 0.5,
      blowAway: 0,
      bounce: 0.2,
      hitDamage: 0.1,
      wormExplode: false,
      explGround: false,
      wormDestroy: false,
      bloodOnHit: 0,
      startFrame: 65,
      numFrames: 3,
      drawOnMap: false,
      colorBullets: 0,
      createOnExp: -1,
      affectByExplosions: false,
      dirtEffect: -1,
      splinterAmount: 0,
      splinterColour: 0,
      splinterType: 0,
      bloodTrail: false,
      bloodTrailDelay: 0,
      leaveObj: -1,
      leaveObjDelay: 0,
      timeToExplo: 15,
      timeToExploV: 10
    },
    { // grenade explosion nid27
      detectDistance: 0,
      gravity: -1.4,
      speed: 2,
      speedV: 2.5,
      distribution: 0,
      blowAway: 0,
      bounce: 0,
      hitDamage: 0,
      wormExplode: false,
      explGround: true,
      wormDestroy: false,
      bloodOnHit: 0,
      startFrame: 0,
      numFrames: 0,
      drawOnMap: false,
      colorBullets: 0,
      createOnExp: 14,
      affectByExplosions: false,
      dirtEffect: -1,
      splinterAmount: 4,
      splinterColour: 0,
      splinterType: 17,
      bloodTrail: false,
      bloodTrailDelay: 0,
      leaveObj: -1,
      leaveObjDelay: 0,
      timeToExplo: 4,
      timeToExploV: 4
    },
    { // christmas tree nid28
      detectDistance: 12,
      gravity: 0.01068115234375,
      speed: 0,
      speedV: 0,
      distribution: 0,
      blowAway: 0,
      bounce: 0,
      hitDamage: -0.5,
      wormExplode: false,
      explGround: false,
      wormDestroy: false,
      bloodOnHit: 0,
      startFrame: 516,
      numFrames: 0,
      drawOnMap: false,
      colorBullets: 123,
      createOnExp: -1,
      affectByExplosions: false,
      dirtEffect: 0,
      splinterAmount: 30,
      splinterColour: 123,
      splinterType: 29,
      bloodTrail: false,
      bloodTrailDelay: 0,
      leaveObj: -1,
      leaveObjDelay: 0,
      timeToExplo: 150,
      timeToExploV: 0
    },
    { // christmas tree explosion first stage nid29
      detectDistance: 0,
      gravity: -1.4,
      speed: 2,
      speedV: 1,
      distribution: 0,
      blowAway: 0,
      bounce: 0,
      hitDamage: 0,
      wormExplode: false,
      explGround: true,
      wormDestroy: false,
      bloodOnHit: 0,
      startFrame: 0,
      numFrames: 0,
      drawOnMap: false,
      colorBullets: 123,
      createOnExp: 14,
      affectByExplosions: false,
      dirtEffect: -1,
      splinterAmount: 1,
      splinterColour: 123,
      splinterType: 30,
      bloodTrail: false,
      bloodTrailDelay: 0,
      leaveObj: -1,
      leaveObjDelay: 0,
      timeToExplo: 5,
      timeToExploV: 4
    },
    { // christmas tree explosion second stage nid30
      detectDistance: 0,
      gravity: 0,
      speed: 1,
      speedV: 0,
      distribution: 0.3,
      blowAway: 0,
      bounce: 0,
      hitDamage: 0,
      wormExplode: false,
      explGround: false,
      wormDestroy: false,
      bloodOnHit: 0,
      startFrame: 0,
      numFrames: 0,
      drawOnMap: false,
      colorBullets: 123,
      createOnExp: -1,
      affectByExplosions: false,
      dirtEffect: -1,
      splinterAmount: 10,
      splinterColour: 123,
      splinterType: 4,
      bloodTrail: false,
      bloodTrailDelay: 0,
      leaveObj: -1,
      leaveObjDelay: 0,
      timeToExplo: 5,
      timeToExploV: 2
    },
    { // snowball splinter nid31
      detectDistance: 1,
      gravity: 0.01068115234375,
      speed: 1.6,
      speedV: 0.5,
      distribution: 0.030517578125,
      blowAway: 0.1,
      bounce: 0,
      hitDamage: 0.5,
      wormExplode: false,
      explGround: true,
      wormDestroy: true,
      bloodOnHit: 1,
      startFrame: 0,
      numFrames: 0,
      drawOnMap: false,
      colorBullets: 69,
      createOnExp: -1,
      affectByExplosions: false,
      dirtEffect: -1,
      splinterAmount: 0,
      splinterColour: 0,
      splinterType: -1,
      bloodTrail: false,
      bloodTrailDelay: 0,
      leaveObj: -1,
      leaveObjDelay: 0,
      timeToExplo: 15,
      timeToExploV: 2
    },
  ],
  sObjects: [
    { // large explosion sid0
      startSound: 9,
      numSounds: 4,
      animDelay: 2,
      startFrame: 40,
      numFrames: 15,
      detectRange: 20,
      damage: 15,
      blowAway: 0.035,
      shadow: true,
      shake: 4,
      flash: 8,
      dirtEffect: 0
    },
    { // medium explosion sid1
      startSound: 9,
      numSounds: 4,
      animDelay: 2,
      startFrame: 45,
      numFrames: 10,
      detectRange: 14,
      damage: 10,
      blowAway: 0.035,
      shadow: true,
      shake: 2,
      flash: 4,
      dirtEffect: 1
    },
    { // small explosion sid2
      startSound: 7,
      numSounds: 2,
      animDelay: 2,
      startFrame: 50,
      numFrames: 5,
      detectRange: 8,
      damage: 0.1,
      blowAway: 0.035,
      shadow: true,
      shake: 1,
      flash: 0,
      dirtEffect: 2
    },
    { // smoke sid3
      startSound: -1,
      numSounds: 0,
      animDelay: 4,
      startFrame: 64,
      numFrames: 4,
      detectRange: 0,
      damage: 0,
      blowAway: 0,
      shadow: false,
      shake: 0,
      flash: 0,
      dirtEffect: -1
    },
    { // zimm explosion sid4
      startSound: -1,
      numSounds: 0,
      animDelay: 2,
      startFrame: 100,
      numFrames: 1,
      detectRange: 0,
      damage: 0,
      blowAway: 0,
      shadow: true,
      shake: 0,
      flash: 0,
      dirtEffect: 5
    },
    { // sid5
      startSound: -1,
      numSounds: 0,
      animDelay: 2,
      startFrame: 104,
      numFrames: 3,
      detectRange: 0,
      damage: 0,
      blowAway: 0,
      shadow: false,
      shake: 0,
      flash: 0,
      dirtEffect: -1
    },
    { // minicocket trail sid6
      startSound: -1,
      numSounds: 0,
      animDelay: 2,
      startFrame: 76,
      numFrames: 2,
      detectRange: 0,
      damage: 0,
      blowAway: 0,
      shadow: true,
      shake: 0,
      flash: 0,
      dirtEffect: -1
    },
    { // sid7
      startSound: -1,
      numSounds: 0,
      animDelay: 2,
      startFrame: 91,
      numFrames: 4,
      detectRange: 0,
      damage: 0,
      blowAway: 0,
      shadow: true,
      shake: 0,
      flash: 0,
      dirtEffect: -1
    },
    { // sid8
      startSound: -1,
      numSounds: 0,
      animDelay: 2,
      startFrame: 49,
      numFrames: 6,
      detectRange: 8,
      damage: 7,
      blowAway: 0,
      shadow: true,
      shake: 0,
      flash: 0,
      dirtEffect: 2
    },
    { // sid9
      startSound: -1,
      numSounds: 0,
      animDelay: 2,
      startFrame: 53,
      numFrames: 2,
      detectRange: 6,
      damage: 0,
      blowAway: 0,
      shadow: true,
      shake: 0,
      flash: 0,
      dirtEffect: 5
    },
    { // sid10
      startSound: 9,
      numSounds: 4,
      animDelay: 2,
      startFrame: 47,
      numFrames: 8,
      detectRange: 10,
      damage: 8,
      blowAway: 0.0457763671875,
      shadow: true,
      shake: 2,
      flash: 3,
      dirtEffect: 8
    },
    { // sid11
      startSound: 9,
      numSounds: 4,
      animDelay: 2,
      startFrame: 42,
      numFrames: 13,
      detectRange: 15,
      damage: 13,
      blowAway: 0.0457763671875,
      shadow: true,
      shake: 3,
      flash: 6,
      dirtEffect: 1
    },
    { // sid12
      startSound: 9,
      numSounds: 4,
      animDelay: 2,
      startFrame: 44,
      numFrames: 11,
      detectRange: 14,
      damage: 12,
      blowAway: 0.0457763671875,
      shadow: true,
      shake: 3,
      flash: 5,
      dirtEffect: 1
    },
    { // sid13
      startSound: -1,
      numSounds: 0,
      animDelay: 0,
      startFrame: 0,
      numFrames: 0,
      detectRange: 0,
      damage: 0,
      blowAway: 1.0039215087890625,
      shadow: false,
      shake: 0,
      flash: 0,
      dirtEffect: -1
    },
    { // large explosion visual sid14
      startSound: -1,
      numSounds: 0,
      animDelay: 2,
      startFrame: 40,
      numFrames: 15,
      detectRange: 0,
      damage: 0,
      blowAway: 0,
      shadow: true,
      shake: 0,
      flash: 0,
      dirtEffect: -1
    },
    { // smoke sid15
      startSound: -1,
      numSounds: 0,
      animDelay: 4,
      startFrame: 65,
      numFrames: 3,
      detectRange: 0,
      damage: 0,
      blowAway: 0,
      shadow: false,
      shake: 0,
      flash: 0,
      dirtEffect: -1
    },
    { // large aoe explosion sid16
      startSound: 9,
      numSounds: 4,
      animDelay: 2,
      startFrame: 40,
      numFrames: 15,
      detectRange: 26,
      damage: 40,
      blowAway: 0.04,
      shadow: true,
      shake: 4,
      flash: 8,
      dirtEffect: 0
    },
    { // gauss explosion sid17
      startSound: 9,
      numSounds: 4,
      animDelay: 2,
      startFrame: 45,
      numFrames: 10,
      detectRange: 15,
      damage: 11,
      blowAway: 0.0457763671875,
      shadow: true,
      shake: 2,
      flash: 4,
      dirtEffect: 1
    },
    { // tiny long explosion sid18
      startSound: -1,
      numSounds: 0,
      animDelay: 10,
      startFrame: 76,
      numFrames: 2,
      detectRange: 0,
      damage: 0,
      blowAway: 0,
      shadow: false,
      shake: 0,
      flash: 0,
      dirtEffect: -1
    },
    { // small smoke sid19
      startSound: -1,
      numSounds: 0,
      animDelay: 3,
      startFrame: 65,
      numFrames: 3,
      detectRange: 0,
      damage: 0,
      blowAway: 0,
      shadow: false,
      shake: 0,
      flash: 0,
      dirtEffect: -1
    },
    { // very large aoe explosion sid20
      startSound: 9,
      numSounds: 4,
      animDelay: 2,
      startFrame: 40,
      numFrames: 15,
      detectRange: 27,
      damage: 45,
      blowAway: 0.04,
      shadow: true,
      shake: 4,
      flash: 8,
      dirtEffect: 0
    },
    { // lightning trail sid21
      startSound: -1,
      numSounds: 0,
      animDelay: 1,
      startFrame: 76,
      numFrames: 1,
      detectRange: 0,
      damage: 0,
      blowAway: 0,
      shadow: true,
      shake: 0,
      flash: 0,
      dirtEffect: -1
    },
    { // mortar kick sid22
      startSound: 9,
      numSounds: 4,
      animDelay: 2,
      startFrame: 40,
      numFrames: 15,
      detectRange: 21,
      damage: 60,
      blowAway: 0.085,
      shadow: true,
      shake: 4,
      flash: 8,
      dirtEffect: 0
    },
    { // proxy mine aoe explosion sid23
      startSound: 9,
      numSounds: 4,
      animDelay: 2,
      startFrame: 40,
      numFrames: 15,
      detectRange: 26,
      damage: 50,
      blowAway: 0.08,
      shadow: true,
      shake: 4,
      flash: 8,
      dirtEffect: 0
    },
    { // large non-aoe explosion sid24
      startSound: 9,
      numSounds: 4,
      animDelay: 2,
      startFrame: 40,
      numFrames: 15,
      detectRange: 20,
      damage: 15,
      blowAway: 0.04,
      shadow: true,
      shake: 4,
      flash: 8,
      dirtEffect: 0
    },
    { // dynamite trail sid25
      startSound: -1,
      numSounds: 0,
      animDelay: 1,
      startFrame: 76,
      numFrames: 2,
      detectRange: 0,
      damage: 0,
      blowAway: 0,
      shadow: true,
      shake: 0,
      flash: 0,
      dirtEffect: -1
    },
    { // sid26 solar burn
      startSound: -1,
      numSounds: 0,
      animDelay: 3,
      startFrame: 51,
      numFrames: 4,
      detectRange: 6,
      damage: 0,
      blowAway: 0,
      shadow: true,
      shake: 0,
      flash: 0,
      dirtEffect: 5
    },
  ],
  textures: [
    {
      nDrawBack: true,
      mFrame: 0,
      sFrame: 73,
      rFrame: 2
    },
    {
      nDrawBack: true,
      mFrame: 1,
      sFrame: 73,
      rFrame: 2
    },
    {
      nDrawBack: true,
      mFrame: 2,
      sFrame: 73,
      rFrame: 2
    },
    {
      nDrawBack: true,
      mFrame: 37,
      sFrame: 73,
      rFrame: 2
    },
    {
      nDrawBack: false,
      mFrame: 0,
      sFrame: 87,
      rFrame: 2
    },
    {
      nDrawBack: true,
      mFrame: 39,
      sFrame: 73,
      rFrame: 2
    },
    {
      nDrawBack: false,
      mFrame: 38,
      sFrame: 82,
      rFrame: 2
    },
    {
      nDrawBack: true,
      mFrame: 99,
      sFrame: 73,
      rFrame: 2
    },
    {
      nDrawBack: true,
      mFrame: 37,
      sFrame: 73,
      rFrame: 2
    }
  ],
  colorAnim: [
    129,
    131,
    133,
    136,
    152,
    159,
    168,
    171
  ],
  textSpritesStartIdx: 240,
  crossHairSprite: 153
}