{
  "name":"Space Liero",
  "soundpack":"promode.zip",
  "constants":
  {
    "nrInitialLength": 250,
    "nrAttachLength": 28.125,
    "minBounceUp": -0.8125,
    "minBounceDown": 0.8125,
    "minBounceHoriz": 0.8125,
    "wormGravity": 0.00762939453125,
    "wormAcc": 0.0457763671875,
    "wormMaxVel": 0.4453125,
    "jumpForce": 0.030517578125,
    "maxAimVel": 0.05243098363280296,
    "aimAcc": 0.002996056340634823,
    "ninjaropeGravity": 0,
    "nrMinLength": 6.25,
    "nrMaxLength": 375,
    "bonusGravity": 0,
    "wormFricMult": 0.8899999856948853,
    "aimFric": 0.8299999833106995,
    "nrThrowVel": 8,
    "nrForce": 0.0833333358168602,
    "bonusBounce": 0.4000000059604645,
    "bonusFlickerTime": 220,
    "aimMaxAngle": 1.5707963705062866,
    "aimMinAngle": -1.5217089653015137,
    "nrAdjustVel": 1.5,
    "nrColourBegin": 234,
    "nrColourEnd": 255,
    "bonusExplodeRisk": 10,
    "bonusHealthVar": 51,
    "bonusMinHealth": 10,
    "firstBloodColour": 234,
    "numBloodColours": 11,
    "bObjGravity": 0.00152587890625,
    "splinterLarpaVelDiv": 3,
    "splinterCracklerVelDiv": 3,
    "fallDamageHoriz": 0,
    "fallDamageDown": 0,
    "fallDamageUp": 0,
    "hFallDamage": false,
    "hBonusReloadOnly": false
  },
  "weapons":
  [
    {
      "parts": 30,
      "bulletType": 0,
      "bulletSpeed": 2.5,
      "bulletSpeedInherit": 0.4000000059604645,
      "distribution": 0.18310546875,
      "recoil": 0.550000011920929,
      "ammo": 5,
      "delay": 50,
      "loadingTime": 400,
      "leaveShells": 1,
      "leaveShellDelay": 28,
      "fireCone": 9,
      "laserSight": false,
      "laserBeam": false,
      "launchSound": 0,
      "playReloadSound": true,
      "name": "SPACE SG"
    },
    {
      "parts": 1,
      "bulletType": 1,
      "bulletSpeed": 3,
      "bulletSpeedInherit": 0.3333333432674408,
      "distribution": 0,
      "recoil": 0,
      "ammo": 50,
      "delay": 5,
      "loadingTime": 600,
      "leaveShells": 0,
      "leaveShellDelay": 1,
      "fireCone": 10,
      "laserSight": false,
      "laserBeam": false,
      "launchSound": 5,
      "playReloadSound": true,
      "name": "RIPPER GUN"
    },
    {
      "parts": 1,
      "bulletType": 2,
      "bulletSpeed": 2.5,
      "bulletSpeedInherit": 0,
      "distribution": 0,
      "recoil": 0.20000000298023224,
      "ammo": 5,
      "delay": 50,
      "loadingTime": 600,
      "leaveShells": 0,
      "leaveShellDelay": 1,
      "fireCone": 0,
      "laserSight": false,
      "laserBeam": false,
      "launchSound": 5,
      "playReloadSound": true,
      "name": "SPACE BOMB"
    },
    {
      "parts": 1,
      "bulletType": 3,
      "bulletSpeed": 2,
      "bulletSpeedInherit": 0,
      "distribution": 0.0274658203125,
      "recoil": 0,
      "ammo": 80,
      "delay": 0,
      "loadingTime": 1000,
      "leaveShells": 0,
      "leaveShellDelay": 1,
      "fireCone": 0,
      "laserSight": true,
      "laserBeam": false,
      "launchSound": -1,
      "playReloadSound": true,
      "name": "COSMIC RAY"
    },
    {
      "parts": 1,
      "bulletType": 4,
      "bulletSpeed": 2,
      "bulletSpeedInherit": 0,
      "distribution": 0,
      "recoil": 0.20000000298023224,
      "ammo": 1,
      "delay": 20,
      "loadingTime": 100,
      "leaveShells": 0,
      "leaveShellDelay": 1,
      "fireCone": 0,
      "laserSight": true,
      "laserBeam": false,
      "launchSound": -1,
      "playReloadSound": true,
      "name": "BEAM RIFLE"
    },
    {
      "parts": 1,
      "bulletType": 5,
      "bulletSpeed": 1,
      "bulletSpeedInherit": 1,
      "distribution": 0,
      "recoil": 0,
      "ammo": 1,
      "delay": 100,
      "loadingTime": 700,
      "leaveShells": 0,
      "leaveShellDelay": 1,
      "fireCone": 0,
      "laserSight": false,
      "laserBeam": false,
      "launchSound": 5,
      "playReloadSound": false,
      "name": "SUBSHIP"
    },
    {
      "parts": 1,
      "bulletType": 6,
      "bulletSpeed": 1,
      "bulletSpeedInherit": 1,
      "distribution": 0,
      "recoil": 0,
      "ammo": 1,
      "delay": 100,
      "loadingTime": 500,
      "leaveShells": 0,
      "leaveShellDelay": 1,
      "fireCone": 0,
      "laserSight": false,
      "laserBeam": false,
      "launchSound": 5,
      "playReloadSound": false,
      "name": "ASTEROIDFIELD"
    },
    {
      "parts": 1,
      "bulletType": 7,
      "bulletSpeed": 1,
      "bulletSpeedInherit": 0,
      "distribution": 0,
      "recoil": 0.30000001192092896,
      "ammo": 1,
      "delay": 35,
      "loadingTime": 200,
      "leaveShells": 0,
      "leaveShellDelay": 1,
      "fireCone": 8,
      "laserSight": false,
      "laserBeam": false,
      "launchSound": -1,
      "playReloadSound": true,
      "name": "PLASMA ORB"
    },
    {
      "parts": 2,
      "bulletType": 8,
      "bulletSpeed": 0.10000000149011612,
      "bulletSpeedInherit": 0,
      "distribution": 0.00152587890625,
      "recoil": 1,
      "ammo": 8,
      "delay": 50,
      "loadingTime": 500,
      "leaveShells": 0,
      "leaveShellDelay": 1,
      "fireCone": 10,
      "laserSight": false,
      "laserBeam": false,
      "launchSound": 6,
      "playReloadSound": true,
      "name": "ROCKETS"
    },
    {
      "parts": 3,
      "bulletType": 9,
      "bulletSpeed": 2,
      "bulletSpeedInherit": 0,
      "distribution": 0.30517578125,
      "recoil": 0,
      "ammo": 100,
      "delay": 2,
      "loadingTime": 320,
      "leaveShells": 0,
      "leaveShellDelay": 1,
      "fireCone": 0,
      "laserSight": false,
      "laserBeam": false,
      "launchSound": -1,
      "playReloadSound": false,
      "name": "PLASMATHROWER"
    },
    {
      "parts": 1,
      "bulletType": 10,
      "bulletSpeed": 2.200000047683716,
      "bulletSpeedInherit": 0,
      "distribution": 0,
      "recoil": 0,
      "ammo": 1,
      "delay": 10,
      "loadingTime": 240,
      "leaveShells": 0,
      "leaveShellDelay": 1,
      "fireCone": 0,
      "laserSight": true,
      "laserBeam": false,
      "launchSound": -1,
      "playReloadSound": false,
      "name": "BEAM CANNON"
    },
    {
      "parts": 5,
      "bulletType": 11,
      "bulletSpeed": 4,
      "bulletSpeedInherit": 0,
      "distribution": 0.4999847412109375,
      "recoil": 0,
      "ammo": 1,
      "delay": 50,
      "loadingTime": 100,
      "leaveShells": 0,
      "leaveShellDelay": 1,
      "fireCone": 0,
      "laserSight": false,
      "laserBeam": false,
      "launchSound": 5,
      "playReloadSound": true,
      "name": "MERCURIUS"
    },
    {
      "parts": 1,
      "bulletType": 12,
      "bulletSpeed": 1,
      "bulletSpeedInherit": 1,
      "distribution": 0,
      "recoil": 0,
      "ammo": 1,
      "delay": 80,
      "loadingTime": 400,
      "leaveShells": 0,
      "leaveShellDelay": 1,
      "fireCone": 0,
      "laserSight": false,
      "laserBeam": false,
      "launchSound": 13,
      "playReloadSound": true,
      "name": "SHIELD"
    },
    {
      "parts": 1,
      "bulletType": 13,
      "bulletSpeed": 1,
      "bulletSpeedInherit": 0,
      "distribution": 0,
      "recoil": 0,
      "ammo": 10,
      "delay": 40,
      "loadingTime": 400,
      "leaveShells": 0,
      "leaveShellDelay": 1,
      "fireCone": 0,
      "laserSight": false,
      "laserBeam": false,
      "launchSound": 5,
      "playReloadSound": false,
      "name": "RAILGUN"
    },
    {
      "parts": 1,
      "bulletType": 14,
      "bulletSpeed": 2.5,
      "bulletSpeedInherit": 0.4000000059604645,
      "distribution": 0.091552734375,
      "recoil": 0.05000000074505806,
      "ammo": 80,
      "delay": 1,
      "loadingTime": 500,
      "leaveShells": 4,
      "leaveShellDelay": 1,
      "fireCone": 6,
      "laserSight": false,
      "laserBeam": false,
      "launchSound": 1,
      "playReloadSound": true,
      "name": "SPACE MG"
    },
    {
      "parts": 3,
      "bulletType": 15,
      "bulletSpeed": 2,
      "bulletSpeedInherit": 0,
      "distribution": 0.274658203125,
      "recoil": 0.10000000149011612,
      "ammo": 5,
      "delay": 20,
      "loadingTime": 600,
      "leaveShells": 0,
      "leaveShellDelay": 1,
      "fireCone": 10,
      "laserSight": false,
      "laserBeam": false,
      "launchSound": 6,
      "playReloadSound": false,
      "name": "COMET GUN"
    },
    {
      "parts": 2,
      "bulletType": 16,
      "bulletSpeed": 1.7000000476837158,
      "bulletSpeedInherit": 0.5882352590560913,
      "distribution": 0.274658203125,
      "recoil": 0.05000000074505806,
      "ammo": 10,
      "delay": 7,
      "loadingTime": 600,
      "leaveShells": 0,
      "leaveShellDelay": 28,
      "fireCone": 10,
      "laserSight": false,
      "laserBeam": false,
      "launchSound": 4,
      "playReloadSound": true,
      "name": "HOMINGROCKETS"
    },
    {
      "parts": 1,
      "bulletType": 17,
      "bulletSpeed": 2,
      "bulletSpeedInherit": 0,
      "distribution": 0,
      "recoil": 0.20000000298023224,
      "ammo": 1,
      "delay": 20,
      "loadingTime": 250,
      "leaveShells": 0,
      "leaveShellDelay": 1,
      "fireCone": 0,
      "laserSight": false,
      "laserBeam": false,
      "launchSound": 5,
      "playReloadSound": true,
      "name": "FLASH STICK"
    },
    {
      "parts": 1,
      "bulletType": 18,
      "bulletSpeed": 2,
      "bulletSpeedInherit": 0,
      "distribution": 0,
      "recoil": 0,
      "ammo": 1,
      "delay": 100,
      "loadingTime": 500,
      "leaveShells": 0,
      "leaveShellDelay": 1,
      "fireCone": 0,
      "laserSight": false,
      "laserBeam": false,
      "launchSound": -1,
      "playReloadSound": true,
      "name": "BLACKHOLEBOMB"
    },
    {
      "parts": 1,
      "bulletType": 19,
      "bulletSpeed": 2,
      "bulletSpeedInherit": 0.5,
      "distribution": 0,
      "recoil": 0,
      "ammo": 1,
      "delay": 100,
      "loadingTime": 1300,
      "leaveShells": 0,
      "leaveShellDelay": 1,
      "fireCone": 0,
      "laserSight": false,
      "laserBeam": false,
      "launchSound": 3,
      "playReloadSound": false,
      "name": "NUKE MISSILE"
    },
    {
      "parts": 1,
      "bulletType": 20,
      "bulletSpeed": 1.7000000476837158,
      "bulletSpeedInherit": 0,
      "distribution": 0,
      "recoil": 0,
      "ammo": 1,
      "delay": 100,
      "loadingTime": 800,
      "leaveShells": 0,
      "leaveShellDelay": 1,
      "fireCone": 8,
      "laserSight": true,
      "laserBeam": false,
      "launchSound": -1,
      "playReloadSound": true,
      "name": "BLAST RIFLE"
    },
    {
      "parts": 1,
      "bulletType": 21,
      "bulletSpeed": 3,
      "bulletSpeedInherit": 0.3333333432674408,
      "distribution": 0,
      "recoil": 0.30000001192092896,
      "ammo": 2,
      "delay": 50,
      "loadingTime": 500,
      "leaveShells": 0,
      "leaveShellDelay": 1,
      "fireCone": 0,
      "laserSight": false,
      "laserBeam": false,
      "launchSound": 6,
      "playReloadSound": true,
      "name": "BOUNCE BOMB"
    },
    {
      "parts": 5,
      "bulletType": 22,
      "bulletSpeed": 1,
      "bulletSpeedInherit": 1,
      "distribution": 0,
      "recoil": 0.20000000298023224,
      "ammo": 1,
      "delay": 100,
      "loadingTime": 1000,
      "leaveShells": 0,
      "leaveShellDelay": 1,
      "fireCone": 0,
      "laserSight": false,
      "laserBeam": false,
      "launchSound": 4,
      "playReloadSound": false,
      "name": "SUPERNOVA"
    },
    {
      "parts": 1,
      "bulletType": 23,
      "bulletSpeed": 1,
      "bulletSpeedInherit": 1,
      "distribution": 0.213623046875,
      "recoil": 0,
      "ammo": 1,
      "delay": 20,
      "loadingTime": 500,
      "leaveShells": 0,
      "leaveShellDelay": 1,
      "fireCone": 0,
      "laserSight": false,
      "laserBeam": false,
      "launchSound": 5,
      "playReloadSound": true,
      "name": "SPACE MINE"
    },
    {
      "parts": 1,
      "bulletType": 24,
      "bulletSpeed": 1,
      "bulletSpeedInherit": 0,
      "distribution": 0.00152587890625,
      "recoil": 0,
      "ammo": 100,
      "delay": 0,
      "loadingTime": 500,
      "leaveShells": 0,
      "leaveShellDelay": 1,
      "fireCone": 10,
      "laserSight": false,
      "laserBeam": false,
      "launchSound": 6,
      "playReloadSound": false,
      "name": "HEAT ROD"
    },
    {
      "parts": 1,
      "bulletType": 25,
      "bulletSpeed": 2,
      "bulletSpeedInherit": 0.5,
      "distribution": 0,
      "recoil": 0,
      "ammo": 1,
      "delay": 10,
      "loadingTime": 800,
      "leaveShells": 0,
      "leaveShellDelay": 1,
      "fireCone": 10,
      "laserSight": false,
      "laserBeam": false,
      "launchSound": 3,
      "playReloadSound": true,
      "name": "ARMAGEDDON"
    },
    {
      "parts": 1,
      "bulletType": 26,
      "bulletSpeed": 2,
      "bulletSpeedInherit": 0.5,
      "distribution": 0,
      "recoil": 0.4000000059604645,
      "ammo": 5,
      "delay": 20,
      "loadingTime": 500,
      "leaveShells": 0,
      "leaveShellDelay": 1,
      "fireCone": 0,
      "laserSight": false,
      "laserBeam": false,
      "launchSound": -1,
      "playReloadSound": true,
      "name": "ASTEROID"
    },
    {
      "parts": 5,
      "bulletType": 27,
      "bulletSpeed": 2,
      "bulletSpeedInherit": 0,
      "distribution": 0.4999847412109375,
      "recoil": 0,
      "ammo": 200,
      "delay": 1,
      "loadingTime": 300,
      "leaveShells": 0,
      "leaveShellDelay": 1,
      "fireCone": 10,
      "laserSight": false,
      "laserBeam": false,
      "launchSound": 3,
      "playReloadSound": true,
      "name": "BOUNCER"
    },
    {
      "parts": 1,
      "bulletType": 28,
      "bulletSpeed": 1,
      "bulletSpeedInherit": 0,
      "distribution": 0,
      "recoil": 2.549999952316284,
      "ammo": 1,
      "delay": 250,
      "loadingTime": 0,
      "leaveShells": 0,
      "leaveShellDelay": 1,
      "fireCone": 0,
      "laserSight": true,
      "laserBeam": true,
      "launchSound": 4,
      "playReloadSound": true,
      "name": "MEGA CANNON"
    },
    {
      "parts": 9,
      "bulletType": 29,
      "bulletSpeed": 1.100000023841858,
      "bulletSpeedInherit": 0.9090908765792847,
      "distribution": 0.3662109375,
      "recoil": 0,
      "ammo": 1,
      "delay": 0,
      "loadingTime": 300,
      "leaveShells": 0,
      "leaveShellDelay": 1,
      "fireCone": 0,
      "laserSight": false,
      "laserBeam": false,
      "launchSound": 5,
      "playReloadSound": true,
      "name": "CUTTERS"
    },
    {
      "parts": 1,
      "bulletType": 30,
      "bulletSpeed": 1.2999999523162842,
      "bulletSpeedInherit": 0,
      "distribution": 0.030517578125,
      "recoil": 0,
      "ammo": 1,
      "delay": 10,
      "loadingTime": 300,
      "leaveShells": 0,
      "leaveShellDelay": 1,
      "fireCone": 0,
      "laserSight": false,
      "laserBeam": false,
      "launchSound": 5,
      "playReloadSound": false,
      "name": "FIRE CAPSULE"
    },
    {
      "parts": 1,
      "bulletType": 31,
      "bulletSpeed": 2.200000047683716,
      "bulletSpeedInherit": 0.45454543828964233,
      "distribution": 0.0152587890625,
      "recoil": 0,
      "ammo": 40,
      "delay": 1,
      "loadingTime": 200,
      "leaveShells": 0,
      "leaveShellDelay": 1,
      "fireCone": 0,
      "laserSight": false,
      "laserBeam": false,
      "launchSound": -1,
      "playReloadSound": true,
      "name": "RAPIDLASER"
    },
    {
      "parts": 1,
      "bulletType": 32,
      "bulletSpeed": 2,
      "bulletSpeedInherit": 0.5,
      "distribution": 0,
      "recoil": 0.15000000596046448,
      "ammo": 1,
      "delay": 0,
      "loadingTime": 600,
      "leaveShells": 0,
      "leaveShellDelay": 1,
      "fireCone": 9,
      "laserSight": false,
      "laserBeam": false,
      "launchSound": 3,
      "playReloadSound": true,
      "name": "DEATH MISSILE"
    },
    {
      "parts": 1,
      "bulletType": 33,
      "bulletSpeed": 2.200000047683716,
      "bulletSpeedInherit": 0,
      "distribution": 0,
      "recoil": 0,
      "ammo": 1,
      "delay": 20,
      "loadingTime": 200,
      "leaveShells": 0,
      "leaveShellDelay": 1,
      "fireCone": 0,
      "laserSight": true,
      "laserBeam": false,
      "launchSound": -1,
      "playReloadSound": false,
      "name": "UV BEAM"
    },
    {
      "parts": 1,
      "bulletType": 34,
      "bulletSpeed": 1,
      "bulletSpeedInherit": 1,
      "distribution": 0.30517578125,
      "recoil": 0,
      "ammo": 1,
      "delay": 0,
      "loadingTime": 300,
      "leaveShells": 0,
      "leaveShellDelay": 1,
      "fireCone": 0,
      "laserSight": false,
      "laserBeam": false,
      "launchSound": 5,
      "playReloadSound": false,
      "name": "BOOBY TRAP"
    },
    {
      "parts": 1,
      "bulletType": 35,
      "bulletSpeed": 2,
      "bulletSpeedInherit": 0.5,
      "distribution": 0.0152587890625,
      "recoil": 0,
      "ammo": 150,
      "delay": 0,
      "loadingTime": 250,
      "leaveShells": 0,
      "leaveShellDelay": 1,
      "fireCone": 0,
      "laserSight": false,
      "laserBeam": false,
      "launchSound": -1,
      "playReloadSound": false,
      "name": "LIGHTSABER"
    },
    {
      "parts": 2,
      "bulletType": 36,
      "bulletSpeed": 1.7000000476837158,
      "bulletSpeedInherit": 0.5882352590560913,
      "distribution": 0.0091552734375,
      "recoil": 0.05000000074505806,
      "ammo": 10,
      "delay": 7,
      "loadingTime": 600,
      "leaveShells": 0,
      "leaveShellDelay": 1,
      "fireCone": 7,
      "laserSight": false,
      "laserBeam": false,
      "launchSound": 6,
      "playReloadSound": true,
      "name": "MICROMISSILE"
    },
    {
      "parts": 1,
      "bulletType": 37,
      "bulletSpeed": 2.200000047683716,
      "bulletSpeedInherit": 0,
      "distribution": 0.0762939453125,
      "recoil": 0,
      "ammo": 10,
      "delay": 10,
      "loadingTime": 140,
      "leaveShells": 0,
      "leaveShellDelay": 1,
      "fireCone": 10,
      "laserSight": false,
      "laserBeam": false,
      "launchSound": -1,
      "playReloadSound": false,
      "name": "PULSE RIFLE"
    },
    {
      "parts": 1,
      "bulletType": 38,
      "bulletSpeed": 2,
      "bulletSpeedInherit": 0.5,
      "distribution": 0.0152587890625,
      "recoil": 0,
      "ammo": 10,
      "delay": 10,
      "loadingTime": 500,
      "leaveShells": 0,
      "leaveShellDelay": 1,
      "fireCone": 8,
      "laserSight": false,
      "laserBeam": false,
      "launchSound": -1,
      "playReloadSound": true,
      "name": "COMET"
    },
    {
      "parts": 1,
      "bulletType": 39,
      "bulletSpeed": 1,
      "bulletSpeedInherit": 1,
      "distribution": 0.152587890625,
      "recoil": 0,
      "ammo": 1,
      "delay": 5,
      "loadingTime": 500,
      "leaveShells": 0,
      "leaveShellDelay": 1,
      "fireCone": 0,
      "laserSight": false,
      "laserBeam": false,
      "launchSound": 5,
      "playReloadSound": true,
      "name": "RADIOPARTICLE"
    }
  ],
  "wObjects":
  [
    {
 // wid0 bullet for: SPACE SG
      "detectDistance": 0,
      "blowAway": 0.03999999910593033,
      "gravity": 0,
      "exploSound": -1,
      "addSpeed": 0,
      "distribution": 0.18310546875,
      "multSpeed": 1,
      "createOnExp": 3,
      "dirtEffect": 2,
      "wormExplode": false,
      "explGround": true,
      "wormCollide": true,
      "collideWithObjects": false,
      "affectByExplosions": false,
      "bounce": 0,
      "bounceFriction": 0.800000011920929,
      "timeToExplo": 0,
      "timeToExploV": 0,
      "hitDamage": 1,
      "bloodOnHit": 3,
      "startFrame": -1,
      "numFrames": 0,
      "loopAnim": false,
      "shotType": 4,
      "repeat": 8,
      "colorBullets": 75,
      "splinterAmount": 0,
      "splinterColour": 0,
      "splinterType": -1,
      "splinterScatter": 0,
      "objTrailType": -1,
      "objTrailDelay": 0,
      "partTrailType": 0,
      "partTrailObj": -1,
      "partTrailDelay": 0,
      "speed": 250
    },
    {
 // wid1 bullet for: RIPPER GUN
      "detectDistance": 0,
      "blowAway": 0.05000000074505806,
      "gravity": 0,
      "exploSound": -1,
      "addSpeed": 0,
      "distribution": 0,
      "multSpeed": 1,
      "createOnExp": 3,
      "dirtEffect": -1,
      "wormExplode": false,
      "explGround": true,
      "wormCollide": true,
      "collideWithObjects": false,
      "affectByExplosions": true,
      "bounce": 0,
      "bounceFriction": 0.800000011920929,
      "timeToExplo": 0,
      "timeToExploV": 0,
      "hitDamage": 3,
      "bloodOnHit": 5,
      "startFrame": 181,
      "numFrames": 3,
      "loopAnim": false,
      "shotType": 0,
      "repeat": 1,
      "colorBullets": 0,
      "splinterAmount": 1,
      "splinterColour": 0,
      "splinterType": 2,
      "splinterScatter": 0,
      "objTrailType": -1,
      "objTrailDelay": 0,
      "partTrailType": 0,
      "partTrailObj": -1,
      "partTrailDelay": 0,
      "speed": 300
    },
    {
 // wid2 bullet for: SPACE BOMB
      "detectDistance": 0,
      "blowAway": 0.5,
      "gravity": 0,
      "exploSound": -1,
      "addSpeed": 0,
      "distribution": 0,
      "multSpeed": 1,
      "createOnExp": 0,
      "dirtEffect": -1,
      "wormExplode": true,
      "explGround": true,
      "wormCollide": true,
      "collideWithObjects": false,
      "affectByExplosions": true,
      "bounce": 0,
      "bounceFriction": 0.800000011920929,
      "timeToExplo": 0,
      "timeToExploV": 0,
      "hitDamage": 0,
      "bloodOnHit": 20,
      "startFrame": 193,
      "numFrames": 0,
      "loopAnim": false,
      "shotType": 0,
      "repeat": 1,
      "colorBullets": 0,
      "splinterAmount": 5,
      "splinterColour": 67,
      "splinterType": 5,
      "splinterScatter": 0,
      "objTrailType": -1,
      "objTrailDelay": 0,
      "partTrailType": 0,
      "partTrailObj": -1,
      "partTrailDelay": 0,
      "speed": 250
    },
    {
 // wid3 bullet for: COSMIC RAY
      "detectDistance": 1,
      "blowAway": 0.05000000074505806,
      "gravity": 0,
      "exploSound": -1,
      "addSpeed": 0,
      "distribution": 0.0274658203125,
      "multSpeed": 1,
      "createOnExp": 2,
      "dirtEffect": -1,
      "wormExplode": true,
      "explGround": true,
      "wormCollide": true,
      "collideWithObjects": false,
      "affectByExplosions": false,
      "bounce": 0,
      "bounceFriction": 0.800000011920929,
      "timeToExplo": 0,
      "timeToExploV": 0,
      "hitDamage": 0,
      "bloodOnHit": 1,
      "startFrame": -1,
      "numFrames": 0,
      "loopAnim": false,
      "shotType": 4,
      "repeat": 8,
      "colorBullets": 239,
      "splinterAmount": 0,
      "splinterColour": 0,
      "splinterType": -1,
      "splinterScatter": 0,
      "objTrailType": 6,
      "objTrailDelay": 1,
      "partTrailType": 0,
      "partTrailObj": -1,
      "partTrailDelay": 0,
      "speed": 200
    },
    {
 // wid4 bullet for: BEAM RIFLE
      "detectDistance": 0,
      "blowAway": 0.20000000298023224,
      "gravity": 0,
      "exploSound": -1,
      "addSpeed": 0,
      "distribution": 0,
      "multSpeed": 1,
      "createOnExp": -1,
      "dirtEffect": 0,
      "wormExplode": true,
      "explGround": true,
      "wormCollide": true,
      "collideWithObjects": false,
      "affectByExplosions": false,
      "bounce": 0,
      "bounceFriction": 0.800000011920929,
      "timeToExplo": 0,
      "timeToExploV": 0,
      "hitDamage": 20,
      "bloodOnHit": 0,
      "startFrame": -1,
      "numFrames": 0,
      "loopAnim": false,
      "shotType": 4,
      "repeat": 8,
      "colorBullets": 234,
      "splinterAmount": 0,
      "splinterColour": 0,
      "splinterType": -1,
      "splinterScatter": 0,
      "objTrailType": 13,
      "objTrailDelay": 1,
      "partTrailType": 0,
      "partTrailObj": -1,
      "partTrailDelay": 0,
      "speed": 200
    },
    {
 // wid5 bullet for: SUBSHIP
      "detectDistance": 0,
      "blowAway": 0.30000001192092896,
      "gravity": 0,
      "exploSound": -1,
      "addSpeed": 200,
      "distribution": 0,
      "multSpeed": 1,
      "createOnExp": 0,
      "dirtEffect": -1,
      "wormExplode": true,
      "explGround": false,
      "wormCollide": true,
      "collideWithObjects": true,
      "affectByExplosions": false,
      "bounce": 0.30000001192092896,
      "bounceFriction": 0.800000011920929,
      "timeToExplo": 1000,
      "timeToExploV": 0,
      "hitDamage": 50,
      "bloodOnHit": 0,
      "startFrame": 110,
      "numFrames": 0,
      "loopAnim": true,
      "shotType": 2,
      "repeat": 1,
      "colorBullets": 0,
      "splinterAmount": 0,
      "splinterColour": 0,
      "splinterType": -1,
      "splinterScatter": 0,
      "objTrailType": 4,
      "objTrailDelay": 1,
      "partTrailType": 1,
      "partTrailObj": 15,
      "partTrailDelay": 20,
      "speed": 0
    },
    {
 // wid6 bullet for: ASTEROIDFIELD
      "detectDistance": 0,
      "blowAway": 0,
      "gravity": 0,
      "exploSound": -1,
      "addSpeed": 0,
      "distribution": 0,
      "multSpeed": 1,
      "createOnExp": -1,
      "dirtEffect": -1,
      "wormExplode": false,
      "explGround": false,
      "wormCollide": false,
      "collideWithObjects": false,
      "affectByExplosions": false,
      "bounce": 0,
      "bounceFriction": 0.800000011920929,
      "timeToExplo": 1,
      "timeToExploV": 0,
      "hitDamage": 0,
      "bloodOnHit": 0,
      "startFrame": 173,
      "numFrames": 3,
      "loopAnim": true,
      "shotType": 0,
      "repeat": 1,
      "colorBullets": 0,
      "splinterAmount": 20,
      "splinterColour": 66,
      "splinterType": 19,
      "splinterScatter": 0,
      "objTrailType": -1,
      "objTrailDelay": 0,
      "partTrailType": 0,
      "partTrailObj": -1,
      "partTrailDelay": 0,
      "speed": -100
    },
    {
 // wid7 bullet for: PLASMA ORB
      "detectDistance": 0,
      "blowAway": 0.699999988079071,
      "gravity": 0,
      "exploSound": 4,
      "addSpeed": 100,
      "distribution": 0,
      "multSpeed": 1,
      "createOnExp": 0,
      "dirtEffect": -1,
      "wormExplode": true,
      "explGround": true,
      "wormCollide": true,
      "collideWithObjects": false,
      "affectByExplosions": false,
      "bounce": 0,
      "bounceFriction": 0.800000011920929,
      "timeToExplo": 0,
      "timeToExploV": 0,
      "hitDamage": 10,
      "bloodOnHit": 15,
      "startFrame": 126,
      "numFrames": 0,
      "loopAnim": false,
      "shotType": 0,
      "repeat": 1,
      "colorBullets": 68,
      "splinterAmount": 20,
      "splinterColour": 240,
      "splinterType": 5,
      "splinterScatter": 0,
      "objTrailType": 6,
      "objTrailDelay": 1,
      "partTrailType": 0,
      "partTrailObj": -1,
      "partTrailDelay": 0,
      "speed": 100
    },
    {
 // wid8 bullet for: ROCKETS
      "detectDistance": 1,
      "blowAway": 0.15000000596046448,
      "gravity": 0,
      "exploSound": -1,
      "addSpeed": 0,
      "distribution": 0.00152587890625,
      "multSpeed": 1.0499999523162842,
      "createOnExp": 0,
      "dirtEffect": -1,
      "wormExplode": true,
      "explGround": true,
      "wormCollide": true,
      "collideWithObjects": false,
      "affectByExplosions": false,
      "bounce": 0,
      "bounceFriction": 0.800000011920929,
      "timeToExplo": 0,
      "timeToExploV": 0,
      "hitDamage": 0,
      "bloodOnHit": 10,
      "startFrame": 127,
      "numFrames": 0,
      "loopAnim": false,
      "shotType": 3,
      "repeat": 1,
      "colorBullets": 0,
      "splinterAmount": 0,
      "splinterColour": 0,
      "splinterType": 2,
      "splinterScatter": 0,
      "objTrailType": 6,
      "objTrailDelay": 2,
      "partTrailType": 0,
      "partTrailObj": -1,
      "partTrailDelay": 0,
      "speed": 10
    },
    {
 // wid9 bullet for: PLASMATHROWER
      "detectDistance": 1,
      "blowAway": 0,
      "gravity": 0,
      "exploSound": -1,
      "addSpeed": 0,
      "distribution": 0.30517578125,
      "multSpeed": 1,
      "createOnExp": -1,
      "dirtEffect": 1,
      "wormExplode": false,
      "explGround": true,
      "wormCollide": true,
      "collideWithObjects": false,
      "affectByExplosions": true,
      "bounce": 0,
      "bounceFriction": 0.800000011920929,
      "timeToExplo": 30,
      "timeToExploV": 5,
      "hitDamage": 1,
      "bloodOnHit": 0,
      "startFrame": 159,
      "numFrames": 1,
      "loopAnim": false,
      "shotType": 0,
      "repeat": 1,
      "colorBullets": 0,
      "splinterAmount": 0,
      "splinterColour": 0,
      "splinterType": -1,
      "splinterScatter": 0,
      "objTrailType": 6,
      "objTrailDelay": 4,
      "partTrailType": 0,
      "partTrailObj": -1,
      "partTrailDelay": 0,
      "speed": 200
    },
    {
 // wid10 bullet for: BEAM CANNON
      "detectDistance": 0,
      "blowAway": 0.20000000298023224,
      "gravity": 0,
      "exploSound": -1,
      "addSpeed": 0,
      "distribution": 0,
      "multSpeed": 1,
      "createOnExp": 0,
      "dirtEffect": -1,
      "wormExplode": true,
      "explGround": true,
      "wormCollide": true,
      "collideWithObjects": false,
      "affectByExplosions": false,
      "bounce": 0,
      "bounceFriction": 0.800000011920929,
      "timeToExplo": 0,
      "timeToExploV": 0,
      "hitDamage": 10,
      "bloodOnHit": 10,
      "startFrame": -1,
      "numFrames": 0,
      "loopAnim": true,
      "shotType": 4,
      "repeat": 8,
      "colorBullets": 255,
      "splinterAmount": 5,
      "splinterColour": 0,
      "splinterType": 23,
      "splinterScatter": 0,
      "objTrailType": 6,
      "objTrailDelay": 1,
      "partTrailType": 0,
      "partTrailObj": -1,
      "partTrailDelay": 0,
      "speed": 220
    },
    {
 // wid11 bullet for: MERCURIUS
      "detectDistance": 1,
      "blowAway": 0,
      "gravity": 0,
      "exploSound": -1,
      "addSpeed": 0,
      "distribution": 0.4999847412109375,
      "multSpeed": 1,
      "createOnExp": 3,
      "dirtEffect": -1,
      "wormExplode": false,
      "explGround": false,
      "wormCollide": false,
      "collideWithObjects": true,
      "affectByExplosions": true,
      "bounce": 0,
      "bounceFriction": 0.800000011920929,
      "timeToExplo": 3,
      "timeToExploV": 0,
      "hitDamage": 0,
      "bloodOnHit": 0,
      "startFrame": -1,
      "numFrames": 0,
      "loopAnim": false,
      "shotType": 0,
      "repeat": 1,
      "colorBullets": 200,
      "splinterAmount": 1,
      "splinterColour": 0,
      "splinterType": 18,
      "splinterScatter": 1,
      "objTrailType": -1,
      "objTrailDelay": 0,
      "partTrailType": 0,
      "partTrailObj": -1,
      "partTrailDelay": 0,
      "speed": 400
    },
    {
 // wid12 bullet for: SHIELD
      "detectDistance": 0,
      "blowAway": 0,
      "gravity": 0,
      "exploSound": -1,
      "addSpeed": 0,
      "distribution": 0,
      "multSpeed": 1,
      "createOnExp": -1,
      "dirtEffect": -1,
      "wormExplode": false,
      "explGround": false,
      "wormCollide": false,
      "collideWithObjects": false,
      "affectByExplosions": false,
      "bounce": 0,
      "bounceFriction": 0.800000011920929,
      "timeToExplo": 1,
      "timeToExploV": 0,
      "hitDamage": 0,
      "bloodOnHit": 0,
      "startFrame": 196,
      "numFrames": 0,
      "loopAnim": false,
      "shotType": 0,
      "repeat": 1,
      "colorBullets": 0,
      "splinterAmount": 70,
      "splinterColour": 75,
      "splinterType": 18,
      "splinterScatter": 0,
      "objTrailType": 3,
      "objTrailDelay": 8,
      "partTrailType": 0,
      "partTrailObj": -1,
      "partTrailDelay": 0,
      "speed": 0
    },
    {
 // wid13 bullet for: RAILGUN
      "detectDistance": 0,
      "blowAway": 0.05000000074505806,
      "gravity": 0,
      "exploSound": -1,
      "addSpeed": 0,
      "distribution": 0,
      "multSpeed": 1,
      "createOnExp": 3,
      "dirtEffect": 2,
      "wormExplode": false,
      "explGround": true,
      "wormCollide": true,
      "collideWithObjects": false,
      "affectByExplosions": false,
      "bounce": 0,
      "bounceFriction": 0.800000011920929,
      "timeToExplo": 0,
      "timeToExploV": 0,
      "hitDamage": 15,
      "bloodOnHit": 5,
      "startFrame": -1,
      "numFrames": 0,
      "loopAnim": false,
      "shotType": 4,
      "repeat": 8,
      "colorBullets": 68,
      "splinterAmount": 0,
      "splinterColour": 0,
      "splinterType": -1,
      "splinterScatter": 0,
      "objTrailType": 3,
      "objTrailDelay": 1,
      "partTrailType": 0,
      "partTrailObj": -1,
      "partTrailDelay": 0,
      "speed": 100
    },
    {
 // wid14 bullet for: SPACE MG
      "detectDistance": 0,
      "blowAway": 0.05000000074505806,
      "gravity": 0,
      "exploSound": -1,
      "addSpeed": 0,
      "distribution": 0.091552734375,
      "multSpeed": 1,
      "createOnExp": 3,
      "dirtEffect": 2,
      "wormExplode": false,
      "explGround": true,
      "wormCollide": true,
      "collideWithObjects": false,
      "affectByExplosions": false,
      "bounce": 0,
      "bounceFriction": 0.800000011920929,
      "timeToExplo": 0,
      "timeToExploV": 0,
      "hitDamage": 2,
      "bloodOnHit": 2,
      "startFrame": -1,
      "numFrames": 0,
      "loopAnim": false,
      "shotType": 4,
      "repeat": 8,
      "colorBullets": 75,
      "splinterAmount": 0,
      "splinterColour": 0,
      "splinterType": -1,
      "splinterScatter": 0,
      "objTrailType": -1,
      "objTrailDelay": 0,
      "partTrailType": 0,
      "partTrailObj": -1,
      "partTrailDelay": 0,
      "speed": 250
    },
    {
 // wid15 bullet for: COMET GUN
      "detectDistance": 0,
      "blowAway": 0.10000000149011612,
      "gravity": 0,
      "exploSound": -1,
      "addSpeed": 0,
      "distribution": 0.274658203125,
      "multSpeed": 1,
      "createOnExp": 1,
      "dirtEffect": -1,
      "wormExplode": true,
      "explGround": true,
      "wormCollide": true,
      "collideWithObjects": false,
      "affectByExplosions": false,
      "bounce": 0,
      "bounceFriction": 0.800000011920929,
      "timeToExplo": 0,
      "timeToExploV": 0,
      "hitDamage": 0,
      "bloodOnHit": 10,
      "startFrame": 173,
      "numFrames": 3,
      "loopAnim": true,
      "shotType": 0,
      "repeat": 1,
      "colorBullets": 0,
      "splinterAmount": 5,
      "splinterColour": 255,
      "splinterType": 4,
      "splinterScatter": 0,
      "objTrailType": 4,
      "objTrailDelay": 1,
      "partTrailType": 0,
      "partTrailObj": -1,
      "partTrailDelay": 0,
      "speed": 200
    },
    {
 // wid16 bullet for: HOMINGROCKETS
      "detectDistance": 1,
      "blowAway": 0.10000000149011612,
      "gravity": 0,
      "exploSound": -1,
      "addSpeed": 50,
      "distribution": 0.274658203125,
      "multSpeed": 1,
      "createOnExp": 10,
      "dirtEffect": -1,
      "wormExplode": true,
      "explGround": true,
      "wormCollide": true,
      "collideWithObjects": false,
      "affectByExplosions": false,
      "bounce": 0,
      "bounceFriction": 0.800000011920929,
      "timeToExplo": 0,
      "timeToExploV": 0,
      "hitDamage": 5,
      "bloodOnHit": 8,
      "startFrame": 110,
      "numFrames": 0,
      "loopAnim": false,
      "shotType": 2,
      "repeat": 1,
      "colorBullets": 0,
      "splinterAmount": 0,
      "splinterColour": 0,
      "splinterType": -1,
      "splinterScatter": 0,
      "objTrailType": 6,
      "objTrailDelay": 2,
      "partTrailType": 0,
      "partTrailObj": -1,
      "partTrailDelay": 0,
      "speed": 170
    },
    {
 // wid17 bullet for: FLASH STICK
      "detectDistance": 1,
      "blowAway": 0.20000000298023224,
      "gravity": 0,
      "exploSound": -1,
      "addSpeed": 0,
      "distribution": 0,
      "multSpeed": 1,
      "createOnExp": 12,
      "dirtEffect": -1,
      "wormExplode": true,
      "explGround": true,
      "wormCollide": true,
      "collideWithObjects": false,
      "affectByExplosions": true,
      "bounce": 0,
      "bounceFriction": 0.800000011920929,
      "timeToExplo": 0,
      "timeToExploV": 0,
      "hitDamage": 0,
      "bloodOnHit": 10,
      "startFrame": 198,
      "numFrames": 3,
      "loopAnim": true,
      "shotType": 0,
      "repeat": 1,
      "colorBullets": 68,
      "splinterAmount": 2,
      "splinterColour": 0,
      "splinterType": 23,
      "splinterScatter": 0,
      "objTrailType": -1,
      "objTrailDelay": 0,
      "partTrailType": 0,
      "partTrailObj": -1,
      "partTrailDelay": 0,
      "speed": 200
    },
    {
 // wid18 bullet for: BLACKHOLEBOMB
      "detectDistance": 5,
      "blowAway": 0,
      "gravity": 0,
      "exploSound": 4,
      "addSpeed": 0,
      "distribution": 0,
      "multSpeed": 1,
      "createOnExp": 5,
      "dirtEffect": 0,
      "wormExplode": true,
      "explGround": false,
      "wormCollide": true,
      "collideWithObjects": false,
      "affectByExplosions": true,
      "bounce": 0,
      "bounceFriction": 0.800000011920929,
      "timeToExplo": 150,
      "timeToExploV": 0,
      "hitDamage": 0,
      "bloodOnHit": 0,
      "startFrame": 181,
      "numFrames": 3,
      "loopAnim": true,
      "shotType": 0,
      "repeat": 1,
      "colorBullets": 0,
      "splinterAmount": 100,
      "splinterColour": 0,
      "splinterType": 14,
      "splinterScatter": 0,
      "objTrailType": -1,
      "objTrailDelay": 0,
      "partTrailType": 0,
      "partTrailObj": -1,
      "partTrailDelay": 0,
      "speed": 200
    },
    {
 // wid19 bullet for: NUKE MISSILE
      "detectDistance": 0,
      "blowAway": 0,
      "gravity": 0,
      "exploSound": 4,
      "addSpeed": 100,
      "distribution": 0,
      "multSpeed": 1,
      "createOnExp": 0,
      "dirtEffect": -1,
      "wormExplode": true,
      "explGround": true,
      "wormCollide": true,
      "collideWithObjects": false,
      "affectByExplosions": false,
      "bounce": 0,
      "bounceFriction": 0.800000011920929,
      "timeToExplo": 0,
      "timeToExploV": 0,
      "hitDamage": 0,
      "bloodOnHit": 100,
      "startFrame": 110,
      "numFrames": 0,
      "loopAnim": false,
      "shotType": 2,
      "repeat": 1,
      "colorBullets": 0,
      "splinterAmount": 50,
      "splinterColour": 0,
      "splinterType": 9,
      "splinterScatter": 0,
      "objTrailType": 3,
      "objTrailDelay": 4,
      "partTrailType": 0,
      "partTrailObj": -1,
      "partTrailDelay": 0,
      "speed": 200
    },
    {
 // wid20 bullet for: BLAST RIFLE
      "detectDistance": 0,
      "blowAway": 1,
      "gravity": 0,
      "exploSound": -1,
      "addSpeed": 0,
      "distribution": 0,
      "multSpeed": 1,
      "createOnExp": 0,
      "dirtEffect": -1,
      "wormExplode": true,
      "explGround": true,
      "wormCollide": true,
      "collideWithObjects": false,
      "affectByExplosions": false,
      "bounce": 0,
      "bounceFriction": 0.800000011920929,
      "timeToExplo": 0,
      "timeToExploV": 0,
      "hitDamage": 0,
      "bloodOnHit": 15,
      "startFrame": 179,
      "numFrames": 0,
      "loopAnim": false,
      "shotType": 4,
      "repeat": 8,
      "colorBullets": 0,
      "splinterAmount": 50,
      "splinterColour": 0,
      "splinterType": 23,
      "splinterScatter": 0,
      "objTrailType": 6,
      "objTrailDelay": 1,
      "partTrailType": 0,
      "partTrailObj": -1,
      "partTrailDelay": 0,
      "speed": 170
    },
    {
 // wid21 bullet for: BOUNCE BOMB
      "detectDistance": 1,
      "blowAway": 0,
      "gravity": 0,
      "exploSound": -1,
      "addSpeed": 0,
      "distribution": 0,
      "multSpeed": 1,
      "createOnExp": 0,
      "dirtEffect": -1,
      "wormExplode": true,
      "explGround": false,
      "wormCollide": true,
      "collideWithObjects": false,
      "affectByExplosions": true,
      "bounce": 1,
      "bounceFriction": 1,
      "timeToExplo": 2000,
      "timeToExploV": 0,
      "hitDamage": 30,
      "bloodOnHit": 15,
      "startFrame": 180,
      "numFrames": 0,
      "loopAnim": false,
      "shotType": 0,
      "repeat": 1,
      "colorBullets": 0,
      "splinterAmount": 0,
      "splinterColour": 0,
      "splinterType": -1,
      "splinterScatter": 0,
      "objTrailType": 6,
      "objTrailDelay": 1,
      "partTrailType": 0,
      "partTrailObj": -1,
      "partTrailDelay": 0,
      "speed": 300
    },
    {
 // wid22 bullet for: SUPERNOVA
      "detectDistance": 0,
      "blowAway": 0,
      "gravity": 0,
      "exploSound": 4,
      "addSpeed": 0,
      "distribution": 0,
      "multSpeed": 1,
      "createOnExp": 0,
      "dirtEffect": -1,
      "wormExplode": false,
      "explGround": false,
      "wormCollide": false,
      "collideWithObjects": false,
      "affectByExplosions": true,
      "bounce": 0,
      "bounceFriction": 0.800000011920929,
      "timeToExplo": 1,
      "timeToExploV": 0,
      "hitDamage": 0,
      "bloodOnHit": 0,
      "startFrame": 194,
      "numFrames": 0,
      "loopAnim": false,
      "shotType": 0,
      "repeat": 1,
      "colorBullets": 0,
      "splinterAmount": 100,
      "splinterColour": 0,
      "splinterType": 12,
      "splinterScatter": 0,
      "objTrailType": -1,
      "objTrailDelay": 0,
      "partTrailType": 0,
      "partTrailObj": -1,
      "partTrailDelay": 0,
      "speed": 0
    },
    {
 // wid23 bullet for: SPACE MINE
      "detectDistance": 2,
      "blowAway": 0.2199999988079071,
      "gravity": 0.0000762939453125,
      "exploSound": -1,
      "addSpeed": 0,
      "distribution": 0.213623046875,
      "multSpeed": 0.9800000190734863,
      "createOnExp": 0,
      "dirtEffect": -1,
      "wormExplode": true,
      "explGround": false,
      "wormCollide": true,
      "collideWithObjects": false,
      "affectByExplosions": true,
      "bounce": 1,
      "bounceFriction": 1,
      "timeToExplo": 13000,
      "timeToExploV": 100,
      "hitDamage": 0,
      "bloodOnHit": 18,
      "startFrame": 178,
      "numFrames": 0,
      "loopAnim": false,
      "shotType": 0,
      "repeat": 1,
      "colorBullets": 0,
      "splinterAmount": 5,
      "splinterColour": 67,
      "splinterType": 23,
      "splinterScatter": 0,
      "objTrailType": -1,
      "objTrailDelay": 0,
      "partTrailType": 0,
      "partTrailObj": -1,
      "partTrailDelay": 0,
      "speed": 40
    },
    {
 // wid24 bullet for: HEAT ROD
      "detectDistance": 0,
      "blowAway": 0,
      "gravity": 0,
      "exploSound": -1,
      "addSpeed": 0,
      "distribution": 0.00152587890625,
      "multSpeed": 1,
      "createOnExp": 3,
      "dirtEffect": 5,
      "wormExplode": false,
      "explGround": true,
      "wormCollide": false,
      "collideWithObjects": false,
      "affectByExplosions": true,
      "bounce": 0,
      "bounceFriction": 0.800000011920929,
      "timeToExplo": 30,
      "timeToExploV": 0,
      "hitDamage": 1,
      "bloodOnHit": 1,
      "startFrame": 159,
      "numFrames": 0,
      "loopAnim": false,
      "shotType": 0,
      "repeat": 1,
      "colorBullets": 0,
      "splinterAmount": 0,
      "splinterColour": 0,
      "splinterType": -1,
      "splinterScatter": 0,
      "objTrailType": 6,
      "objTrailDelay": 2,
      "partTrailType": 0,
      "partTrailObj": -1,
      "partTrailDelay": 0,
      "speed": 100
    },
    {
 // wid25 bullet for: ARMAGEDDON
      "detectDistance": 0,
      "blowAway": 0,
      "gravity": 0,
      "exploSound": -1,
      "addSpeed": 0,
      "distribution": 0,
      "multSpeed": 1,
      "createOnExp": -1,
      "dirtEffect": -1,
      "wormExplode": false,
      "explGround": false,
      "wormCollide": false,
      "collideWithObjects": false,
      "affectByExplosions": false,
      "bounce": 0,
      "bounceFriction": 0.800000011920929,
      "timeToExplo": 1,
      "timeToExploV": 0,
      "hitDamage": 0,
      "bloodOnHit": 0,
      "startFrame": 179,
      "numFrames": 0,
      "loopAnim": false,
      "shotType": 0,
      "repeat": 1,
      "colorBullets": 0,
      "splinterAmount": 10,
      "splinterColour": 0,
      "splinterType": 10,
      "splinterScatter": 1,
      "objTrailType": -1,
      "objTrailDelay": 0,
      "partTrailType": 0,
      "partTrailObj": -1,
      "partTrailDelay": 0,
      "speed": 200
    },
    {
 // wid26 bullet for: ASTEROID
      "detectDistance": 1,
      "blowAway": 0.20000000298023224,
      "gravity": 0,
      "exploSound": 4,
      "addSpeed": 100,
      "distribution": 0,
      "multSpeed": 1,
      "createOnExp": 0,
      "dirtEffect": -1,
      "wormExplode": true,
      "explGround": true,
      "wormCollide": true,
      "collideWithObjects": true,
      "affectByExplosions": false,
      "bounce": 0,
      "bounceFriction": 0.800000011920929,
      "timeToExplo": 0,
      "timeToExploV": 0,
      "hitDamage": 0,
      "bloodOnHit": 20,
      "startFrame": 173,
      "numFrames": 3,
      "loopAnim": true,
      "shotType": 0,
      "repeat": 1,
      "colorBullets": 0,
      "splinterAmount": 10,
      "splinterColour": 1,
      "splinterType": 5,
      "splinterScatter": 0,
      "objTrailType": -1,
      "objTrailDelay": 0,
      "partTrailType": 0,
      "partTrailObj": -1,
      "partTrailDelay": 0,
      "speed": 200
    },
    {
 // wid27 bullet for: BOUNCER
      "detectDistance": 0,
      "blowAway": 2.549999952316284,
      "gravity": 0,
      "exploSound": -1,
      "addSpeed": 0,
      "distribution": 0.4999847412109375,
      "multSpeed": 1,
      "createOnExp": -1,
      "dirtEffect": -1,
      "wormExplode": false,
      "explGround": false,
      "wormCollide": false,
      "collideWithObjects": true,
      "affectByExplosions": true,
      "bounce": 0,
      "bounceFriction": 0.800000011920929,
      "timeToExplo": 10,
      "timeToExploV": 0,
      "hitDamage": 0,
      "bloodOnHit": 0,
      "startFrame": 112,
      "numFrames": 0,
      "loopAnim": false,
      "shotType": 1,
      "repeat": 1,
      "colorBullets": 0,
      "splinterAmount": 0,
      "splinterColour": 0,
      "splinterType": -1,
      "splinterScatter": 0,
      "objTrailType": -1,
      "objTrailDelay": 0,
      "partTrailType": 1,
      "partTrailObj": -1,
      "partTrailDelay": 0,
      "speed": 200
    },
    {
 // wid28 bullet for: MEGA CANNON
      "detectDistance": 0,
      "blowAway": 0,
      "gravity": 0,
      "exploSound": -1,
      "addSpeed": 0,
      "distribution": 0,
      "multSpeed": 1,
      "createOnExp": -1,
      "dirtEffect": 0,
      "wormExplode": false,
      "explGround": true,
      "wormCollide": true,
      "collideWithObjects": false,
      "affectByExplosions": false,
      "bounce": 0,
      "bounceFriction": 0.800000011920929,
      "timeToExplo": 0,
      "timeToExploV": 0,
      "hitDamage": 1,
      "bloodOnHit": 0,
      "startFrame": -1,
      "numFrames": 0,
      "loopAnim": false,
      "shotType": 4,
      "repeat": 1000,
      "colorBullets": 11,
      "splinterAmount": 0,
      "splinterColour": 0,
      "splinterType": -1,
      "splinterScatter": 0,
      "objTrailType": -1,
      "objTrailDelay": 0,
      "partTrailType": 0,
      "partTrailObj": 8,
      "partTrailDelay": 1,
      "speed": 100
    },
    {
 // wid29 bullet for: CUTTERS
      "detectDistance": 2,
      "blowAway": 0.20000000298023224,
      "gravity": 0,
      "exploSound": -1,
      "addSpeed": 0,
      "distribution": 0.3662109375,
      "multSpeed": 1,
      "createOnExp": 2,
      "dirtEffect": -1,
      "wormExplode": false,
      "explGround": false,
      "wormCollide": true,
      "collideWithObjects": false,
      "affectByExplosions": true,
      "bounce": 0.699999988079071,
      "bounceFriction": 0.800000011920929,
      "timeToExplo": 1000,
      "timeToExploV": 0,
      "hitDamage": 9,
      "bloodOnHit": 20,
      "startFrame": 181,
      "numFrames": 3,
      "loopAnim": true,
      "shotType": 0,
      "repeat": 1,
      "colorBullets": 0,
      "splinterAmount": 0,
      "splinterColour": 0,
      "splinterType": -1,
      "splinterScatter": 0,
      "objTrailType": -1,
      "objTrailDelay": 0,
      "partTrailType": 0,
      "partTrailObj": -1,
      "partTrailDelay": 0,
      "speed": 110
    },
    {
 // wid30 bullet for: FIRE CAPSULE
      "detectDistance": 0,
      "blowAway": 0,
      "gravity": 0,
      "exploSound": 29,
      "addSpeed": 0,
      "distribution": 0.030517578125,
      "multSpeed": 1,
      "createOnExp": 0,
      "dirtEffect": -1,
      "wormExplode": true,
      "explGround": true,
      "wormCollide": true,
      "collideWithObjects": false,
      "affectByExplosions": true,
      "bounce": 0,
      "bounceFriction": 0.800000011920929,
      "timeToExplo": 120,
      "timeToExploV": 10,
      "hitDamage": 0,
      "bloodOnHit": 0,
      "startFrame": 185,
      "numFrames": 7,
      "loopAnim": true,
      "shotType": 0,
      "repeat": 1,
      "colorBullets": 0,
      "splinterAmount": 20,
      "splinterColour": 114,
      "splinterType": 16,
      "splinterScatter": 0,
      "objTrailType": -1,
      "objTrailDelay": 0,
      "partTrailType": 0,
      "partTrailObj": -1,
      "partTrailDelay": 0,
      "speed": 130
    },
    {
 // wid31 bullet for: RAPIDLASER
      "detectDistance": 0,
      "blowAway": 0.05000000074505806,
      "gravity": 0,
      "exploSound": -1,
      "addSpeed": 0,
      "distribution": 0.0152587890625,
      "multSpeed": 1,
      "createOnExp": 3,
      "dirtEffect": 2,
      "wormExplode": false,
      "explGround": true,
      "wormCollide": true,
      "collideWithObjects": false,
      "affectByExplosions": false,
      "bounce": 0,
      "bounceFriction": 0.800000011920929,
      "timeToExplo": 0,
      "timeToExploV": 0,
      "hitDamage": 2,
      "bloodOnHit": 1,
      "startFrame": -1,
      "numFrames": 0,
      "loopAnim": false,
      "shotType": 4,
      "repeat": 8,
      "colorBullets": 75,
      "splinterAmount": 0,
      "splinterColour": 0,
      "splinterType": -1,
      "splinterScatter": 0,
      "objTrailType": 6,
      "objTrailDelay": 1,
      "partTrailType": 0,
      "partTrailObj": -1,
      "partTrailDelay": 0,
      "speed": 220
    },
    {
 // wid32 bullet for: DEATH MISSILE
      "detectDistance": 1,
      "blowAway": 0,
      "gravity": 0,
      "exploSound": -1,
      "addSpeed": 100,
      "distribution": 0,
      "multSpeed": 1,
      "createOnExp": -1,
      "dirtEffect": -1,
      "wormExplode": true,
      "explGround": true,
      "wormCollide": true,
      "collideWithObjects": false,
      "affectByExplosions": false,
      "bounce": 0,
      "bounceFriction": 0.800000011920929,
      "timeToExplo": 0,
      "timeToExploV": 0,
      "hitDamage": 0,
      "bloodOnHit": 30,
      "startFrame": 110,
      "numFrames": 0,
      "loopAnim": false,
      "shotType": 2,
      "repeat": 1,
      "colorBullets": 0,
      "splinterAmount": 50,
      "splinterColour": 0,
      "splinterType": 8,
      "splinterScatter": 0,
      "objTrailType": 3,
      "objTrailDelay": 4,
      "partTrailType": 0,
      "partTrailObj": -1,
      "partTrailDelay": 0,
      "speed": 200
    },
    {
 // wid33 bullet for: UV BEAM
      "detectDistance": 0,
      "blowAway": 0,
      "gravity": 0,
      "exploSound": -1,
      "addSpeed": 0,
      "distribution": 0,
      "multSpeed": 1,
      "createOnExp": 0,
      "dirtEffect": 0,
      "wormExplode": true,
      "explGround": true,
      "wormCollide": true,
      "collideWithObjects": false,
      "affectByExplosions": false,
      "bounce": 0,
      "bounceFriction": 0.800000011920929,
      "timeToExplo": 0,
      "timeToExploV": 0,
      "hitDamage": 20,
      "bloodOnHit": 1,
      "startFrame": -1,
      "numFrames": 0,
      "loopAnim": true,
      "shotType": 4,
      "repeat": 8,
      "colorBullets": 0,
      "splinterAmount": 4,
      "splinterColour": 243,
      "splinterType": 5,
      "splinterScatter": 0,
      "objTrailType": 11,
      "objTrailDelay": 1,
      "partTrailType": 0,
      "partTrailObj": -1,
      "partTrailDelay": 0,
      "speed": 220
    },
    {
 // wid34 bullet for: BOOBY TRAP
      "detectDistance": 3,
      "blowAway": 0,
      "gravity": 0,
      "exploSound": -1,
      "addSpeed": 0,
      "distribution": 0.30517578125,
      "multSpeed": 0.9800000190734863,
      "createOnExp": 0,
      "dirtEffect": -1,
      "wormExplode": true,
      "explGround": false,
      "wormCollide": true,
      "collideWithObjects": false,
      "affectByExplosions": true,
      "bounce": 0.9800000190734863,
      "bounceFriction": 0.800000011920929,
      "timeToExplo": 4000,
      "timeToExploV": 600,
      "hitDamage": 5,
      "bloodOnHit": 20,
      "startFrame": 210,
      "numFrames": 0,
      "loopAnim": true,
      "shotType": 0,
      "repeat": 1,
      "colorBullets": 0,
      "splinterAmount": 0,
      "splinterColour": 0,
      "splinterType": -1,
      "splinterScatter": 0,
      "objTrailType": -1,
      "objTrailDelay": 0,
      "partTrailType": 0,
      "partTrailObj": -1,
      "partTrailDelay": 0,
      "speed": 100
    },
    {
 // wid35 bullet for: LIGHTSABER
      "detectDistance": 1,
      "blowAway": 0.30000001192092896,
      "gravity": 0,
      "exploSound": -1,
      "addSpeed": 0,
      "distribution": 0.0152587890625,
      "multSpeed": 1,
      "createOnExp": -1,
      "dirtEffect": 2,
      "wormExplode": false,
      "explGround": true,
      "wormCollide": true,
      "collideWithObjects": true,
      "affectByExplosions": false,
      "bounce": 0,
      "bounceFriction": 0.800000011920929,
      "timeToExplo": 5,
      "timeToExploV": 0,
      "hitDamage": 2,
      "bloodOnHit": 0,
      "startFrame": 179,
      "numFrames": 0,
      "loopAnim": false,
      "shotType": 0,
      "repeat": 1,
      "colorBullets": 255,
      "splinterAmount": 0,
      "splinterColour": 0,
      "splinterType": -1,
      "splinterScatter": 0,
      "objTrailType": 6,
      "objTrailDelay": 1,
      "partTrailType": 0,
      "partTrailObj": -1,
      "partTrailDelay": 0,
      "speed": 200
    },
    {
 // wid36 bullet for: MICROMISSILE
      "detectDistance": 1,
      "blowAway": 0.10000000149011612,
      "gravity": 0,
      "exploSound": -1,
      "addSpeed": 3,
      "distribution": 0.0091552734375,
      "multSpeed": 1,
      "createOnExp": 1,
      "dirtEffect": -1,
      "wormExplode": true,
      "explGround": true,
      "wormCollide": true,
      "collideWithObjects": false,
      "affectByExplosions": false,
      "bounce": 0,
      "bounceFriction": 0.800000011920929,
      "timeToExplo": 0,
      "timeToExploV": 0,
      "hitDamage": 0,
      "bloodOnHit": 8,
      "startFrame": 223,
      "numFrames": 0,
      "loopAnim": false,
      "shotType": 3,
      "repeat": 1,
      "colorBullets": 0,
      "splinterAmount": 0,
      "splinterColour": 0,
      "splinterType": -1,
      "splinterScatter": 0,
      "objTrailType": 6,
      "objTrailDelay": 2,
      "partTrailType": 0,
      "partTrailObj": -1,
      "partTrailDelay": 0,
      "speed": 170
    },
    {
 // wid37 bullet for: PULSE RIFLE
      "detectDistance": 0,
      "blowAway": 0.10000000149011612,
      "gravity": 0,
      "exploSound": -1,
      "addSpeed": 0,
      "distribution": 0.0762939453125,
      "multSpeed": 1,
      "createOnExp": 3,
      "dirtEffect": 2,
      "wormExplode": false,
      "explGround": true,
      "wormCollide": true,
      "collideWithObjects": false,
      "affectByExplosions": false,
      "bounce": 0,
      "bounceFriction": 0.800000011920929,
      "timeToExplo": 0,
      "timeToExploV": 0,
      "hitDamage": 10,
      "bloodOnHit": 5,
      "startFrame": 179,
      "numFrames": 0,
      "loopAnim": false,
      "shotType": 0,
      "repeat": 1,
      "colorBullets": 0,
      "splinterAmount": 0,
      "splinterColour": 0,
      "splinterType": -1,
      "splinterScatter": 0,
      "objTrailType": 6,
      "objTrailDelay": 1,
      "partTrailType": 0,
      "partTrailObj": -1,
      "partTrailDelay": 0,
      "speed": 220
    },
    {
 // wid38 bullet for: COMET
      "detectDistance": 0,
      "blowAway": 0.10000000149011612,
      "gravity": 0,
      "exploSound": -1,
      "addSpeed": 0,
      "distribution": 0.0152587890625,
      "multSpeed": 1,
      "createOnExp": 1,
      "dirtEffect": -1,
      "wormExplode": true,
      "explGround": true,
      "wormCollide": true,
      "collideWithObjects": false,
      "affectByExplosions": false,
      "bounce": 0,
      "bounceFriction": 0.800000011920929,
      "timeToExplo": 0,
      "timeToExploV": 0,
      "hitDamage": 0,
      "bloodOnHit": 10,
      "startFrame": 173,
      "numFrames": 3,
      "loopAnim": false,
      "shotType": 0,
      "repeat": 1,
      "colorBullets": 0,
      "splinterAmount": 5,
      "splinterColour": 255,
      "splinterType": 5,
      "splinterScatter": 0,
      "objTrailType": 4,
      "objTrailDelay": 1,
      "partTrailType": 0,
      "partTrailObj": -1,
      "partTrailDelay": 0,
      "speed": 200
    },
    {
 // wid39 bullet for: RADIOPARTICLE
      "detectDistance": 0,
      "blowAway": 0,
      "gravity": 0,
      "exploSound": -1,
      "addSpeed": 0,
      "distribution": 0.152587890625,
      "multSpeed": 0.9900000095367432,
      "createOnExp": 1,
      "dirtEffect": -1,
      "wormExplode": true,
      "explGround": false,
      "wormCollide": true,
      "collideWithObjects": false,
      "affectByExplosions": true,
      "bounce": 1,
      "bounceFriction": 1,
      "timeToExplo": 2000,
      "timeToExploV": 100,
      "hitDamage": 0,
      "bloodOnHit": 7,
      "startFrame": 239,
      "numFrames": 0,
      "loopAnim": false,
      "shotType": 0,
      "repeat": 1,
      "colorBullets": 0,
      "splinterAmount": 0,
      "splinterColour": 0,
      "splinterType": -1,
      "splinterScatter": 0,
      "objTrailType": 7,
      "objTrailDelay": 20,
      "partTrailType": 0,
      "partTrailObj": 22,
      "partTrailDelay": 5,
      "speed": 100
    }
  ],
  "nObjects":
  [
    {
 // nid0 
      "detectDistance": 0,
      "gravity": 0.00762939453125,
      "speed": 1.2000000476837158,
      "speedV": 0.4000000059604645,
      "distribution": 0.1220703125,
      "blowAway": 0,
      "bounce": 0.4000000059604645,
      "hitDamage": 0,
      "wormExplode": false,
      "explGround": true,
      "wormDestroy": false,
      "bloodOnHit": 0,
      "startFrame": 165,
      "numFrames": 3,
      "drawOnMap": true,
      "colorBullets": 0,
      "createOnExp": -1,
      "affectByExplosions": false,
      "dirtEffect": -1,
      "splinterAmount": 0,
      "splinterColour": 0,
      "splinterType": -1,
      "bloodTrail": true,
      "bloodTrailDelay": 4,
      "leaveObj": -1,
      "leaveObjDelay": 0,
      "timeToExplo": 0,
      "timeToExploV": 0
    },
    {
 // nid1 
      "detectDistance": 0,
      "gravity": 0.00762939453125,
      "speed": 1.2000000476837158,
      "speedV": 0.4000000059604645,
      "distribution": 0.1220703125,
      "blowAway": 0,
      "bounce": 0.4000000059604645,
      "hitDamage": 0,
      "wormExplode": false,
      "explGround": true,
      "wormDestroy": false,
      "bloodOnHit": 0,
      "startFrame": 169,
      "numFrames": 3,
      "drawOnMap": true,
      "colorBullets": 0,
      "createOnExp": -1,
      "affectByExplosions": false,
      "dirtEffect": -1,
      "splinterAmount": 0,
      "splinterColour": 0,
      "splinterType": -1,
      "bloodTrail": true,
      "bloodTrailDelay": 4,
      "leaveObj": -1,
      "leaveObjDelay": 0,
      "timeToExplo": 0,
      "timeToExploV": 0
    },
    {
 // nid2  splinterType for wObjects: [1,8]
      "detectDistance": 0,
      "gravity": 0,
      "speed": 0.800000011920929,
      "speedV": 0.4000000059604645,
      "distribution": 0.152587890625,
      "blowAway": 0,
      "bounce": 0,
      "hitDamage": 0,
      "wormExplode": false,
      "explGround": true,
      "wormDestroy": false,
      "bloodOnHit": 0,
      "startFrame": 0,
      "numFrames": 0,
      "drawOnMap": false,
      "colorBullets": 17,
      "createOnExp": -1,
      "affectByExplosions": false,
      "dirtEffect": -1,
      "splinterAmount": 0,
      "splinterColour": 0,
      "splinterType": -1,
      "bloodTrail": false,
      "bloodTrailDelay": 0,
      "leaveObj": -1,
      "leaveObjDelay": 0,
      "timeToExplo": 0,
      "timeToExploV": 0
    },
    {
 // nid3  splinterType for nObjects: [10]
      "detectDistance": 0,
      "gravity": 0,
      "speed": 1.600000023841858,
      "speedV": 1.399999976158142,
      "distribution": 0.030517578125,
      "blowAway": 0.10000000149011612,
      "bounce": 0,
      "hitDamage": 2,
      "wormExplode": false,
      "explGround": true,
      "wormDestroy": true,
      "bloodOnHit": 1,
      "startFrame": 0,
      "numFrames": 0,
      "drawOnMap": false,
      "colorBullets": 67,
      "createOnExp": 2,
      "affectByExplosions": false,
      "dirtEffect": -1,
      "splinterAmount": 0,
      "splinterColour": 0,
      "splinterType": -1,
      "bloodTrail": false,
      "bloodTrailDelay": 0,
      "leaveObj": -1,
      "leaveObjDelay": 0,
      "timeToExplo": 0,
      "timeToExploV": 0
    },
    {
 // nid4  splinterType for wObjects: [15] splinterType for nObjects: [11,23]
      "detectDistance": 0,
      "gravity": 0,
      "speed": 1.899999976158142,
      "speedV": 1.600000023841858,
      "distribution": 0.030517578125,
      "blowAway": 0.10000000149011612,
      "bounce": 0,
      "hitDamage": 3,
      "wormExplode": false,
      "explGround": true,
      "wormDestroy": true,
      "bloodOnHit": 1,
      "startFrame": 0,
      "numFrames": 0,
      "drawOnMap": false,
      "colorBullets": 67,
      "createOnExp": 2,
      "affectByExplosions": false,
      "dirtEffect": -1,
      "splinterAmount": 0,
      "splinterColour": 0,
      "splinterType": -1,
      "bloodTrail": false,
      "bloodTrailDelay": 0,
      "leaveObj": -1,
      "leaveObjDelay": 0,
      "timeToExplo": 0,
      "timeToExploV": 0
    },
    {
 // nid5  splinterType for wObjects: [2,7,26,33,38]
      "detectDistance": 0,
      "gravity": 0,
      "speed": 2.200000047683716,
      "speedV": 1.7999999523162842,
      "distribution": 0.030517578125,
      "blowAway": 0.15000000596046448,
      "bounce": 0,
      "hitDamage": 4,
      "wormExplode": false,
      "explGround": true,
      "wormDestroy": true,
      "bloodOnHit": 1,
      "startFrame": 0,
      "numFrames": 0,
      "drawOnMap": false,
      "colorBullets": 67,
      "createOnExp": 2,
      "affectByExplosions": false,
      "dirtEffect": -1,
      "splinterAmount": 0,
      "splinterColour": 0,
      "splinterType": -1,
      "bloodTrail": false,
      "bloodTrailDelay": 0,
      "leaveObj": -1,
      "leaveObjDelay": 0,
      "timeToExplo": 0,
      "timeToExploV": 0
    },
    {
 // nid6 
      "detectDistance": 0,
      "gravity": 0.00762939453125,
      "speed": 0.75,
      "speedV": 0.4000000059604645,
      "distribution": 0.30517578125,
      "blowAway": 0,
      "bounce": 0,
      "hitDamage": 0,
      "wormExplode": false,
      "explGround": true,
      "wormDestroy": false,
      "bloodOnHit": 0,
      "startFrame": 0,
      "numFrames": 0,
      "drawOnMap": false,
      "colorBullets": 0,
      "createOnExp": -1,
      "affectByExplosions": false,
      "dirtEffect": -1,
      "splinterAmount": 0,
      "splinterColour": 0,
      "splinterType": -1,
      "bloodTrail": true,
      "bloodTrailDelay": 4,
      "leaveObj": -1,
      "leaveObjDelay": 0,
      "timeToExplo": 0,
      "timeToExploV": 0
    },
    {
 // nid7 
      "detectDistance": 0,
      "gravity": 0.00152587890625,
      "speed": 0,
      "speedV": 0,
      "distribution": 0.1220703125,
      "blowAway": 0,
      "bounce": 0.4000000059604645,
      "hitDamage": 0,
      "wormExplode": false,
      "explGround": true,
      "wormDestroy": false,
      "bloodOnHit": 0,
      "startFrame": 155,
      "numFrames": 3,
      "drawOnMap": true,
      "colorBullets": 0,
      "createOnExp": -1,
      "affectByExplosions": false,
      "dirtEffect": -1,
      "splinterAmount": 0,
      "splinterColour": 0,
      "splinterType": -1,
      "bloodTrail": false,
      "bloodTrailDelay": 0,
      "leaveObj": -1,
      "leaveObjDelay": 0,
      "timeToExplo": 0,
      "timeToExploV": 0
    },
    {
 // nid8  splinterType for wObjects: [32] partTrailObj for wObjects: [28]
      "detectDistance": 0,
      "gravity": 0,
      "speed": 1.2000000476837158,
      "speedV": 0.4000000059604645,
      "distribution": 0.152587890625,
      "blowAway": 0,
      "bounce": 0,
      "hitDamage": 0,
      "wormExplode": false,
      "explGround": false,
      "wormDestroy": false,
      "bloodOnHit": 0,
      "startFrame": 0,
      "numFrames": 0,
      "drawOnMap": false,
      "colorBullets": 0,
      "createOnExp": 7,
      "affectByExplosions": false,
      "dirtEffect": -1,
      "splinterAmount": 0,
      "splinterColour": 0,
      "splinterType": -1,
      "bloodTrail": false,
      "bloodTrailDelay": 0,
      "leaveObj": 1,
      "leaveObjDelay": 10,
      "timeToExplo": 15,
      "timeToExploV": 0
    },
    {
 // nid9  splinterType for wObjects: [19]
      "detectDistance": 0,
      "gravity": 0.0152587890625,
      "speed": 2,
      "speedV": 1.2000000476837158,
      "distribution": 0.30517578125,
      "blowAway": 0,
      "bounce": 0,
      "hitDamage": 0,
      "wormExplode": false,
      "explGround": false,
      "wormDestroy": false,
      "bloodOnHit": 0,
      "startFrame": 177,
      "numFrames": 0,
      "drawOnMap": false,
      "colorBullets": 0,
      "createOnExp": 0,
      "affectByExplosions": true,
      "dirtEffect": -1,
      "splinterAmount": 2,
      "splinterColour": 75,
      "splinterType": 11,
      "bloodTrail": false,
      "bloodTrailDelay": 0,
      "leaveObj": 3,
      "leaveObjDelay": 5,
      "timeToExplo": 10,
      "timeToExploV": 9
    },
    {
 // nid10  splinterType for wObjects: [25]
      "detectDistance": 0,
      "gravity": 0,
      "speed": 1.399999976158142,
      "speedV": 0.20000000298023224,
      "distribution": 0.4999847412109375,
      "blowAway": 0.15000000596046448,
      "bounce": 0,
      "hitDamage": 1,
      "wormExplode": true,
      "explGround": true,
      "wormDestroy": true,
      "bloodOnHit": 10,
      "startFrame": 173,
      "numFrames": 3,
      "drawOnMap": false,
      "colorBullets": 0,
      "createOnExp": 0,
      "affectByExplosions": false,
      "dirtEffect": -1,
      "splinterAmount": 5,
      "splinterColour": 66,
      "splinterType": 3,
      "bloodTrail": false,
      "bloodTrailDelay": 0,
      "leaveObj": 3,
      "leaveObjDelay": 1,
      "timeToExplo": 0,
      "timeToExploV": 0
    },
    {
 // nid11  splinterType for nObjects: [9]
      "detectDistance": 1,
      "gravity": 0.0152587890625,
      "speed": 2,
      "speedV": 1.2000000476837158,
      "distribution": 0.30517578125,
      "blowAway": 0,
      "bounce": 0.6000000238418579,
      "hitDamage": 1,
      "wormExplode": true,
      "explGround": false,
      "wormDestroy": true,
      "bloodOnHit": 9,
      "startFrame": 177,
      "numFrames": 0,
      "drawOnMap": false,
      "colorBullets": 0,
      "createOnExp": 0,
      "affectByExplosions": true,
      "dirtEffect": -1,
      "splinterAmount": 6,
      "splinterColour": 75,
      "splinterType": 4,
      "bloodTrail": false,
      "bloodTrailDelay": 0,
      "leaveObj": 3,
      "leaveObjDelay": 5,
      "timeToExplo": 100,
      "timeToExploV": 40
    },
    {
 // nid12  splinterType for wObjects: [22]
      "detectDistance": 0,
      "gravity": 0,
      "speed": 1.5,
      "speedV": 0.8999999761581421,
      "distribution": 0.000244140625,
      "blowAway": 0,
      "bounce": 0,
      "hitDamage": 0,
      "wormExplode": false,
      "explGround": true,
      "wormDestroy": false,
      "bloodOnHit": 0,
      "startFrame": 0,
      "numFrames": 0,
      "drawOnMap": false,
      "colorBullets": 10,
      "createOnExp": 8,
      "affectByExplosions": false,
      "dirtEffect": -1,
      "splinterAmount": 0,
      "splinterColour": 0,
      "splinterType": -1,
      "bloodTrail": false,
      "bloodTrailDelay": 0,
      "leaveObj": 8,
      "leaveObjDelay": 4,
      "timeToExplo": 40,
      "timeToExploV": 20
    },
    {
 // nid13 
      "detectDistance": 0,
      "gravity": 0,
      "speed": 4,
      "speedV": 8,
      "distribution": 0.152587890625,
      "blowAway": 0,
      "bounce": 1,
      "hitDamage": 0,
      "wormExplode": false,
      "explGround": false,
      "wormDestroy": false,
      "bloodOnHit": 0,
      "startFrame": 0,
      "numFrames": 0,
      "drawOnMap": false,
      "colorBullets": 0,
      "createOnExp": -1,
      "affectByExplosions": false,
      "dirtEffect": 4,
      "splinterAmount": 0,
      "splinterColour": 0,
      "splinterType": -1,
      "bloodTrail": false,
      "bloodTrailDelay": 0,
      "leaveObj": -1,
      "leaveObjDelay": 0,
      "timeToExplo": 1,
      "timeToExploV": 0
    },
    {
 // nid14  splinterType for wObjects: [18]
      "detectDistance": 0,
      "gravity": 0,
      "speed": 1.5,
      "speedV": 0,
      "distribution": 0,
      "blowAway": 0,
      "bounce": 0,
      "hitDamage": 0,
      "wormExplode": false,
      "explGround": false,
      "wormDestroy": false,
      "bloodOnHit": 0,
      "startFrame": 0,
      "numFrames": 0,
      "drawOnMap": false,
      "colorBullets": 0,
      "createOnExp": 5,
      "affectByExplosions": false,
      "dirtEffect": 0,
      "splinterAmount": 1,
      "splinterColour": 0,
      "splinterType": 22,
      "bloodTrail": false,
      "bloodTrailDelay": 0,
      "leaveObj": -1,
      "leaveObjDelay": 0,
      "timeToExplo": 10,
      "timeToExploV": 9
    },
    {
 // nid15  partTrailObj for wObjects: [5]
      "detectDistance": 0,
      "gravity": 0,
      "speed": 0,
      "speedV": 0,
      "distribution": 0,
      "blowAway": 0.05000000074505806,
      "bounce": 0,
      "hitDamage": 10,
      "wormExplode": true,
      "explGround": true,
      "wormDestroy": true,
      "bloodOnHit": 3,
      "startFrame": 0,
      "numFrames": 255,
      "drawOnMap": false,
      "colorBullets": 1,
      "createOnExp": 2,
      "affectByExplosions": true,
      "dirtEffect": 2,
      "splinterAmount": 0,
      "splinterColour": 0,
      "splinterType": -1,
      "bloodTrail": false,
      "bloodTrailDelay": 0,
      "leaveObj": -1,
      "leaveObjDelay": 0,
      "timeToExplo": 500,
      "timeToExploV": 0
    },
    {
 // nid16  splinterType for wObjects: [30]
      "detectDistance": 0,
      "gravity": 0,
      "speed": 1.2000000476837158,
      "speedV": 0.4000000059604645,
      "distribution": 0.152587890625,
      "blowAway": 0,
      "bounce": 0,
      "hitDamage": 1,
      "wormExplode": false,
      "explGround": true,
      "wormDestroy": false,
      "bloodOnHit": 10,
      "startFrame": 159,
      "numFrames": 5,
      "drawOnMap": false,
      "colorBullets": 0,
      "createOnExp": 2,
      "affectByExplosions": true,
      "dirtEffect": -1,
      "splinterAmount": 0,
      "splinterColour": 0,
      "splinterType": -1,
      "bloodTrail": false,
      "bloodTrailDelay": 0,
      "leaveObj": -1,
      "leaveObjDelay": 0,
      "timeToExplo": 20,
      "timeToExploV": 0
    },
    {
 // nid17  splinterType for nObjects: [18]
      "detectDistance": 0,
      "gravity": 0,
      "speed": 0,
      "speedV": 0,
      "distribution": 0,
      "blowAway": 0,
      "bounce": 0,
      "hitDamage": 0,
      "wormExplode": false,
      "explGround": false,
      "wormDestroy": false,
      "bloodOnHit": 0,
      "startFrame": 126,
      "numFrames": 0,
      "drawOnMap": false,
      "colorBullets": 0,
      "createOnExp": -1,
      "affectByExplosions": true,
      "dirtEffect": 0,
      "splinterAmount": 0,
      "splinterColour": 0,
      "splinterType": -1,
      "bloodTrail": false,
      "bloodTrailDelay": 0,
      "leaveObj": -1,
      "leaveObjDelay": 0,
      "timeToExplo": 400,
      "timeToExploV": 0
    },
    {
 // nid18  splinterType for wObjects: [11,12]
      "detectDistance": 0,
      "gravity": 0,
      "speed": 1.5,
      "speedV": 0,
      "distribution": 0,
      "blowAway": 0,
      "bounce": 0,
      "hitDamage": 0,
      "wormExplode": false,
      "explGround": false,
      "wormDestroy": false,
      "bloodOnHit": 0,
      "startFrame": 126,
      "numFrames": 0,
      "drawOnMap": false,
      "colorBullets": 0,
      "createOnExp": -1,
      "affectByExplosions": true,
      "dirtEffect": 4,
      "splinterAmount": 1,
      "splinterColour": 0,
      "splinterType": 17,
      "bloodTrail": false,
      "bloodTrailDelay": 0,
      "leaveObj": 6,
      "leaveObjDelay": 1,
      "timeToExplo": 15,
      "timeToExploV": 0
    },
    {
 // nid19  splinterType for wObjects: [6]
      "detectDistance": 1,
      "gravity": 0,
      "speed": 1.2000000476837158,
      "speedV": 0,
      "distribution": 0,
      "blowAway": 0.10000000149011612,
      "bounce": 0,
      "hitDamage": 1,
      "wormExplode": true,
      "explGround": true,
      "wormDestroy": true,
      "bloodOnHit": 10,
      "startFrame": 173,
      "numFrames": 3,
      "drawOnMap": false,
      "colorBullets": 0,
      "createOnExp": 0,
      "affectByExplosions": true,
      "dirtEffect": -1,
      "splinterAmount": 0,
      "splinterColour": 0,
      "splinterType": -1,
      "bloodTrail": false,
      "bloodTrailDelay": 0,
      "leaveObj": -1,
      "leaveObjDelay": 0,
      "timeToExplo": 0,
      "timeToExploV": 0
    },
    {
 // nid20 
      "detectDistance": 3,
      "gravity": 0,
      "speed": 0,
      "speedV": 0,
      "distribution": 0,
      "blowAway": 0,
      "bounce": 0.4000000059604645,
      "hitDamage": 0,
      "wormExplode": false,
      "explGround": false,
      "wormDestroy": false,
      "bloodOnHit": 0,
      "startFrame": 213,
      "numFrames": 0,
      "drawOnMap": false,
      "colorBullets": 0,
      "createOnExp": -1,
      "affectByExplosions": true,
      "dirtEffect": -1,
      "splinterAmount": 0,
      "splinterColour": 0,
      "splinterType": -1,
      "bloodTrail": false,
      "bloodTrailDelay": 0,
      "leaveObj": -1,
      "leaveObjDelay": 0,
      "timeToExplo": 0,
      "timeToExploV": 0
    },
    {
 // nid21 
      "detectDistance": 3,
      "gravity": 0,
      "speed": 0,
      "speedV": 0,
      "distribution": 0,
      "blowAway": 0,
      "bounce": 0.4000000059604645,
      "hitDamage": 0,
      "wormExplode": false,
      "explGround": false,
      "wormDestroy": false,
      "bloodOnHit": 0,
      "startFrame": 214,
      "numFrames": 0,
      "drawOnMap": false,
      "colorBullets": 0,
      "createOnExp": -1,
      "affectByExplosions": true,
      "dirtEffect": -1,
      "splinterAmount": 0,
      "splinterColour": 0,
      "splinterType": -1,
      "bloodTrail": false,
      "bloodTrailDelay": 0,
      "leaveObj": -1,
      "leaveObjDelay": 0,
      "timeToExplo": 0,
      "timeToExploV": 0
    },
    {
 // nid22  partTrailObj for wObjects: [39] splinterType for nObjects: [14]
      "detectDistance": 0,
      "gravity": 0,
      "speed": 1.2000000476837158,
      "speedV": 0.20000000298023224,
      "distribution": 0,
      "blowAway": 0,
      "bounce": 0,
      "hitDamage": 5,
      "wormExplode": false,
      "explGround": true,
      "wormDestroy": true,
      "bloodOnHit": 0,
      "startFrame": 0,
      "numFrames": 255,
      "drawOnMap": false,
      "colorBullets": 4,
      "createOnExp": -1,
      "affectByExplosions": true,
      "dirtEffect": 5,
      "splinterAmount": 0,
      "splinterColour": 0,
      "splinterType": -1,
      "bloodTrail": false,
      "bloodTrailDelay": 0,
      "leaveObj": -1,
      "leaveObjDelay": 0,
      "timeToExplo": 100,
      "timeToExploV": 0
    },
    {
 // nid23  splinterType for wObjects: [10,17,20,23]
      "detectDistance": 0,
      "gravity": 0.0152587890625,
      "speed": 2,
      "speedV": 1.2000000476837158,
      "distribution": 0,
      "blowAway": 0,
      "bounce": 0,
      "hitDamage": 0,
      "wormExplode": false,
      "explGround": false,
      "wormDestroy": false,
      "bloodOnHit": 0,
      "startFrame": 239,
      "numFrames": 0,
      "drawOnMap": false,
      "colorBullets": 0,
      "createOnExp": 0,
      "affectByExplosions": true,
      "dirtEffect": -1,
      "splinterAmount": 5,
      "splinterColour": 0,
      "splinterType": 4,
      "bloodTrail": false,
      "bloodTrailDelay": 0,
      "leaveObj": -1,
      "leaveObjDelay": 0,
      "timeToExplo": 10,
      "timeToExploV": 9
    }
  ],
  "sObjects":
  [
    {
 // sid0  createOnExp for wObjects: [2,5,7,8,10,19,20,21,22,23,26,30,33,34] createOnExp for nObjects: [9,10,11,19,23]
      "startSound": 9,
      "numSounds": 4,
      "animDelay": 2,
      "startFrame": 40,
      "numFrames": 15,
      "detectRange": 20,
      "damage": 15,
      "blowAway": 0.0457763671875,
      "shadow": false,
      "shake": 4,
      "flash": 8,
      "dirtEffect": 0
    },
    {
 // sid1  createOnExp for wObjects: [15,36,38,39] leaveObj for nObjects: [8]
      "startSound": 9,
      "numSounds": 4,
      "animDelay": 2,
      "startFrame": 45,
      "numFrames": 10,
      "detectRange": 14,
      "damage": 10,
      "blowAway": 0.0457763671875,
      "shadow": false,
      "shake": 2,
      "flash": 4,
      "dirtEffect": 1
    },
    {
 // sid2  createOnExp for wObjects: [3,29] createOnExp for nObjects: [3,4,5,15,16]
      "startSound": 7,
      "numSounds": 2,
      "animDelay": 2,
      "startFrame": 50,
      "numFrames": 5,
      "detectRange": 8,
      "damage": 5,
      "blowAway": 0.030517578125,
      "shadow": false,
      "shake": 0,
      "flash": 0,
      "dirtEffect": 2
    },
    {
 // sid3  createOnExp for wObjects: [0,1,11,13,14,24,31,37] objTrailType for wObjects: [12,13,19,32] leaveObj for nObjects: [9,10,11]
      "startSound": -1,
      "numSounds": 0,
      "animDelay": 4,
      "startFrame": 64,
      "numFrames": 4,
      "detectRange": 0,
      "damage": 0,
      "blowAway": 0,
      "shadow": false,
      "shake": 0,
      "flash": 0,
      "dirtEffect": -1
    },
    {
 // sid4  objTrailType for wObjects: [5,15,38]
      "startSound": -1,
      "numSounds": 0,
      "animDelay": 4,
      "startFrame": 100,
      "numFrames": 3,
      "detectRange": 0,
      "damage": 0,
      "blowAway": 0,
      "shadow": true,
      "shake": 0,
      "flash": 0,
      "dirtEffect": 5
    },
    {
 // sid5  createOnExp for wObjects: [18] createOnExp for nObjects: [14]
      "startSound": -1,
      "numSounds": 0,
      "animDelay": 3,
      "startFrame": 104,
      "numFrames": 3,
      "detectRange": 10,
      "damage": 20,
      "blowAway": 0.0457763671875,
      "shadow": false,
      "shake": 0,
      "flash": 0,
      "dirtEffect": -1
    },
    {
 // sid6  objTrailType for wObjects: [3,7,8,9,10,16,20,21,24,31,35,36,37] leaveObj for nObjects: [18]
      "startSound": -1,
      "numSounds": 0,
      "animDelay": 2,
      "startFrame": 76,
      "numFrames": 2,
      "detectRange": 0,
      "damage": 0,
      "blowAway": 0,
      "shadow": true,
      "shake": 0,
      "flash": 0,
      "dirtEffect": -1
    },
    {
 // sid7  objTrailType for wObjects: [39] createOnExp for nObjects: [8]
      "startSound": -1,
      "numSounds": 0,
      "animDelay": 2,
      "startFrame": 91,
      "numFrames": 4,
      "detectRange": 0,
      "damage": 0,
      "blowAway": 0,
      "shadow": true,
      "shake": 0,
      "flash": 0,
      "dirtEffect": -1
    },
    {
 // sid8  createOnExp for nObjects: [12] leaveObj for nObjects: [12]
      "startSound": -1,
      "numSounds": 0,
      "animDelay": 2,
      "startFrame": 49,
      "numFrames": 6,
      "detectRange": 8,
      "damage": 7,
      "blowAway": 0,
      "shadow": true,
      "shake": 0,
      "flash": 0,
      "dirtEffect": 2
    },
    {
 // sid9 
      "startSound": -1,
      "numSounds": 0,
      "animDelay": 2,
      "startFrame": 53,
      "numFrames": 2,
      "detectRange": 6,
      "damage": 0,
      "blowAway": 0,
      "shadow": true,
      "shake": 0,
      "flash": 0,
      "dirtEffect": 5
    },
    {
 // sid10  createOnExp for wObjects: [16]
      "startSound": -1,
      "numSounds": 4,
      "animDelay": 2,
      "startFrame": 47,
      "numFrames": 8,
      "detectRange": 10,
      "damage": 6,
      "blowAway": 0.0457763671875,
      "shadow": true,
      "shake": 2,
      "flash": 3,
      "dirtEffect": 1
    },
    {
 // sid11  objTrailType for wObjects: [33]
      "startSound": -1,
      "numSounds": 0,
      "animDelay": 3,
      "startFrame": 104,
      "numFrames": 3,
      "detectRange": 14,
      "damage": 0,
      "blowAway": 0.0457763671875,
      "shadow": true,
      "shake": 0,
      "flash": 0,
      "dirtEffect": 1
    },
    {
 // sid12  createOnExp for wObjects: [17]
      "startSound": 4,
      "numSounds": 0,
      "animDelay": 2,
      "startFrame": 45,
      "numFrames": 10,
      "detectRange": 20,
      "damage": 20,
      "blowAway": 0,
      "shadow": true,
      "shake": 40,
      "flash": 50,
      "dirtEffect": 0
    },
    {
 // sid13  objTrailType for wObjects: [4]
      "startSound": -1,
      "numSounds": 0,
      "animDelay": 2,
      "startFrame": 45,
      "numFrames": 10,
      "detectRange": 14,
      "damage": 0,
      "blowAway": 0,
      "shadow": false,
      "shake": 0,
      "flash": 0,
      "dirtEffect": -1
    }
  ],
  "textures":
  [
    {
      "nDrawBack": true,
      "mFrame": 0,
      "sFrame": 73,
      "rFrame": 2
    },
    {
      "nDrawBack": true,
      "mFrame": 1,
      "sFrame": 73,
      "rFrame": 2
    },
    {
      "nDrawBack": true,
      "mFrame": 2,
      "sFrame": 73,
      "rFrame": 2
    },
    {
      "nDrawBack": true,
      "mFrame": 37,
      "sFrame": 73,
      "rFrame": 2
    },
    {
      "nDrawBack": false,
      "mFrame": 0,
      "sFrame": 87,
      "rFrame": 2
    },
    {
      "nDrawBack": true,
      "mFrame": 39,
      "sFrame": 73,
      "rFrame": 2
    },
    {
      "nDrawBack": false,
      "mFrame": 38,
      "sFrame": 82,
      "rFrame": 2
    },
    {
      "nDrawBack": true,
      "mFrame": 99,
      "sFrame": 73,
      "rFrame": 2
    },
    {
      "nDrawBack": true,
      "mFrame": 37,
      "sFrame": 73,
      "rFrame": 2
    }
  ],
  "colorAnim":
  [
    129,
    131,
    133,
    136,
    152,
    159,
    168,
    171
  ],
  "textSpritesStartIdx": 240,
  "crossHairSprite": 153
}